<?xml version="1.0" encoding="utf-8"?>
<!-- Generator: Adobe Illustrator 17.0.0, SVG Export Plug-In . SVG Version: 6.00 Build 0)  -->
<!DOCTYPE svg PUBLIC "-//W3C//DTD SVG 1.1//EN" "http://www.w3.org/Graphics/SVG/1.1/DTD/svg11.dtd">
<svg version="1.1" id="Layer_1" xmlns="http://www.w3.org/2000/svg" xmlns:xlink="http://www.w3.org/1999/xlink" x="0px" y="0px"
	 width="232px" height="130px" viewBox="0 0 232 130" enable-background="new 0 0 232 130" xml:space="preserve">
<g>
	<g>
		<g>
			<defs>
				<rect id="SVGID_1_" x="57.495" y="0.002" width="133.3" height="129.998"/>
			</defs>
			<clipPath id="SVGID_2_">
				<use xlink:href="#SVGID_1_"  overflow="visible"/>
			</clipPath>
			<path clip-path="url(#SVGID_2_)" d="M141.501,63.872c0.333,0.089,0.057,1.352-0.525,2.935c-0.664,1.813-1.531,2.653-1.335,2.741
				c0.249,0.114,2.058-0.848,3.159-2.307c0.734-0.974,1.217-2.111,1.556-2.062c0.502,0.063-1.143,5.792-6.199,5.701
				c-2.14-0.036-3.852-0.921-5.48-3.184c0,0,0.314-0.169,0.858-0.978c0.753-1.099,0.951-1.818,1.36-1.756
				c0.217,0.027,0.011,1.006-0.221,2.026c-0.232,1.01-0.565,1.396-0.502,1.486c0.063,0.091,1.333-0.462,2.094-1.82
				c0.921-1.657,1.183-2.659,1.702-2.659c0.358,0,0.055,1.847-0.403,3.188c-0.504,1.48-1.263,2.336-1.166,2.444
				c0.148,0.162,1.632-0.525,2.813-2.414C140.135,65.726,140.938,63.712,141.501,63.872"/>
		</g>
		<g>
			<defs>
				<rect id="SVGID_3_" x="57.495" y="0.002" width="133.3" height="129.998"/>
			</defs>
			<clipPath id="SVGID_4_">
				<use xlink:href="#SVGID_3_"  overflow="visible"/>
			</clipPath>
			<path clip-path="url(#SVGID_4_)" d="M145.1,58.088c0.226-0.063,0.78,0.127,1.252,0.072c0.449-0.042,0.626-0.276,1.174-0.215
				c0.493,0.063,0.795,0.55,1.099,0.605c2.509,0.468,1.845,0.19,6.84,1.233c5.36,1.132,5.923,1.594,5.933,1.702
				c0,0.127-2.819-0.287-5.524-0.352c-1.653-0.036-9.459-0.196-15.392,0.531c-6.532,0.812-9.467,1.756-9.864,1.902
				c-0.186-0.559-0.337-1.316-0.491-2.1c4.664-0.772,9.372-1.225,12.86-1.259c3.125-0.036,5.919,0.145,6.553-0.072
				c0.124-0.046,0.08-0.226,0.044-0.289c-0.179-0.299-0.761-0.567-1.449-0.708c-0.297-0.067-0.673,0.186-1.05,0.16
				c-0.434-0.027-0.489-0.352-0.679-0.409c-0.597-0.177-1.495,0.164-1.575,0.137C144.636,58.965,144.931,58.153,145.1,58.088"/>
		</g>
		<g>
			<defs>
				<rect id="SVGID_5_" x="57.495" y="0.002" width="133.3" height="129.998"/>
			</defs>
			<clipPath id="SVGID_6_">
				<use xlink:href="#SVGID_5_"  overflow="visible"/>
			</clipPath>
			<path clip-path="url(#SVGID_6_)" d="M121.653,69.646c1.343-0.046,3.437-0.422,3.597,0.03c0.196,0.557-0.654,1.042-0.679,1.223
				c-0.03,0.171,0.32,0.226,0.759,0.219c1.988-0.049,2.943-0.778,3.194-0.308c0.154,0.276-0.268,0.63-0.251,0.82
				c0.011,0.179,0.54,0.169,0.805,0.179c0.778,0.034,2.256-0.647,2.29-0.152c0.019,0.276-0.337,0.536-0.337,0.673
				c0,0.251,0.401,0.2,0.778,0.171c1.255-0.091,2.068-0.831,2.165-0.352c0.179,0.812-2.307,1.731-4.118,1.687
				c-0.536-0.011-0.894-0.046-1.027-0.316c-0.08-0.164,0.276-0.386,0.249-0.592c-0.017-0.2-0.938,0.08-1.52,0.171
				c-0.805,0.133-2.005,0.232-2.13-0.076c-0.143-0.358,0.538-0.683,0.474-0.9c-0.044-0.152-0.805,0.044-1.685,0.137
				c-1.375,0.135-2.952,0.196-3.043-0.242c-0.116-0.542,1.503-0.947,1.12-1.263c-0.124-0.097-1.219,0.065-2.229,0.072
				c-2.505,0.038-3.964-0.306-1.244-1.347C118.815,69.478,119.496,69.72,121.653,69.646"/>
		</g>
		<g>
			<defs>
				<rect id="SVGID_7_" x="57.495" y="0.002" width="133.3" height="129.998"/>
			</defs>
			<clipPath id="SVGID_8_">
				<use xlink:href="#SVGID_7_"  overflow="visible"/>
			</clipPath>
			<path clip-path="url(#SVGID_8_)" d="M92.296,51.29c-0.008-0.749,2.756-0.046,5.273-1.56c0.491-0.295,0.276-0.611-0.11-0.677
				c-2.058-0.329-7.409-0.786-7.437-2.484c-0.017-0.97,6.041-0.044,8.628-2.134c0.413-0.323,0.249-0.512-0.43-0.512
				c-5.415,0.008-10.435-1.919-10.346-3.386c0.038-0.696,3.266,0.479,7.877,0.089c4.386-0.358,6.444-1.033,6.444-1.44
				c0-0.27-0.888,0.017-4.791-0.133c-3.445-0.137-7.652-1.174-9.933-2.435c-1.771-0.983-3.937-2.747-3.58-3.557
				c0.358-0.822,2.258,1.225,10.694,3.062c7.144,1.548,14.321,1.666,14.321,1.082c0-0.677-7.285-0.2-14.498-3.648
				c-5.64-2.703-9.8-8.331-9.935-11.981c-0.025-0.765,0.044-1.082,0.449-1.082c0.671,0,3.131,4.685,11.006,9.368
				c7.144,4.253,19.449,7.028,19.556,6.349c0.08-0.538-8.7-3.359-15.751-8.464c-7.439-5.379-8.995-11.801-8.995-14.684
				c0-3.243,0.983-4.367,1.788-4.367c0.717,0,0.824,3.998,4.029,8.826c5.233,7.882,22.553,19.411,23,18.781
				c0.224-0.318-8.097-6.621-14.23-16.529c-1.725-2.794-3.357-6.756-3.357-10.629c0-4.818,2.463-8.105,3.806-8.105
				c1.343,0-1.094,5.609,4.474,17.652c3.937,8.514,12.046,18.241,12.484,17.924c0.253-0.179-6.129-9.233-7.384-19.546
				c-1.242-10.267,4.837-17.158,7.968-17.069c1.6,0.046-2.891,6.46-3.043,16.08c-0.177,10.943,4.206,21.142,4.698,20.897
				c0.171-0.08-2.684-8.468,0.226-18.646c2.619-9.187,6.756-13.062,10.739-13.062c0.932,0,0.993,0.757,0.517,1.236
				c-1.008,1.018-5.986,6.836-8.168,15.474c-1.744,6.889-2.598,10.089-1.468,19.234c0.124,1.061-0.24,1.702-2.168,1.702
				c-2.747,0-8.493-1.368-8.645-0.154c-0.061,0.485,0.985,0.856,0.673,1.44c-1.018,1.919-11.565,0.614-10.696,2.117
				c0.78,1.377,3.804,1.035,3.625,1.891c-0.08,0.342-0.32,0.523-0.574,0.768c-1.645,1.609-6.011,1.516-5.851,2.275
				c0.141,0.677,1.565,1.046,2.423,1.271c1.316,0.35,2.918,0.28,2.587,1.198c-0.466,1.271-4.027,1.423-3.983,2.079
				c0.04,0.487,1.782,0.919,2.828,1.035c1.468,0.162,2.33-0.154,1.917,0.742c-0.483,1.052-2.425,1.33-2.345,1.782
				c0.063,0.417,1.153,0.595,2.391,0.66c0.742,0.04,1.818-0.316,1.79,0.297c-0.053,1.276-1.898,1.259-1.809,1.845
				c0.044,0.377,1.68,0.514,2.562,0.358c0.525-0.089,1.206-0.143,1.018,0.496c-0.285,0.964-1.934,2.062-5.003,2.359
				c-1.145,0.12-2.496-0.089-2.53-0.584c-0.027-0.449,1.974-0.432,1.921-0.972c-0.008-0.116-1.352-0.057-2.612-0.162
				c-0.968-0.082-2.515-0.622-2.471-1.048c0.036-0.411,1.756-0.375,2.526-0.945c0.169-0.124,0.188-0.287-0.044-0.306
				c-0.28-0.025-1.969-0.08-2.783-0.198c-0.449-0.072-3.009-0.441-3.053-1.286c-0.025-0.462,1.425-0.506,2.176-0.732
				c0.652-0.196,1.322-0.403,1.322-0.727c0-0.576-6.469-0.297-6.711-2.305c-0.08-0.679,2.165-0.39,3.705-1.263
				c0.411-0.236,0.689-0.666,0.145-0.848C97.829,53.567,92.332,53.055,92.296,51.29"/>
		</g>
		<g>
			<defs>
				<rect id="SVGID_9_" x="57.495" y="0.002" width="133.3" height="129.998"/>
			</defs>
			<clipPath id="SVGID_10_">
				<use xlink:href="#SVGID_9_"  overflow="visible"/>
			</clipPath>
			<path clip-path="url(#SVGID_10_)" d="M103.09,72.611c-0.529,0.261-0.894,0.072-1.487-0.08c1.21-0.949,3.625-2.056,4.968-2.362
				c0.268,0.171,0.77,0.339,1.002,0.432C106.15,71.168,104.387,71.961,103.09,72.611 M114.995,67.746
				c-0.557,0.352-3.673,0.856-3.753,0.559c-0.089-0.318,1.12-1.263,2.237-1.499l-0.008-0.025c-0.367-0.124-0.689-0.447-1.375-0.936
				c-2.302,0.289-6.975,1.47-7.234,2.469c-0.143,0.538,0.135,0.827,0.536,1.215c-0.034,0.027-3.192,1.225-5.145,2.463
				c-0.32,0.198-0.949-0.306-1.575,0.044c-1.208,0.7-4.375,3.232-4.54,3.81c-0.044,0.171-0.16,0.477,0.245,1.754
				c0.337-0.502,2.193-1.748,2.281-1.721c0.008,0.371,0.188,1.307,0.422,1.748c1.986-1.683,6.245-4.04,7.589-4.694
				c5.923-2.981,11.687-4.025,12.826-4.116C116.971,68.663,115.387,68.071,114.995,67.746"/>
		</g>
	</g>
	<polygon points="58.055,126.892 57.494,130 190.794,109.488 	"/>
	<g>
		<g>
			<defs>
				<rect id="SVGID_11_" x="57.495" y="0.002" width="133.3" height="129.998"/>
			</defs>
			<clipPath id="SVGID_12_">
				<use xlink:href="#SVGID_11_"  overflow="visible"/>
			</clipPath>
			<path clip-path="url(#SVGID_12_)" d="M83.838,100.603c0.07,0,0.127,0.011,0.127,0.139c0,0.137-0.162,1.276-0.162,1.518
				c0,0.103-0.044,0.173-0.16,0.207c-0.586,0.183-1.529,0.436-3.163,0.436c-3.095,0-4.257-2.461-4.257-4.002
				c0-2.773,2.06-4.464,4.257-4.464c1.955,0,2.288,0.436,2.6,0.436c0.207,0,0.287-0.194,0.447-0.194
				c0.023,0,0.082,0.023,0.082,0.137c0,0.702,0.217,1.748,0.217,1.841c0,0.103-0.137,0.15-0.217,0.15c-0.036,0-0.093,0-0.127-0.093
				c-0.495-1.265-1.221-1.978-2.703-1.978c-1.427,0-3.186,1.358-3.186,4.118c0,2.543,1.818,3.749,3.393,3.749
				c0.875,0,2.012-0.483,2.669-1.908C83.675,100.637,83.722,100.603,83.838,100.603"/>
		</g>
		<g>
			<defs>
				<rect id="SVGID_13_" x="57.495" y="0.002" width="133.3" height="129.998"/>
			</defs>
			<clipPath id="SVGID_14_">
				<use xlink:href="#SVGID_13_"  overflow="visible"/>
			</clipPath>
			<path clip-path="url(#SVGID_14_)" d="M85.411,95.198c0-0.312,0.253-0.611,0.597-0.611c0.346,0,0.599,0.299,0.599,0.611
				c0,0.31-0.253,0.609-0.599,0.609C85.664,95.808,85.411,95.508,85.411,95.198 M86.48,101.674c0,0.656,0.023,0.793,0.529,0.793
				c0.253,0,0.276,0.013,0.276,0.15c0,0.07,0,0.15-0.114,0.15c-0.059,0-0.209-0.023-0.957-0.023c-1.08,0-1.379,0.023-1.552,0.023
				c-0.091,0-0.091-0.07-0.091-0.127c0-0.15,0.011-0.173,0.436-0.173c0.299,0,0.403-0.114,0.47-0.276
				c0.046-0.103,0.07-0.919,0.07-1.655v-1.577c0-0.403-0.103-0.633-0.679-0.689c-0.091-0.011-0.103-0.057-0.103-0.137
				c0-0.093,0.036-0.15,0.093-0.162c1.311-0.264,1.472-0.563,1.611-0.563c0.044,0,0.067,0.057,0.067,0.127
				c0,0.046-0.057,0.16-0.057,1.655L86.48,101.674L86.48,101.674z"/>
		</g>
		<g>
			<defs>
				<rect id="SVGID_15_" x="57.495" y="0.002" width="133.3" height="129.998"/>
			</defs>
			<clipPath id="SVGID_16_">
				<use xlink:href="#SVGID_15_"  overflow="visible"/>
			</clipPath>
			<path clip-path="url(#SVGID_16_)" d="M89.597,100.718c0,1.221,0.103,1.657,1.012,1.657c0.39,0,0.736-0.266,0.782-0.266
				c0.046,0,0.127,0.116,0.127,0.186c0,0.067-0.483,0.609-1.529,0.609c-1.324,0-1.324-1.139-1.324-1.427v-3.026
				c0-0.091-0.034-0.15-0.116-0.15h-0.574c-0.036,0-0.07-0.034-0.07-0.103c0-0.046,0.013-0.114,0.07-0.16
				c1.069-0.805,1.288-1.415,1.518-1.415c0.07,0,0.137,0.046,0.137,0.15c0,0.207-0.034,0.403-0.034,1.058h1.771
				c0.08,0,0.116,0.08,0.116,0.24c0,0.15-0.07,0.289-0.312,0.289c-0.08,0-0.62-0.059-1.575-0.059L89.597,100.718L89.597,100.718z"/>
		</g>
		<g>
			<defs>
				<rect id="SVGID_17_" x="57.495" y="0.002" width="133.3" height="129.998"/>
			</defs>
			<clipPath id="SVGID_18_">
				<use xlink:href="#SVGID_17_"  overflow="visible"/>
			</clipPath>
			<path clip-path="url(#SVGID_18_)" d="M95.841,98.452c0-0.38-0.54-0.392-0.886-0.392c-0.103,0-0.116-0.057-0.116-0.15
				c0-0.08,0.046-0.148,0.103-0.148c0.369,0,0.749,0.021,1.118,0.021c0.356,0,0.713-0.021,1.069-0.021c0.08,0,0.08,0.103,0.08,0.148
				c0,0.105-0.034,0.139-0.194,0.15c-0.392,0.036-0.552,0.103-0.725,0.508c-0.415,0.953-2.001,4.289-2.254,4.934
				c-0.888,2.22-1.267,2.37-1.647,2.37c-0.367,0-0.643-0.323-0.643-0.679c0-0.344,0.333-0.62,0.666-0.62
				c0.289,0,0.439,0.194,0.576,0.194c0.207,0,0.749-1.105,0.749-1.645c0-0.289-0.276-0.966-0.403-1.288
				c-0.725-1.864-0.945-2.863-1.185-3.509c-0.103-0.266-0.679-0.266-0.829-0.266c-0.08,0-0.103-0.08-0.103-0.16
				c0-0.093,0.057-0.137,0.127-0.137c0.139,0,0.862,0.021,1.276,0.021c0.392,0,0.795-0.021,1.141-0.021
				c0.114,0,0.137,0.067,0.137,0.148c0,0.059-0.034,0.15-0.114,0.15c-0.07,0-0.565,0-0.565,0.253c0,0.555,0.392,1.691,1.139,3.614
				C94.886,100.833,95.841,98.809,95.841,98.452"/>
		</g>
		<g>
			<defs>
				<rect id="SVGID_19_" x="57.495" y="0.002" width="133.3" height="129.998"/>
			</defs>
			<clipPath id="SVGID_20_">
				<use xlink:href="#SVGID_19_"  overflow="visible"/>
			</clipPath>
			<path clip-path="url(#SVGID_20_)" d="M102.579,97.865c-1.196,0-1.575,1.244-1.575,2.37c0,0.978,0.23,2.37,1.575,2.37
				c1.358,0,1.588-1.392,1.588-2.37C104.167,99.109,103.787,97.865,102.579,97.865 M102.579,102.904
				c-1.575,0-2.669-1.139-2.669-2.669c0-1.518,1.139-2.669,2.669-2.669c1.541,0,2.68,1.118,2.68,2.669
				C105.259,101.846,104.19,102.904,102.579,102.904"/>
		</g>
		<g>
			<defs>
				<rect id="SVGID_21_" x="57.495" y="0.002" width="133.3" height="129.998"/>
			</defs>
			<clipPath id="SVGID_22_">
				<use xlink:href="#SVGID_21_"  overflow="visible"/>
			</clipPath>
			<path clip-path="url(#SVGID_22_)" d="M107.881,101.789c0,0.426,0,0.679,0.576,0.679c0.426,0,0.47,0.011,0.47,0.137
				c0,0.15-0.044,0.162-0.171,0.162c-0.415,0-0.782-0.023-1.311-0.023c-0.921,0-1.115,0.023-1.221,0.023
				c-0.08,0-0.103-0.07-0.103-0.15c0-0.116,0.023-0.15,0.242-0.15c0.493,0,0.586-0.093,0.586-0.586V98.67
				c0-0.137,0-0.367-0.219-0.367h-0.63c-0.082,0-0.139,0-0.139-0.15c0-0.093,0.08-0.137,0.356-0.196
				c0.449-0.103,0.563-0.127,0.599-0.643c0.114-1.75,0.633-2.716,1.99-3.072c0.183-0.046,0.493-0.093,0.7-0.093
				c0.299,0,0.725,0.116,0.725,0.495c0,0.333-0.196,0.563-0.542,0.563c-0.103,0-0.356-0.034-0.63-0.264
				c-0.196-0.16-0.403-0.264-0.506-0.264c-0.656,0-0.772,0.953-0.772,1.666v1.484h1.425c0.082,0,0.116,0.08,0.116,0.242
				c0,0.15-0.07,0.287-0.31,0.287c-0.08,0-0.966-0.057-1.231-0.057C107.881,98.301,107.881,101.789,107.881,101.789z"/>
		</g>
		<g>
			<defs>
				<rect id="SVGID_23_" x="57.495" y="0.002" width="133.3" height="129.998"/>
			</defs>
			<clipPath id="SVGID_24_">
				<use xlink:href="#SVGID_23_"  overflow="visible"/>
			</clipPath>
			<path clip-path="url(#SVGID_24_)" d="M120.082,94.587c0.426,0,0.529-0.287,0.713-0.287c0.07,0,0.082,0.044,0.196,0.436
				c0.38,1.311,0.506,1.531,0.506,1.565c0,0.034-0.103,0.093-0.173,0.093c-0.08,0-0.114-0.013-0.16-0.082
				c-0.552-0.999-1.105-1.379-1.944-1.379h-1.404c-0.194,0-0.276,0.127-0.276,0.725v4.441c0,0.493,0.013,1.24,0.036,1.815
				c0.011,0.312,0.08,0.508,0.989,0.508c0.323,0,0.323,0.067,0.323,0.194c0,0.103,0,0.15-0.093,0.15
				c-0.08,0-0.127-0.023-1.828-0.023c-1.691,0-1.737,0.023-1.818,0.023c-0.093,0-0.093-0.046-0.093-0.15
				c0-0.127,0-0.194,0.323-0.194c0.909,0,0.978-0.196,0.989-0.508c0.023-0.576,0.034-1.322,0.034-1.815v-4.441
				c0-0.725-0.114-0.725-0.506-0.725h-1.252c-0.852,0-1.427,0.702-1.877,1.379c-0.046,0.07-0.091,0.07-0.196,0.07
				c-0.103,0-0.16-0.046-0.16-0.08c0-0.034,0.057-0.08,0.552-1.541c0.046-0.127,0.07-0.46,0.173-0.46
				c0.242,0,0.287,0.287,0.759,0.287L120.082,94.587L120.082,94.587z"/>
		</g>
		<g>
			<defs>
				<rect id="SVGID_25_" x="57.495" y="0.002" width="133.3" height="129.998"/>
			</defs>
			<clipPath id="SVGID_26_">
				<use xlink:href="#SVGID_25_"  overflow="visible"/>
			</clipPath>
			<path clip-path="url(#SVGID_26_)" d="M123.45,98.257c0.599-0.403,1.105-0.692,1.805-0.692c0.392,0,1.52,0.082,1.52,1.727v2.76
				c0,0.196,0.034,0.413,0.746,0.413c0.116,0,0.116,0.07,0.116,0.15c0,0.07,0,0.15-0.162,0.15c-0.344,0-0.552-0.023-1.162-0.023
				c-0.932,0-1.115,0.023-1.208,0.023c-0.067,0-0.08-0.08-0.08-0.137c0-0.059,0.023-0.162,0.162-0.162
				c0.55,0,0.654-0.044,0.654-0.424v-2.06c0-1.069-0.091-1.782-1.286-1.782c-0.495,0-1.058,0.23-1.105,0.426v3.047
				c0,0.656,0.023,0.793,0.529,0.793c0.31,0,0.333,0.013,0.333,0.15c0,0.07,0,0.15-0.114,0.15c-0.059,0-0.209-0.023-1.014-0.023
				c-1.08,0-1.379,0.023-1.495,0.023c-0.091,0-0.091-0.07-0.091-0.127c0-0.15,0.011-0.173,0.436-0.173
				c0.24,0,0.344-0.114,0.413-0.276c0.046-0.103,0.07-1.621,0.07-2.115V96.05c0-1.002-0.034-1.141-0.666-1.198
				c-0.07-0.013-0.103-0.057-0.103-0.139c0-0.091,0.034-0.148,0.091-0.16c0.932-0.16,1.484-0.493,1.6-0.493
				c0.044,0,0.067,0.057,0.067,0.127c0,0.044-0.057,0.16-0.057,1.655v2.415H123.45z"/>
		</g>
		<g>
			<defs>
				<rect id="SVGID_27_" x="57.495" y="0.002" width="133.3" height="129.998"/>
			</defs>
			<clipPath id="SVGID_28_">
				<use xlink:href="#SVGID_27_"  overflow="visible"/>
			</clipPath>
			<path clip-path="url(#SVGID_28_)" d="M131.246,99.291c0.23,0,0.392-0.067,0.392-0.38c0-0.896-0.622-1.092-1.012-1.092
				c-0.829,0-1.174,0.689-1.288,1.472H131.246z M129.269,99.637c-0.034,0.219-0.046,0.439-0.046,0.656
				c0,0.749,0.635,1.898,1.887,1.898c0.529,0,0.978-0.16,1.345-0.689c0.07-0.093,0.116-0.196,0.173-0.196
				c0.08,0,0.186,0.103,0.186,0.139c0,0.034-0.462,1.461-1.98,1.461c-1.645,0-2.507-1.014-2.507-2.623c0-1.647,1.115-2.76,2.3-2.76
				c1.91,0,2.06,1.643,2.06,1.988c0,0.116-0.046,0.127-0.139,0.127L129.269,99.637L129.269,99.637z"/>
		</g>
		<g>
			<defs>
				<rect id="SVGID_29_" x="57.495" y="0.002" width="133.3" height="129.998"/>
			</defs>
			<clipPath id="SVGID_30_">
				<use xlink:href="#SVGID_29_"  overflow="visible"/>
			</clipPath>
			<path clip-path="url(#SVGID_30_)" d="M138.4,98.797v1.301c0,0.493,0.013,1.242,0.036,1.818c0.011,0.31,0.08,0.506,0.989,0.506
				c0.32,0,0.32,0.067,0.32,0.194c0,0.103,0,0.15-0.091,0.15c-0.082,0-0.127-0.023-1.83-0.023c-1.691,0-1.735,0.023-1.818,0.023
				c-0.091,0-0.091-0.046-0.091-0.15c0-0.127,0-0.194,0.32-0.194c0.909,0,0.978-0.196,0.989-0.506
				c0.023-0.576,0.036-1.324,0.036-1.818v-2.819c0-0.816-0.013-1.094-0.023-1.621c-0.013-0.679-0.207-0.772-1.208-0.772
				c-0.127,0-0.127-0.091-0.127-0.194c0-0.07,0.023-0.15,0.103-0.15c0.093,0,1.092,0.044,1.818,0.044
				c0.738,0,1.737-0.044,1.83-0.044c0.08,0,0.103,0.08,0.103,0.15c0,0.103,0,0.194-0.127,0.194c-1.002,0-1.196,0.093-1.208,0.772
				c-0.011,0.527-0.023,0.805-0.023,1.621v1.172h4.567v-1.172c0-0.816-0.013-1.094-0.023-1.621
				c-0.013-0.679-0.207-0.772-1.208-0.772c-0.127,0-0.127-0.091-0.127-0.194c0-0.07,0.023-0.15,0.103-0.15
				c0.093,0,1.092,0.044,1.83,0.044c0.723,0,1.725-0.044,1.815-0.044c0.082,0,0.105,0.08,0.105,0.15c0,0.103,0,0.194-0.129,0.194
				c-0.999,0-1.196,0.093-1.206,0.772c-0.013,0.527-0.023,0.805-0.023,1.621v2.819c0,0.493,0.011,1.242,0.034,1.818
				c0.013,0.31,0.08,0.506,0.989,0.506c0.323,0,0.323,0.067,0.323,0.194c0,0.103,0,0.15-0.093,0.15c-0.08,0-0.127-0.023-1.815-0.023
				c-1.704,0-1.75,0.023-1.83,0.023c-0.091,0-0.091-0.046-0.091-0.15c0-0.127,0-0.194,0.32-0.194c0.909,0,0.978-0.196,0.989-0.506
				c0.023-0.576,0.036-1.324,0.036-1.818v-1.301H138.4z"/>
		</g>
		<g>
			<defs>
				<rect id="SVGID_31_" x="57.495" y="0.002" width="133.3" height="129.998"/>
			</defs>
			<clipPath id="SVGID_32_">
				<use xlink:href="#SVGID_31_"  overflow="visible"/>
			</clipPath>
			<path clip-path="url(#SVGID_32_)" d="M148.784,100.42c0-0.059-0.034-0.116-0.08-0.116c-0.057,0-0.909,0.38-1.139,0.563
				c-0.323,0.242-0.38,0.415-0.38,0.839c0,0.358,0.15,0.715,0.54,0.715c0.439,0,1.058-0.403,1.058-0.609L148.784,100.42
				L148.784,100.42z M149.716,102.122c0,0.186,0.08,0.23,0.196,0.23c0.23,0,0.403-0.266,0.495-0.266
				c0.057,0,0.148,0.082,0.148,0.129c0,0.137-0.746,0.689-1.149,0.689c-0.415,0-0.506-0.264-0.633-0.666
				c-0.679,0.529-1.002,0.666-1.484,0.666c-0.898,0-1.105-0.656-1.105-1.025c0-0.586,0.346-1.069,2.6-1.908v-1.048
				c0-0.597-0.689-0.907-0.966-0.907c-0.264,0-0.818,0.413-0.818,0.527c0,0.162,0.15,0.323,0.15,0.576
				c0,0.127-0.103,0.436-0.563,0.436c-0.39,0-0.483-0.299-0.483-0.426c0-0.31,0.08-0.46,0.942-1.033
				c0.864-0.565,0.991-0.576,1.244-0.576c0.367,0,1.425,0.276,1.425,1.322v3.28H149.716z"/>
		</g>
		<g>
			<defs>
				<rect id="SVGID_33_" x="57.495" y="0.002" width="133.3" height="129.998"/>
			</defs>
			<clipPath id="SVGID_34_">
				<use xlink:href="#SVGID_33_"  overflow="visible"/>
			</clipPath>
			<path clip-path="url(#SVGID_34_)" d="M154.58,99.224c0-0.173,0-1.392-0.966-1.392c-1.069,0-1.082,1.368-1.082,1.771
				c0,0.679,0.23,1.368,1.035,1.368C154.51,100.972,154.58,99.717,154.58,99.224 M152.636,103.135c-0.067,0-0.749,0.517-0.749,1.149
				c0,0.162,0.046,1.058,1.657,1.058c1.311,0,1.921-0.403,1.921-1.299c0-0.702-0.426-0.909-1.174-0.909L152.636,103.135
				L152.636,103.135z M154.477,102.26c1.575,0,1.565,1.025,1.565,1.368c0,1.737-1.921,2.243-3.325,2.243
				c-0.746,0-1.484-0.196-1.484-1.082c0-0.713,0.529-1.229,1.002-1.691c-0.356-0.034-0.689-0.333-0.689-0.702
				c0-0.689,0.367-0.989,0.886-1.345c-0.668-0.344-0.898-0.909-0.898-1.634c0-1.08,1.002-1.885,2.037-1.885
				c0.472,0,1.012,0.16,1.392,0.449c0.472-0.299,0.725-0.346,0.978-0.346c0.736,0,0.862,0.403,0.862,0.643
				c0,0.173-0.196,0.403-0.436,0.403c-0.299,0-0.576-0.656-0.782-0.656c-0.196,0-0.266,0.07-0.436,0.15
				c0.217,0.23,0.436,0.818,0.436,1.115c0,1.244-0.782,1.98-2.047,1.98c-0.139,0-0.599-0.023-0.829-0.127
				c-0.183,0.103-0.472,0.344-0.472,0.736c0,0.333,0.276,0.38,0.542,0.38h1.698V102.26z"/>
		</g>
		<g>
			<defs>
				<rect id="SVGID_35_" x="57.495" y="0.002" width="133.3" height="129.998"/>
			</defs>
			<clipPath id="SVGID_36_">
				<use xlink:href="#SVGID_35_"  overflow="visible"/>
			</clipPath>
			<path clip-path="url(#SVGID_36_)" d="M157.788,99.177c0-1.012-0.116-1.082-0.715-1.082c-0.091,0-0.251,0-0.251-0.114
				c0-0.093,0-0.23,0.127-0.23c0.114,0,0.297,0.034,0.677,0.034c0.405,0,0.841-0.034,1.002-0.034c0.07,0,0.093,0,0.093,0.16v3.106
				c0,0.862,0.276,1.358,1.126,1.358c0.415,0,1.141-0.253,1.141-0.609v-2.981c0-0.62-0.116-0.689-0.715-0.689
				c-0.207,0-0.367,0-0.367-0.114c0-0.173,0-0.23,0.08-0.23c0.16,0,0.299,0.034,1.002,0.034c0.287,0,0.586-0.034,0.873-0.034
				c0.103,0,0.16,0.044,0.16,0.16c0,0.046-0.103,0.932-0.103,1.748v2.163c0,0.183,0,0.426,0.289,0.426
				c0.16,0,0.413-0.046,0.493-0.046c0.046,0,0.07,0,0.07,0.219c0,0.067-0.011,0.091-0.38,0.148
				c-0.978,0.162-1.255,0.299-1.322,0.299c-0.08,0-0.139-0.08-0.139-0.16c0-0.139,0.023-0.323,0.036-0.436
				c-0.576,0.424-1.278,0.633-1.714,0.633c-1.139,0-1.461-0.736-1.461-1.934v-1.795H157.788z"/>
		</g>
		<g>
			<defs>
				<rect id="SVGID_37_" x="57.495" y="0.002" width="133.3" height="129.998"/>
			</defs>
			<clipPath id="SVGID_38_">
				<use xlink:href="#SVGID_37_"  overflow="visible"/>
			</clipPath>
			<path clip-path="url(#SVGID_38_)" d="M166.343,99.291c0.232,0,0.392-0.067,0.392-0.38c0-0.896-0.622-1.092-1.012-1.092
				c-0.829,0-1.172,0.689-1.288,1.472H166.343z M164.365,99.637c-0.034,0.219-0.046,0.439-0.046,0.656
				c0,0.749,0.635,1.898,1.887,1.898c0.529,0,0.978-0.16,1.345-0.689c0.07-0.093,0.116-0.196,0.173-0.196
				c0.08,0,0.186,0.103,0.186,0.139c0,0.034-0.462,1.461-1.98,1.461c-1.645,0-2.507-1.014-2.507-2.623c0-1.647,1.115-2.76,2.3-2.76
				c1.91,0,2.06,1.643,2.06,1.988c0,0.116-0.046,0.127-0.139,0.127L164.365,99.637L164.365,99.637z"/>
		</g>
	</g>
</g>
</svg>
