<?xml version="1.0" encoding="utf-8"?>
<!-- Generator: Adobe Illustrator 17.0.0, SVG Export Plug-In . SVG Version: 6.00 Build 0)  -->
<!DOCTYPE svg PUBLIC "-//W3C//DTD SVG 1.1//EN" "http://www.w3.org/Graphics/SVG/1.1/DTD/svg11.dtd">
<svg version="1.1" id="Layer_1" xmlns="http://www.w3.org/2000/svg" xmlns:xlink="http://www.w3.org/1999/xlink" x="0px" y="0px"
	 width="232px" height="130px" viewBox="0 0 232 130" enable-background="new 0 0 232 130" xml:space="preserve">
<g>
	<g>
		<g>
			<defs>
				<rect id="SVGID_1_" x="37.992" y="4.299" width="161.02" height="111.626"/>
			</defs>
			<clipPath id="SVGID_2_">
				<use xlink:href="#SVGID_1_"  overflow="visible"/>
			</clipPath>
			<path clip-path="url(#SVGID_2_)" fill="#FFFFFF" d="M117.051,12.904c-0.977-0.614-2.946,0.825-5.162,3.761
				c0.185-1.419,0.168-2.384,0.168-2.394l-0.002-0.125l-0.113,0.052c-0.01,0.005-0.787,0.379-1.856,1.2
				c0.096-3.086-0.416-5.017-1.419-5.292c-1.048-0.286-2.419,1.248-3.779,4.212c-0.171-1.252-0.389-2.141-0.391-2.148l-0.035-0.146
				l-0.102,0.108c-0.008,0.008-0.664,0.694-1.489,1.802c-0.258-1.562-0.609-2.906-1.021-3.901c0.419-0.329,0.848-0.732,1.248-1.173
				c1.398-1.554,2.083-3.142,1.557-3.615c-0.527-0.477-2.036,0.369-3.437,1.921c-0.156,0.175-0.313,0.366-0.481,0.581
				c-0.175-0.246-0.452-0.398-0.76-0.398s-0.587,0.153-0.76,0.398c-0.171-0.215-0.325-0.406-0.484-0.581
				c-1.402-1.552-2.911-2.396-3.437-1.921c-0.523,0.473,0.158,2.061,1.557,3.615c0.402,0.441,0.833,0.845,1.248,1.173
				c-0.411,0.996-0.76,2.339-1.018,3.901c-0.825-1.108-1.484-1.795-1.489-1.802l-0.102-0.108l-0.038,0.146
				c0,0.008-0.218,0.898-0.389,2.148c-1.361-2.963-2.73-4.498-3.779-4.212c-1.002,0.275-1.517,2.206-1.421,5.292
				c-1.065-0.823-1.846-1.196-1.852-1.2l-0.115-0.052L87.9,14.271c0,0.01-0.015,0.975,0.171,2.394
				c-2.216-2.936-4.184-4.375-5.162-3.761c-1.45,0.913-0.229,5.909,2.778,11.373c1.056,1.91,2.214,3.66,3.354,5.067
				c-0.077,0.146-0.15,0.3-0.221,0.492c-0.178,0.411-0.268,0.835-0.268,1.256c0,0.94,0.419,1.838,1.246,2.665
				c1.963,1.961,5.864,3.181,10.184,3.181c4.317,0,8.221-1.221,10.181-3.181c0.827-0.827,1.248-1.725,1.248-2.665
				c0-0.421-0.09-0.845-0.271-1.261c-0.071-0.185-0.14-0.341-0.221-0.486c1.141-1.406,2.302-3.156,3.357-5.067
				C117.28,18.814,118.5,13.816,117.051,12.904 M111.767,29.421l-0.03,0.04l0.02,0.045l0.01,0.02
				c0.015,0.033,0.025,0.05,0.035,0.065l-0.005-0.002c0.215,0.502,0.325,1.018,0.325,1.532c0,3.671-5.335,6.544-12.144,6.544
				c-4.5,0-8.596-1.302-10.69-3.394c-0.95-0.95-1.454-2.041-1.454-3.148c0-0.514,0.11-1.031,0.325-1.532l-0.008,0.002
				c0.01-0.015,0.02-0.033,0.038-0.065l0.008-0.02l0.023-0.045l-0.03-0.04c-1.09-1.394-2.177-3.056-3.144-4.806l-0.002-0.005
				l-0.002-0.002c-1.597-2.906-3.467-7.283-3.467-10.044c0-1.115,0.308-1.875,0.917-2.259c1.354-0.85,3.221,0.671,4.55,2.098
				l0.14,0.15v-0.208c0-0.093,0-0.108,0-0.108c0-0.005,0.02-0.858,0.027-1.175l1.058,0.502c0.03,0.013,0.321,0.158,0.769,0.436
				l0.121,0.075l0.005-0.14c0.096-2.675,0.742-4.194,1.918-4.517c1.125-0.306,2.327,0.584,3.567,2.65l0.098,0.16l0.05-0.181
				l0.319-1.136l0.908,0.792c0.002,0.002,0.215,0.19,0.556,0.554l0.106,0.113l0.033-0.15c0.171-0.737,0.361-1.404,0.571-1.988
				l0.02-0.052l-0.042-0.038l-0.15-0.131c-0.258-0.225-0.523-0.459-0.773-0.735c-1.2-1.331-1.918-2.68-1.918-3.608
				c0-0.406,0.138-0.735,0.406-0.977c1.065-0.963,3.038,0.464,4.402,1.978c-0.002-0.005,0.052,0.063,0.052,0.063l0.038,0.045
				l0.056-0.023c0.218-0.085,0.414-0.127,0.6-0.127c0.183,0,0.379,0.042,0.596,0.127l0.056,0.023l0.038-0.045l0.056-0.067
				c1.364-1.509,3.334-2.936,4.402-1.973c0.268,0.243,0.404,0.571,0.404,0.977c0,0.927-0.715,2.277-1.915,3.608
				c-0.248,0.275-0.517,0.509-0.773,0.735l-0.153,0.131l-0.04,0.038l0.017,0.052c0.211,0.584,0.404,1.252,0.571,1.988l0.035,0.15
				l0.106-0.113c0.338-0.363,0.554-0.552,0.554-0.554c0,0,0.662-0.577,0.908-0.792l0.319,1.136l0.052,0.183l0.098-0.163
				c1.241-2.066,2.44-2.956,3.565-2.65c1.179,0.323,1.823,1.842,1.921,4.517l0.005,0.14l0.121-0.075
				c0.448-0.279,0.74-0.423,0.765-0.436c0.002,0,0.773-0.363,1.06-0.502l0.027,1.171c0,0.005,0.002,0.02,0.002,0.113v0.208
				l0.14-0.15c1.329-1.427,3.196-2.948,4.548-2.098c0.609,0.383,0.92,1.143,0.92,2.259c0,2.76-1.871,7.138-3.473,10.048
				C113.942,26.364,112.854,28.027,111.767,29.421"/>
		</g>
	</g>
	<polygon fill="#FFFFFF" points="46.987,89.066 41.749,95.622 41.606,95.803 41.606,95.57 41.606,89.066 38.074,89.066 
		38.074,104.27 41.606,104.27 41.606,96.962 41.606,96.718 41.752,96.912 47.335,104.27 51.84,104.27 45.382,96.232 45.339,96.177 
		45.385,96.124 51.485,89.066 	"/>
	<g>
		<g>
			<defs>
				<rect id="SVGID_3_" x="37.992" y="4.299" width="161.02" height="111.626"/>
			</defs>
			<clipPath id="SVGID_4_">
				<use xlink:href="#SVGID_3_"  overflow="visible"/>
			</clipPath>
			<path clip-path="url(#SVGID_4_)" fill="#FFFFFF" d="M59.615,99.531l-1.783,0.042c-1.767,0.042-1.908,0.546-1.906,1.2v0.035
				c0,0.316,0.077,0.55,0.241,0.712c0.175,0.175,0.441,0.261,0.817,0.261c0.737,0,1.903-0.165,2.652-0.373l0.06-0.017v-0.06v-1.717
				v-0.086L59.615,99.531z M64.138,101.778l-0.123,2.582c-2.35,0.115-3.688-0.281-3.973-1.186l-0.035-0.113l-0.093,0.073
				c-0.632,0.489-1.906,1.309-3.362,1.309c-1.412,0-2.469-0.338-3.142-1.01c-0.571-0.571-0.862-1.389-0.862-2.427
				c0-0.938,0.279-1.687,0.823-2.234c0.798-0.798,2.164-1.183,4.182-1.183h2.066H59.7v-0.083v-1.023
				c0-0.394-0.096-0.682-0.294-0.883c-0.348-0.346-1-0.416-1.94-0.416c-1.15,0-2.4,0.254-3.482,0.506l-0.677-2.479
				c1.238-0.464,2.765-0.927,4.704-0.927c1.692,0,3.289,0.081,4.234,1.025c0.562,0.562,0.835,1.371,0.835,2.479v5.41
				C63.078,101.68,63.59,101.755,64.138,101.778"/>
		</g>
		<g>
			<defs>
				<rect id="SVGID_5_" x="37.992" y="4.299" width="161.02" height="111.626"/>
			</defs>
			<clipPath id="SVGID_6_">
				<use xlink:href="#SVGID_5_"  overflow="visible"/>
			</clipPath>
			<path clip-path="url(#SVGID_6_)" fill="#FFFFFF" d="M74.712,95.365c-0.427-0.427-1.06-0.617-2.056-0.617
				c-0.421,0-1.221,0.181-1.65,0.279l-0.127,0.027l-0.065,0.015v0.065v6.348v0.073l0.073,0.008l0.158,0.02
				c0.366,0.048,0.865,0.11,1.373,0.11c0.752,0,1.414-0.263,1.915-0.765c0.682-0.682,1.058-1.79,1.058-3.121
				C75.392,96.59,75.181,95.837,74.712,95.365 M78.921,97.788c0,2.339-0.677,4.092-2.008,5.207c-1.113,0.933-2.648,1.406-4.56,1.406
				c-2.623,0-3.736-0.271-4.984-0.654V88.023h3.444v4.528v0.108l0.106-0.03c0.815-0.231,1.865-0.409,2.389-0.409
				c1.948,0,3.34,0.444,4.254,1.359C78.478,94.49,78.921,95.869,78.921,97.788"/>
		</g>
		<g>
			<defs>
				<rect id="SVGID_7_" x="37.992" y="4.299" width="161.02" height="111.626"/>
			</defs>
			<clipPath id="SVGID_8_">
				<use xlink:href="#SVGID_7_"  overflow="visible"/>
			</clipPath>
			<path clip-path="url(#SVGID_8_)" fill="#FFFFFF" d="M90.049,99.949l-1.694-1.933l-0.045-0.052l0.042-0.052l4.219-5.323h-3.681
				l-3.257,4.357l-0.148,0.196v-0.246v-8.85h-3.465v16.223h3.465v-4.786v-0.246l0.148,0.196l2.108,2.803
				c1.471,1.956,3.029,2.202,4.906,2.292l0.391-2.598C91.535,101.524,90.845,100.851,90.049,99.949"/>
		</g>
	</g>
	<polygon fill="#FFFFFF" points="102.244,91.542 102.202,91.489 102.246,91.437 104.483,88.889 103.3,88.889 101.142,91.494 
		101.113,91.527 101.142,91.562 103.433,94.49 104.638,94.49 	"/>
	<polygon fill="#FFFFFF" points="100.059,88.891 100.059,94.489 100.996,94.489 100.996,91.669 101.111,91.526 100.996,91.376 
		100.996,88.891 	"/>
	<g>
		<g>
			<defs>
				<rect id="SVGID_9_" x="37.992" y="4.299" width="161.02" height="111.626"/>
			</defs>
			<clipPath id="SVGID_10_">
				<use xlink:href="#SVGID_9_"  overflow="visible"/>
			</clipPath>
			<path clip-path="url(#SVGID_10_)" fill="#FFFFFF" d="M108.077,91.075c-0.196-0.196-0.464-0.294-0.798-0.294
				c-0.779,0-1.191,0.544-1.191,1.571c0,0.577,0.123,0.977,0.379,1.233c0.198,0.198,0.479,0.298,0.827,0.298
				c0.341,0,0.609-0.096,0.8-0.286c0.25-0.25,0.369-0.65,0.369-1.254C108.464,91.749,108.335,91.333,108.077,91.075 M109.398,92.347
				c0,1.381-0.83,2.242-2.169,2.242c-0.625,0-1.121-0.181-1.475-0.534c-0.379-0.377-0.579-0.952-0.579-1.667
				c0-0.725,0.215-1.323,0.619-1.73c0.373-0.371,0.895-0.567,1.509-0.567c0.664,0,1.175,0.175,1.525,0.523
				C109.208,90.989,109.398,91.574,109.398,92.347"/>
		</g>
		<g>
			<defs>
				<rect id="SVGID_11_" x="37.992" y="4.299" width="161.02" height="111.626"/>
			</defs>
			<clipPath id="SVGID_12_">
				<use xlink:href="#SVGID_11_"  overflow="visible"/>
			</clipPath>
			<path clip-path="url(#SVGID_12_)" fill="#FFFFFF" d="M114.409,90.4c-0.215-0.215-0.554-0.321-1.033-0.321
				c-0.632,0-1.123,0.348-1.419,0.554l-0.025,0.02l-0.131,0.09v-0.158v-0.383h-0.913v4.287h0.913v-3.179v-0.048l0.042-0.023
				l0.015-0.008c0.231-0.125,0.715-0.386,1.173-0.386c0.279,0,0.466,0.06,0.594,0.185c0.188,0.188,0.213,0.511,0.213,0.833v2.625
				h0.905v-2.746C114.745,91.232,114.718,90.709,114.409,90.4"/>
		</g>
	</g>
	<polygon fill="#FFFFFF" points="116.361,88.735 117.027,89.402 117.694,88.735 117.027,88.076 	"/>
	<rect x="116.588" y="90.202" fill="#FFFFFF" width="0.905" height="4.287"/>
	<g>
		<g>
			<defs>
				<rect id="SVGID_13_" x="37.992" y="4.299" width="161.02" height="111.626"/>
			</defs>
			<clipPath id="SVGID_14_">
				<use xlink:href="#SVGID_13_"  overflow="visible"/>
			</clipPath>
			<path clip-path="url(#SVGID_14_)" fill="#FFFFFF" d="M122.869,90.4c-0.215-0.215-0.554-0.321-1.033-0.321
				c-0.632,0-1.123,0.348-1.419,0.554l-0.025,0.02l-0.131,0.09v-0.158v-0.383h-0.913v4.287h0.913v-3.179v-0.048l0.042-0.023
				l0.013-0.008c0.213-0.115,0.715-0.386,1.175-0.386c0.279,0,0.466,0.06,0.594,0.185c0.188,0.188,0.213,0.511,0.213,0.833v2.625
				h0.905v-2.746C123.206,91.232,123.177,90.709,122.869,90.4"/>
		</g>
		<g>
			<defs>
				<rect id="SVGID_15_" x="37.992" y="4.299" width="161.02" height="111.626"/>
			</defs>
			<clipPath id="SVGID_16_">
				<use xlink:href="#SVGID_15_"  overflow="visible"/>
			</clipPath>
			<path clip-path="url(#SVGID_16_)" fill="#FFFFFF" d="M127.666,93.125l-0.75-0.89l-0.045-0.052l0.045-0.052l1.623-1.925h-0.969
				l-1.532,1.893l-0.118,0.148l0.121,0.158l1.043,1.361c0.537,0.679,1.035,0.782,1.537,0.81l0.115-0.675
				C128.348,93.779,128.015,93.54,127.666,93.125"/>
		</g>
	</g>
	<polygon fill="#FFFFFF" points="124.983,88.507 124.983,94.489 125.895,94.489 125.895,92.451 125.895,92.276 125.918,92.243 
		125.895,92.21 125.895,92.045 125.895,88.507 	"/>
	<rect x="130.011" y="88.507" fill="#FFFFFF" width="0.913" height="5.982"/>
	<polygon fill="#FFFFFF" points="132.571,88.735 133.237,89.402 133.904,88.735 133.237,88.076 	"/>
	<rect x="132.798" y="90.202" fill="#FFFFFF" width="0.902" height="4.287"/>
	<g>
		<g>
			<defs>
				<rect id="SVGID_17_" x="37.992" y="4.299" width="161.02" height="111.626"/>
			</defs>
			<clipPath id="SVGID_18_">
				<use xlink:href="#SVGID_17_"  overflow="visible"/>
			</clipPath>
			<path clip-path="url(#SVGID_18_)" fill="#FFFFFF" d="M135.626,90.203v4.4c0,0.389-0.06,0.617-0.2,0.757
				c-0.113,0.113-0.275,0.165-0.509,0.165c-0.175,0-0.411-0.035-0.546-0.058l0.055,0.687c0.229,0.067,0.65,0.127,0.915,0.127
				c0.84,0,1.191-0.233,1.191-1.669v-4.41C136.532,90.203,135.626,90.203,135.626,90.203z"/>
		</g>
	</g>
	<polygon fill="#FFFFFF" points="135.416,88.735 136.083,89.402 136.75,88.735 136.083,88.076 	"/>
	<g>
		<g>
			<defs>
				<rect id="SVGID_19_" x="37.992" y="4.299" width="161.02" height="111.626"/>
			</defs>
			<clipPath id="SVGID_20_">
				<use xlink:href="#SVGID_19_"  overflow="visible"/>
			</clipPath>
			<path clip-path="url(#SVGID_20_)" fill="#FFFFFF" d="M141.081,93.125l-0.75-0.89l-0.045-0.052l0.045-0.052l1.623-1.925h-0.965
				l-1.532,1.893l-0.121,0.148l0.121,0.158l1.043,1.361c0.537,0.679,1.033,0.782,1.537,0.81l0.115-0.675
				C141.763,93.779,141.43,93.54,141.081,93.125"/>
		</g>
	</g>
	<polygon fill="#FFFFFF" points="138.397,88.507 138.397,94.489 139.312,94.489 139.312,92.451 139.312,92.276 139.335,92.243 
		139.312,92.21 139.312,92.045 139.312,88.507 	"/>
	<g>
		<g>
			<defs>
				<rect id="SVGID_21_" x="37.992" y="4.299" width="161.02" height="111.626"/>
			</defs>
			<clipPath id="SVGID_22_">
				<use xlink:href="#SVGID_21_"  overflow="visible"/>
			</clipPath>
			<path clip-path="url(#SVGID_22_)" fill="#FFFFFF" d="M145.689,90.985c-0.153-0.156-0.352-0.238-0.577-0.238
				c-0.456,0-1.006,0.298-1.06,1.138l-0.005,0.085h0.088h1.777h0.081v-0.081C145.997,91.502,145.893,91.191,145.689,90.985
				 M146.938,92.256v0.308h-2.828h-0.083v0.083c0.01,1.098,0.775,1.191,1.492,1.191c0.306,0,0.794-0.04,1.143-0.102l0.131,0.677
				c-0.366,0.1-1,0.15-1.467,0.15c-0.804,0-1.341-0.163-1.692-0.514c-0.344-0.344-0.509-0.875-0.509-1.629
				c0-0.819,0.193-1.427,0.575-1.808c0.341-0.341,0.85-0.514,1.512-0.514c0.514,0,0.917,0.14,1.198,0.421
				C146.76,90.87,146.938,91.454,146.938,92.256"/>
		</g>
		<g>
			<defs>
				<rect id="SVGID_23_" x="37.992" y="4.299" width="161.02" height="111.626"/>
			</defs>
			<clipPath id="SVGID_24_">
				<use xlink:href="#SVGID_23_"  overflow="visible"/>
			</clipPath>
			<path clip-path="url(#SVGID_24_)" fill="#FFFFFF" d="M153.641,91.849c0,0-0.431-1.379-0.431-1.377l-0.283-1.018l-0.075-0.261
				l-0.083,0.258l-0.333,1.018c0-0.002-0.489,1.377-0.489,1.377l-0.04,0.108h0.118h1.539h0.113L153.641,91.849z M155.48,94.489
				h-0.967l-0.602-1.827l-0.017-0.056h-0.06h-2.111h-0.055l-0.02,0.052l-0.69,1.83h-0.925l2.171-5.598h1.377L155.48,94.489z"/>
		</g>
		<g>
			<defs>
				<rect id="SVGID_25_" x="37.992" y="4.299" width="161.02" height="111.626"/>
			</defs>
			<clipPath id="SVGID_26_">
				<use xlink:href="#SVGID_25_"  overflow="visible"/>
			</clipPath>
			<path clip-path="url(#SVGID_26_)" fill="#FFFFFF" d="M159.563,93.784c-0.204,0.035-0.411,0.071-0.685,0.071
				c-0.579,0-0.958-0.11-1.191-0.344c-0.233-0.233-0.333-0.589-0.333-1.188c0-1.321,0.807-1.517,1.289-1.517
				c0.406,0,0.679,0.065,0.971,0.173l0.254-0.644c-0.325-0.165-0.715-0.246-1.223-0.246c-0.671,0-1.236,0.208-1.627,0.6
				c-0.391,0.391-0.6,0.95-0.6,1.617c0,0.817,0.165,1.361,0.517,1.715c0.371,0.371,0.965,0.542,1.873,0.542
				c0.427,0,0.694-0.056,1.008-0.123l0.023-0.005l-0.121-0.675C159.665,93.767,159.613,93.777,159.563,93.784"/>
		</g>
		<g>
			<defs>
				<rect id="SVGID_27_" x="37.992" y="4.299" width="161.02" height="111.626"/>
			</defs>
			<clipPath id="SVGID_28_">
				<use xlink:href="#SVGID_27_"  overflow="visible"/>
			</clipPath>
			<path clip-path="url(#SVGID_28_)" fill="#FFFFFF" d="M163.544,92.598l-0.823,0.04c-0.65,0.03-0.925,0.221-0.925,0.637
				c0,0.19,0.05,0.336,0.15,0.436c0.106,0.106,0.263,0.158,0.469,0.158c0.273,0,0.675-0.148,0.942-0.246
				c0.09-0.033,0.168-0.063,0.213-0.073l0.06-0.017V93.47v-0.79v-0.088L163.544,92.598z M164.912,93.864l-0.04,0.667
				c-0.502,0.017-1.083-0.05-1.161-0.441l-0.027-0.125l-0.102,0.075c-0.261,0.193-0.7,0.514-1.329,0.514
				c-0.459,0-0.804-0.113-1.031-0.338c-0.204-0.203-0.306-0.498-0.306-0.875c0-0.819,0.569-1.226,1.745-1.238l0.888-0.008h0.081
				l0.002-0.083V91.54c0-0.229-0.052-0.386-0.16-0.494c-0.168-0.165-0.454-0.2-0.86-0.2c-0.409,0-0.86,0.108-1.181,0.188
				l-0.171-0.65c0.356-0.131,0.883-0.288,1.539-0.288c0.523,0,1.106,0.045,1.427,0.366c0.19,0.19,0.283,0.466,0.283,0.84v2.202
				C164.509,93.804,164.744,93.852,164.912,93.864"/>
		</g>
		<g>
			<defs>
				<rect id="SVGID_29_" x="37.992" y="4.299" width="161.02" height="111.626"/>
			</defs>
			<clipPath id="SVGID_30_">
				<use xlink:href="#SVGID_29_"  overflow="visible"/>
			</clipPath>
			<path clip-path="url(#SVGID_30_)" fill="#FFFFFF" d="M169.117,90.849c-0.211-0.052-0.448-0.075-0.727-0.075
				c-0.84,0-1.321,0.567-1.321,1.557c0,0.552,0.125,0.958,0.373,1.204c0.19,0.19,0.448,0.288,0.767,0.288
				c0.323,0,0.65-0.16,0.865-0.266l0.06-0.027l0.045-0.023v-0.052v-2.525v-0.065L169.117,90.849z M170.084,88.507v5.982h-0.905
				v-0.268v-0.168l-0.133,0.102c-0.248,0.198-0.531,0.391-1.015,0.391c-0.554,0-0.993-0.156-1.298-0.464
				c-0.371-0.371-0.559-0.967-0.559-1.777c0-0.675,0.208-1.238,0.604-1.635c0.391-0.391,0.96-0.607,1.604-0.607
				c0.329,0,0.481,0.03,0.696,0.081l0.1,0.023v-0.102v-1.557h0.907V88.507z"/>
		</g>
		<g>
			<defs>
				<rect id="SVGID_31_" x="37.992" y="4.299" width="161.02" height="111.626"/>
			</defs>
			<clipPath id="SVGID_32_">
				<use xlink:href="#SVGID_31_"  overflow="visible"/>
			</clipPath>
			<path clip-path="url(#SVGID_32_)" fill="#FFFFFF" d="M174.125,90.985c-0.153-0.156-0.352-0.238-0.577-0.238
				c-0.454,0-1.006,0.298-1.06,1.138l-0.005,0.085h0.088h1.777h0.081v-0.081C174.433,91.502,174.329,91.191,174.125,90.985
				 M175.373,92.256v0.308h-2.828h-0.083v0.083c0.01,1.098,0.775,1.191,1.492,1.191c0.306,0,0.794-0.04,1.143-0.102l0.131,0.677
				c-0.366,0.1-1,0.15-1.467,0.15c-0.804,0-1.341-0.163-1.692-0.514c-0.344-0.344-0.509-0.875-0.509-1.629
				c0-0.817,0.193-1.427,0.575-1.808c0.341-0.341,0.85-0.514,1.512-0.514c0.514,0,0.917,0.14,1.198,0.421
				C175.196,90.87,175.373,91.454,175.373,92.256"/>
		</g>
		<g>
			<defs>
				<rect id="SVGID_33_" x="37.992" y="4.299" width="161.02" height="111.626"/>
			</defs>
			<clipPath id="SVGID_34_">
				<use xlink:href="#SVGID_33_"  overflow="visible"/>
			</clipPath>
			<path clip-path="url(#SVGID_34_)" fill="#FFFFFF" d="M183.062,90.399c-0.213-0.215-0.537-0.319-0.99-0.319
				c-0.607,0-1.123,0.344-1.504,0.642l-0.083,0.065l-0.042-0.096c-0.181-0.402-0.587-0.612-1.173-0.612
				c-0.571,0-1.075,0.354-1.346,0.544l-0.04,0.027c0,0-0.131,0.09-0.127,0.09v-0.158v-0.381h-0.913v4.287h0.913v-3.178v-0.05
				l0.042-0.023l0.027-0.015c0.236-0.127,0.675-0.361,1.06-0.361c0.266,0,0.448,0.058,0.571,0.181
				c0.15,0.15,0.213,0.389,0.213,0.823v2.625h0.902v-2.756c0-0.138,0-0.279-0.023-0.411l-0.01-0.056l0.05-0.027
				c0.308-0.181,0.752-0.396,1.115-0.396c0.254,0,0.439,0.06,0.564,0.185c0.156,0.158,0.218,0.398,0.218,0.835v2.625h0.913v-2.748
				C183.4,91.294,183.4,90.737,183.062,90.399"/>
		</g>
	</g>
	<polygon fill="#FFFFFF" points="185.018,88.735 185.685,89.402 186.352,88.735 185.685,88.076 	"/>
	<rect x="185.244" y="90.202" fill="#FFFFFF" width="0.905" height="4.287"/>
	<g>
		<g>
			<defs>
				<rect id="SVGID_35_" x="37.992" y="4.299" width="161.02" height="111.626"/>
			</defs>
			<clipPath id="SVGID_36_">
				<use xlink:href="#SVGID_35_"  overflow="visible"/>
			</clipPath>
			<path clip-path="url(#SVGID_36_)" fill="#FFFFFF" d="M190.271,90.985c-0.153-0.156-0.352-0.238-0.577-0.238
				c-0.456,0-1.006,0.298-1.06,1.138l-0.005,0.085h0.088h1.777h0.081v-0.081C190.579,91.502,190.473,91.191,190.271,90.985
				 M191.519,92.256v0.308h-2.828h-0.083v0.083c0.01,1.098,0.775,1.191,1.492,1.191c0.306,0,0.794-0.04,1.144-0.102l0.131,0.677
				c-0.366,0.1-1,0.15-1.467,0.15c-0.804,0-1.341-0.163-1.692-0.514c-0.344-0.344-0.509-0.875-0.509-1.629
				c0-0.819,0.193-1.427,0.575-1.808c0.341-0.341,0.85-0.514,1.512-0.514c0.514,0,0.917,0.14,1.198,0.421
				C191.342,90.87,191.519,91.454,191.519,92.256"/>
		</g>
		<g>
			<defs>
				<rect id="SVGID_37_" x="37.992" y="4.299" width="161.02" height="111.626"/>
			</defs>
			<clipPath id="SVGID_38_">
				<use xlink:href="#SVGID_37_"  overflow="visible"/>
			</clipPath>
			<path clip-path="url(#SVGID_38_)" fill="#FFFFFF" d="M102.798,99.983c-0.125,0.366-0.902,2.61-0.902,2.608l-0.275,0.913
				l-0.083,0.273l-0.075-0.275c0,0-0.243-0.905-0.243-0.902l-0.804-2.615h-0.983l1.484,4.287h1.229l1.602-4.287h-0.95V99.983z"/>
		</g>
		<g>
			<defs>
				<rect id="SVGID_39_" x="37.992" y="4.299" width="161.02" height="111.626"/>
			</defs>
			<clipPath id="SVGID_40_">
				<use xlink:href="#SVGID_39_"  overflow="visible"/>
			</clipPath>
			<path clip-path="url(#SVGID_40_)" fill="#FFFFFF" d="M107.097,102.378l-0.823,0.04c-0.657,0.03-0.925,0.215-0.925,0.637
				c0,0.19,0.05,0.336,0.15,0.436c0.106,0.106,0.263,0.158,0.469,0.158c0.271,0,0.675-0.148,0.94-0.246
				c0.093-0.033,0.171-0.06,0.215-0.073l0.06-0.017v-0.063v-0.79v-0.088L107.097,102.378z M108.466,103.644l-0.04,0.667
				c-0.502,0.017-1.083-0.052-1.161-0.441l-0.027-0.125l-0.102,0.075c-0.261,0.193-0.7,0.514-1.329,0.514
				c-0.456,0-0.804-0.113-1.031-0.338c-0.204-0.204-0.306-0.498-0.306-0.875c0-0.819,0.571-1.226,1.745-1.238l0.888-0.008h0.081
				c0.002,0,0.002-0.083,0.002-0.083v-0.471c0-0.229-0.052-0.386-0.16-0.494c-0.165-0.165-0.452-0.2-0.86-0.2
				s-0.858,0.108-1.181,0.188l-0.171-0.65c0.358-0.131,0.883-0.288,1.539-0.288c0.523,0,1.106,0.045,1.427,0.366
				c0.19,0.19,0.283,0.466,0.283,0.84v2.202C108.062,103.582,108.298,103.632,108.466,103.644"/>
		</g>
		<g>
			<defs>
				<rect id="SVGID_41_" x="37.992" y="4.299" width="161.02" height="111.626"/>
			</defs>
			<clipPath id="SVGID_42_">
				<use xlink:href="#SVGID_41_"  overflow="visible"/>
			</clipPath>
			<path clip-path="url(#SVGID_42_)" fill="#FFFFFF" d="M113.547,100.18c-0.215-0.215-0.554-0.321-1.033-0.321
				c-0.632,0-1.123,0.348-1.419,0.554l-0.025,0.02l-0.131,0.09v-0.158v-0.383h-0.912v4.287h0.913v-3.179v-0.048l0.042-0.023
				l0.013-0.008c0.233-0.125,0.715-0.386,1.175-0.386c0.279,0,0.466,0.06,0.594,0.185c0.188,0.188,0.213,0.511,0.213,0.833v2.625
				h0.905v-2.746C113.883,101.012,113.856,100.489,113.547,100.18"/>
		</g>
		<g>
			<defs>
				<rect id="SVGID_43_" x="37.992" y="4.299" width="161.02" height="111.626"/>
			</defs>
			<clipPath id="SVGID_44_">
				<use xlink:href="#SVGID_43_"  overflow="visible"/>
			</clipPath>
			<path clip-path="url(#SVGID_44_)" fill="#FFFFFF" d="M120.872,102.017c-0.225-0.223-0.619-0.323-1.277-0.323h-0.644h-0.081v0.083
				v1.702v0.083h0.081h0.825c0.564,0,0.905-0.09,1.106-0.291c0.146-0.146,0.215-0.346,0.215-0.614
				C121.098,102.378,121.022,102.17,120.872,102.017 M120.48,99.608c-0.181-0.181-0.484-0.261-0.983-0.261h-0.546h-0.081v0.081
				v1.575v0.081h0.081h0.621c0.431,0,0.725-0.085,0.9-0.261c0.143-0.14,0.208-0.338,0.208-0.619
				C120.681,99.934,120.619,99.746,120.48,99.608 M122.057,102.631c0,1.104-0.694,1.637-2.119,1.637h-2.013v-5.598h1.767
				c0.752,0,1.291,0.158,1.602,0.469c0.233,0.233,0.346,0.552,0.346,0.975c0,0.652-0.452,0.938-0.621,1.046l-0.038,0.025v0.045
				v0.025v0.058l0.056,0.02C121.704,101.553,122.057,102.005,122.057,102.631"/>
		</g>
		<g>
			<defs>
				<rect id="SVGID_45_" x="37.992" y="4.299" width="161.02" height="111.626"/>
			</defs>
			<clipPath id="SVGID_46_">
				<use xlink:href="#SVGID_45_"  overflow="visible"/>
			</clipPath>
			<path clip-path="url(#SVGID_46_)" fill="#FFFFFF" d="M125.857,100.765c-0.153-0.156-0.354-0.238-0.579-0.238
				c-0.454,0-1.006,0.298-1.06,1.138l-0.005,0.085h0.088h1.775h0.083v-0.081C126.162,101.285,126.057,100.971,125.857,100.765
				 M127.103,102.037v0.308h-2.828h-0.083v0.083c0.01,1.098,0.775,1.191,1.492,1.191c0.306,0,0.794-0.04,1.143-0.102l0.131,0.677
				c-0.366,0.1-1,0.15-1.467,0.15c-0.804,0-1.341-0.163-1.692-0.514c-0.344-0.344-0.509-0.875-0.509-1.629
				c0-0.819,0.193-1.427,0.575-1.808c0.341-0.341,0.85-0.514,1.512-0.514c0.514,0,0.917,0.14,1.198,0.421
				C126.924,100.65,127.103,101.235,127.103,102.037"/>
		</g>
		<g>
			<defs>
				<rect id="SVGID_47_" x="37.992" y="4.299" width="161.02" height="111.626"/>
			</defs>
			<clipPath id="SVGID_48_">
				<use xlink:href="#SVGID_47_"  overflow="visible"/>
			</clipPath>
			<path clip-path="url(#SVGID_48_)" fill="#FFFFFF" d="M130.835,100.765c-0.153-0.156-0.354-0.238-0.579-0.238
				c-0.454,0-1.006,0.298-1.058,1.138l-0.008,0.085h0.088h1.777h0.081v-0.081C131.141,101.285,131.039,100.971,130.835,100.765
				 M132.082,102.037v0.308h-2.828h-0.081v0.083c0.008,1.098,0.775,1.191,1.492,1.191c0.306,0,0.792-0.04,1.141-0.102l0.133,0.677
				c-0.369,0.1-1.002,0.15-1.469,0.15c-0.804,0-1.341-0.163-1.692-0.514c-0.344-0.344-0.509-0.875-0.509-1.629
				c0-0.817,0.193-1.427,0.575-1.808c0.341-0.341,0.85-0.514,1.512-0.514c0.514,0,0.917,0.14,1.198,0.421
				C131.903,100.65,132.082,101.235,132.082,102.037"/>
		</g>
	</g>
	<rect x="133.55" y="98.29" fill="#FFFFFF" width="0.913" height="5.982"/>
	<g>
		<g>
			<defs>
				<rect id="SVGID_49_" x="37.992" y="4.299" width="161.02" height="111.626"/>
			</defs>
			<clipPath id="SVGID_50_">
				<use xlink:href="#SVGID_49_"  overflow="visible"/>
			</clipPath>
			<path clip-path="url(#SVGID_50_)" fill="#FFFFFF" d="M138.916,100.629c-0.213-0.052-0.452-0.075-0.729-0.075
				c-0.84,0-1.321,0.567-1.321,1.557c0,0.552,0.125,0.958,0.373,1.204c0.19,0.19,0.448,0.288,0.769,0.288
				c0.321,0,0.646-0.16,0.862-0.266l0.06-0.027l0.045-0.023v-0.052v-2.525v-0.065L138.916,100.629z M139.881,98.287v5.982h-0.905
				v-0.268v-0.168l-0.131,0.102c-0.25,0.198-0.534,0.391-1.018,0.391c-0.554,0-0.993-0.156-1.298-0.464
				c-0.371-0.371-0.559-0.967-0.559-1.777c0-0.675,0.208-1.238,0.604-1.635c0.391-0.391,0.963-0.606,1.604-0.606
				c0.329,0,0.484,0.03,0.7,0.081l0.098,0.023v-0.102V98.29h0.905V98.287z"/>
		</g>
		<g>
			<defs>
				<rect id="SVGID_51_" x="37.992" y="4.299" width="161.02" height="111.626"/>
			</defs>
			<clipPath id="SVGID_52_">
				<use xlink:href="#SVGID_51_"  overflow="visible"/>
			</clipPath>
			<path clip-path="url(#SVGID_52_)" fill="#FFFFFF" d="M143.924,100.765c-0.153-0.156-0.354-0.238-0.579-0.238
				c-0.454,0-1.006,0.298-1.058,1.138l-0.008,0.085h0.088h1.777h0.081v-0.081C144.23,101.282,144.126,100.971,143.924,100.765
				 M145.17,102.037v0.308h-2.828h-0.083v0.083c0.01,1.098,0.777,1.191,1.494,1.191c0.304,0,0.792-0.04,1.141-0.102l0.133,0.677
				c-0.369,0.1-1.002,0.15-1.469,0.15c-0.804,0-1.341-0.163-1.692-0.514c-0.344-0.344-0.509-0.875-0.509-1.629
				c0-0.817,0.193-1.427,0.575-1.808c0.341-0.341,0.85-0.514,1.512-0.514c0.514,0,0.917,0.14,1.198,0.421
				C144.993,100.65,145.17,101.235,145.17,102.037"/>
		</g>
		<g>
			<defs>
				<rect id="SVGID_53_" x="37.992" y="4.299" width="161.02" height="111.626"/>
			</defs>
			<clipPath id="SVGID_54_">
				<use xlink:href="#SVGID_53_"  overflow="visible"/>
			</clipPath>
			<path clip-path="url(#SVGID_54_)" fill="#FFFFFF" d="M150.158,100.18c-0.215-0.215-0.554-0.321-1.033-0.321
				c-0.632,0-1.123,0.348-1.419,0.554l-0.025,0.02l-0.131,0.09v-0.158v-0.383h-0.913v4.287h0.913v-3.179v-0.048l0.042-0.023
				l0.01-0.008c0.215-0.115,0.717-0.386,1.179-0.386c0.279,0,0.466,0.06,0.594,0.185c0.188,0.188,0.213,0.511,0.213,0.833v2.625
				h0.905v-2.746C150.493,101.012,150.466,100.489,150.158,100.18"/>
		</g>
		<g>
			<defs>
				<rect id="SVGID_55_" x="37.992" y="4.299" width="161.02" height="111.626"/>
			</defs>
			<clipPath id="SVGID_56_">
				<use xlink:href="#SVGID_55_"  overflow="visible"/>
			</clipPath>
			<path clip-path="url(#SVGID_56_)" fill="#FFFFFF" d="M154.915,100.629c-0.215-0.052-0.448-0.075-0.729-0.075
				c-0.852,0-1.321,0.552-1.321,1.557c0,0.552,0.125,0.958,0.373,1.206c0.19,0.188,0.448,0.286,0.767,0.286
				c0.323,0,0.652-0.16,0.867-0.266l0.058-0.027l0.045-0.023v-0.052v-2.525v-0.065L154.915,100.629z M155.88,98.287v5.982h-0.905
				v-0.268v-0.168l-0.131,0.102c-0.25,0.198-0.534,0.391-1.018,0.391c-0.554,0-0.993-0.156-1.298-0.464
				c-0.371-0.371-0.559-0.967-0.559-1.777c0-0.675,0.208-1.238,0.604-1.635c0.391-0.391,0.963-0.606,1.604-0.606
				c0.329,0,0.484,0.03,0.7,0.081l0.098,0.023v-0.102V98.29h0.905V98.287z"/>
		</g>
		<g>
			<defs>
				<rect id="SVGID_57_" x="37.992" y="4.299" width="161.02" height="111.626"/>
			</defs>
			<clipPath id="SVGID_58_">
				<use xlink:href="#SVGID_57_"  overflow="visible"/>
			</clipPath>
			<path clip-path="url(#SVGID_58_)" fill="#FFFFFF" d="M159.921,100.765c-0.153-0.156-0.352-0.238-0.577-0.238
				c-0.456,0-1.006,0.298-1.06,1.138l-0.005,0.085h0.088h1.775h0.081l0.002-0.081C160.23,101.285,160.124,100.971,159.921,100.765
				 M161.17,102.037v0.308h-2.828h-0.083v0.083c0.01,1.098,0.775,1.191,1.492,1.191c0.306,0,0.794-0.04,1.141-0.102l0.133,0.677
				c-0.366,0.1-1,0.15-1.469,0.15c-0.802,0-1.339-0.163-1.69-0.514c-0.344-0.344-0.509-0.875-0.509-1.629
				c0-0.819,0.193-1.427,0.575-1.808c0.341-0.341,0.85-0.514,1.512-0.514c0.514,0,0.917,0.14,1.198,0.421
				C160.992,100.65,161.17,101.235,161.17,102.037"/>
		</g>
	</g>
	<polygon fill="#FFFFFF" points="167.088,101.322 167.046,101.269 167.092,101.217 169.328,98.669 168.144,98.669 165.983,101.275 
		165.958,101.307 165.986,101.342 168.277,104.271 169.482,104.271 	"/>
	<polygon fill="#FFFFFF" points="164.902,98.669 164.902,104.271 165.84,104.271 165.84,101.448 165.958,101.305 165.84,101.154 
		165.84,98.669 	"/>
	<g>
		<g>
			<defs>
				<rect id="SVGID_59_" x="37.992" y="4.299" width="161.02" height="111.626"/>
			</defs>
			<clipPath id="SVGID_60_">
				<use xlink:href="#SVGID_59_"  overflow="visible"/>
			</clipPath>
			<path clip-path="url(#SVGID_60_)" fill="#FFFFFF" d="M173.521,99.983v3.154v0.048l-0.042,0.025
				c-0.494,0.266-0.902,0.402-1.213,0.402c-0.275,0-0.461-0.06-0.587-0.185c-0.175-0.175-0.213-0.459-0.213-0.835v-2.608h-0.902
				v2.73c0,0.509,0.027,1.033,0.344,1.352c0.215,0.215,0.546,0.319,1.018,0.319c0.642,0,1.2-0.391,1.469-0.579l0.127-0.09v0.158
				v0.398h0.895v-4.287h-0.895V99.983z"/>
		</g>
		<g>
			<defs>
				<rect id="SVGID_61_" x="37.992" y="4.299" width="161.02" height="111.626"/>
			</defs>
			<clipPath id="SVGID_62_">
				<use xlink:href="#SVGID_61_"  overflow="visible"/>
			</clipPath>
			<path clip-path="url(#SVGID_62_)" fill="#FFFFFF" d="M179.745,100.18c-0.215-0.215-0.554-0.321-1.033-0.321
				c-0.632,0-1.125,0.348-1.419,0.554l-0.027,0.02l-0.127,0.09v-0.158v-0.383h-0.913v4.287h0.913v-3.179v-0.048l0.042-0.023
				l0.015-0.008c0.231-0.125,0.715-0.386,1.173-0.386c0.279,0,0.466,0.06,0.594,0.188c0.188,0.185,0.213,0.509,0.213,0.83v2.625
				h0.905v-2.746C180.081,101.012,180.054,100.491,179.745,100.18"/>
		</g>
		<g>
			<defs>
				<rect id="SVGID_63_" x="37.992" y="4.299" width="161.02" height="111.626"/>
			</defs>
			<clipPath id="SVGID_64_">
				<use xlink:href="#SVGID_63_"  overflow="visible"/>
			</clipPath>
			<path clip-path="url(#SVGID_64_)" fill="#FFFFFF" d="M183.377,101.744c-0.473-0.175-0.883-0.323-0.883-0.685
				c0-0.146,0.073-0.481,0.742-0.481c0.444,0,0.773,0.07,1.088,0.14l0.15-0.646c-0.352-0.118-0.794-0.185-1.238-0.185
				c-0.567,0-1.038,0.158-1.329,0.448c-0.21,0.211-0.319,0.481-0.319,0.804c0,0.892,0.74,1.133,1.392,1.346
				c0.456,0.15,0.85,0.279,0.85,0.627c0,0.115-0.04,0.215-0.121,0.296c-0.153,0.153-0.439,0.225-0.873,0.225
				c-0.296,0-0.76-0.05-1.204-0.125l-0.1,0.685c0.341,0.098,0.875,0.158,1.431,0.158c0.294,0,1.76-0.063,1.76-1.304
				C184.725,102.24,184.008,101.977,183.377,101.744"/>
		</g>
		<g>
			<defs>
				<rect id="SVGID_65_" x="37.992" y="4.299" width="161.02" height="111.626"/>
			</defs>
			<clipPath id="SVGID_66_">
				<use xlink:href="#SVGID_65_"  overflow="visible"/>
			</clipPath>
			<path clip-path="url(#SVGID_66_)" fill="#FFFFFF" d="M187.929,103.618c-0.258,0-0.466-0.01-0.589-0.133
				c-0.09-0.09-0.127-0.229-0.127-0.461v-2.309v-0.081h0.081h1.296v-0.652h-1.296h-0.081v-0.083v-0.83h-0.905v0.83v0.083h-0.081
				h-0.571v0.652h0.571h0.081v0.081v2.317c0,0.486,0.102,0.823,0.308,1.031c0.298,0.298,0.779,0.298,1.289,0.298h0.042
				c0.263,0,0.617-0.065,0.87-0.127l-0.1-0.692C188.553,103.566,188.18,103.618,187.929,103.618"/>
		</g>
		<g>
			<defs>
				<rect id="SVGID_67_" x="37.992" y="4.299" width="161.02" height="111.626"/>
			</defs>
			<clipPath id="SVGID_68_">
				<use xlink:href="#SVGID_67_"  overflow="visible"/>
			</clipPath>
			<path clip-path="url(#SVGID_68_)" fill="#FFFFFF" d="M192.364,100.765c-0.156-0.156-0.354-0.238-0.579-0.238
				c-0.454,0-1.006,0.298-1.058,1.138l-0.008,0.085h0.088h1.777h0.081v-0.081C192.669,101.282,192.564,100.971,192.364,100.765
				 M193.61,102.037v0.308h-2.828h-0.083v0.083c0.01,1.098,0.777,1.191,1.494,1.191c0.306,0,0.792-0.04,1.141-0.102l0.133,0.677
				c-0.369,0.1-1.002,0.15-1.469,0.15c-0.804,0-1.341-0.163-1.69-0.514c-0.346-0.344-0.511-0.875-0.511-1.629
				c0-0.817,0.193-1.427,0.575-1.808c0.341-0.341,0.85-0.514,1.512-0.514c0.514,0,0.917,0.14,1.198,0.421
				C193.431,100.65,193.61,101.235,193.61,102.037"/>
		</g>
		<g>
			<defs>
				<rect id="SVGID_69_" x="37.992" y="4.299" width="161.02" height="111.626"/>
			</defs>
			<clipPath id="SVGID_70_">
				<use xlink:href="#SVGID_69_"  overflow="visible"/>
			</clipPath>
			<path clip-path="url(#SVGID_70_)" fill="#FFFFFF" d="M198.596,100.18c-0.215-0.215-0.554-0.321-1.033-0.321
				c-0.632,0-1.123,0.348-1.419,0.554l-0.025,0.02l-0.131,0.09v-0.158v-0.383h-0.913v4.287h0.913v-3.179v-0.048l0.042-0.023
				l0.01-0.008c0.215-0.115,0.717-0.386,1.179-0.386c0.279,0,0.466,0.06,0.594,0.185c0.188,0.188,0.213,0.511,0.213,0.833v2.625
				h0.905v-2.746C198.932,101.012,198.905,100.489,198.596,100.18"/>
		</g>
		<g>
			<defs>
				<rect id="SVGID_71_" x="37.992" y="4.299" width="161.02" height="111.626"/>
			</defs>
			<clipPath id="SVGID_72_">
				<use xlink:href="#SVGID_71_"  overflow="visible"/>
			</clipPath>
			<path clip-path="url(#SVGID_72_)" fill="#131C4E" d="M102.772,109.165c-0.233-0.236-0.594-0.348-1.098-0.348h-1.035h-0.083v0.083
				v2.485v0.083h0.083h0.84c0.602,0,1.028-0.131,1.296-0.402c0.215-0.215,0.325-0.519,0.325-0.902
				C103.1,109.712,102.992,109.386,102.772,109.165 M104.494,113.716l-0.102,0.416c-0.308-0.035-0.754-0.213-1.254-0.835
				l-1.173-1.452l-0.03-0.035l-0.048,0.008c-0.131,0.02-0.275,0.033-0.459,0.033h-0.79h-0.083v0.081v2.119h-0.495v-5.598h1.792
				c0.6,0,1.056,0.153,1.354,0.452c0.281,0.281,0.423,0.692,0.423,1.219c0,0.737-0.386,1.289-1.088,1.554l-0.108,0.04l0.073,0.088
				l0.898,1.086C103.784,113.353,104.241,113.622,104.494,113.716"/>
		</g>
		<g>
			<defs>
				<rect id="SVGID_73_" x="37.992" y="4.299" width="161.02" height="111.626"/>
			</defs>
			<clipPath id="SVGID_74_">
				<use xlink:href="#SVGID_73_"  overflow="visible"/>
			</clipPath>
			<path clip-path="url(#SVGID_74_)" fill="#131C4E" d="M108.209,110.36c-0.238-0.241-0.559-0.361-0.95-0.361
				c-1.311,0-1.452,1.341-1.452,1.915c0,0.669,0.165,1.191,0.481,1.507c0.246,0.246,0.577,0.369,0.985,0.369
				c0.398,0,0.719-0.121,0.956-0.354c0.313-0.313,0.471-0.827,0.471-1.529C108.701,111.425,108.616,110.766,108.209,110.36
				 M109.19,111.906c0,1.381-0.76,2.242-1.981,2.242c-0.542,0-0.981-0.163-1.302-0.484c-0.377-0.373-0.575-0.965-0.575-1.71
				c0-0.762,0.215-1.381,0.625-1.788c0.338-0.338,0.794-0.517,1.323-0.517c0.577,0,1.028,0.158,1.344,0.473
				C108.999,110.498,109.19,111.097,109.19,111.906"/>
		</g>
		<g>
			<defs>
				<rect id="SVGID_75_" x="37.992" y="4.299" width="161.02" height="111.626"/>
			</defs>
			<clipPath id="SVGID_76_">
				<use xlink:href="#SVGID_75_"  overflow="visible"/>
			</clipPath>
			<path clip-path="url(#SVGID_76_)" fill="#131C4E" d="M113.339,109.763c-0.14,0.409-1.081,3.156-1.081,3.156l-0.268,0.782
				l-0.083,0.238l-0.075-0.241c0,0-0.243-0.798-0.243-0.8l-0.96-3.136h-0.511l1.396,4.287h0.236h0.113l-0.035,0.108l-0.575,1.677
				h0.439l2.127-6.073h-0.481V109.763z"/>
		</g>
		<g>
			<defs>
				<rect id="SVGID_77_" x="37.992" y="4.299" width="161.02" height="111.626"/>
			</defs>
			<clipPath id="SVGID_78_">
				<use xlink:href="#SVGID_77_"  overflow="visible"/>
			</clipPath>
			<path clip-path="url(#SVGID_78_)" fill="#131C4E" d="M117.392,111.987l-1.06,0.058c-0.792,0.04-1.194,0.323-1.194,0.84
				c0,0.286,0.075,0.504,0.225,0.654c0.15,0.15,0.373,0.225,0.664,0.225c0.506,0,1.379-0.592,1.414-0.617l0.035-0.025v-0.042v-1.01
				v-0.085L117.392,111.987z M118.32,113.744l-0.027,0.356c-0.16,0.005-0.471-0.01-0.664-0.178c-0.093-0.083-0.14-0.185-0.15-0.319
				l-0.008-0.143l-0.118,0.081c-0.035,0.023-0.071,0.052-0.113,0.085c-0.231,0.183-0.617,0.489-1.359,0.489
				c-0.373,0-0.667-0.102-0.87-0.306c-0.2-0.2-0.304-0.494-0.304-0.867c0-1,0.883-1.231,1.625-1.246l1.068-0.025l0.077-0.002v-0.081
				v-0.619c0-0.331-0.065-0.552-0.211-0.697c-0.2-0.2-0.527-0.241-1.021-0.241c-0.329,0-0.719,0.108-0.952,0.173
				c-0.033,0.01-0.052,0.015-0.081,0.02l-0.09-0.336c0.236-0.09,0.735-0.231,1.304-0.231c0.581,0,0.981,0.115,1.216,0.352
				c0.181,0.181,0.266,0.427,0.266,0.757v2.485c0,0.165,0.045,0.294,0.131,0.381C118.107,113.699,118.205,113.731,118.32,113.744"/>
		</g>
	</g>
	<rect x="119.99" y="108.067" fill="#131C4E" width="0.464" height="5.982"/>
	<path fill="#131C4E" d="M124.434,111.412l0.692-1.775l0.361-0.923l0.081-0.208l0.073,0.211l0.319,0.92l0.612,1.78l0.038,0.108
		h-0.115h-1.981h-0.121L124.434,111.412z M125.138,108.451l-2.202,5.598h0.477l0.817-2.116l0.02-0.052h0.058h2.362h0.06l0.02,0.058
		l0.727,2.111h0.514l-1.94-5.598h-0.911V108.451z"/>
	<g>
		<g>
			<defs>
				<rect id="SVGID_79_" x="37.992" y="4.299" width="161.02" height="111.626"/>
			</defs>
			<clipPath id="SVGID_80_">
				<use xlink:href="#SVGID_79_"  overflow="visible"/>
			</clipPath>
			<path clip-path="url(#SVGID_80_)" fill="#131C4E" d="M131.9,113.659c-0.185,0.035-0.439,0.081-0.712,0.081
				c-0.652,0-1.083-0.127-1.359-0.404c-0.286-0.286-0.411-0.732-0.411-1.454c0-1.204,0.509-1.865,1.434-1.865
				c0.402,0,0.773,0.096,1.002,0.19l0.175-0.352c-0.175-0.09-0.504-0.206-1.081-0.206c-0.584,0-1.078,0.185-1.434,0.542
				c-0.389,0.389-0.594,0.965-0.594,1.667c0,0.855,0.163,1.414,0.511,1.765c0.341,0.341,0.875,0.498,1.679,0.498
				c0.391,0,0.732-0.083,0.917-0.133l-0.063-0.344C131.945,113.652,131.927,113.654,131.9,113.659"/>
		</g>
		<g>
			<defs>
				<rect id="SVGID_81_" x="37.992" y="4.299" width="161.02" height="111.626"/>
			</defs>
			<clipPath id="SVGID_82_">
				<use xlink:href="#SVGID_81_"  overflow="visible"/>
			</clipPath>
			<path clip-path="url(#SVGID_82_)" fill="#131C4E" d="M135.762,111.987l-1.06,0.058c-0.792,0.04-1.194,0.323-1.194,0.84
				c0,0.286,0.075,0.504,0.225,0.654c0.15,0.15,0.373,0.225,0.664,0.225c0.506,0,1.379-0.592,1.414-0.617l0.038-0.025v-0.042v-1.01
				v-0.085L135.762,111.987z M136.689,113.744l-0.027,0.356c-0.158,0.005-0.473-0.01-0.664-0.178
				c-0.092-0.083-0.14-0.185-0.148-0.319l-0.01-0.143l-0.118,0.081c-0.033,0.023-0.07,0.052-0.113,0.085
				c-0.231,0.183-0.617,0.489-1.359,0.489c-0.373,0-0.667-0.102-0.87-0.306c-0.2-0.2-0.304-0.494-0.304-0.867
				c0-1,0.883-1.231,1.625-1.246l1.068-0.025l0.081-0.002v-0.081v-0.619c0-0.331-0.067-0.552-0.213-0.697
				c-0.2-0.2-0.527-0.241-1.018-0.241c-0.331,0-0.722,0.108-0.956,0.173c-0.033,0.01-0.052,0.015-0.081,0.02l-0.09-0.336
				c0.236-0.092,0.732-0.231,1.304-0.231c0.581,0,0.981,0.115,1.216,0.352c0.181,0.181,0.266,0.427,0.266,0.757v2.485
				c0,0.165,0.045,0.294,0.131,0.381C136.476,113.699,136.574,113.731,136.689,113.744"/>
		</g>
		<g>
			<defs>
				<rect id="SVGID_83_" x="37.992" y="4.299" width="161.02" height="111.626"/>
			</defs>
			<clipPath id="SVGID_84_">
				<use xlink:href="#SVGID_83_"  overflow="visible"/>
			</clipPath>
			<path clip-path="url(#SVGID_84_)" fill="#131C4E" d="M140.983,110.206c-0.215-0.065-0.492-0.093-0.952-0.093
				c-0.981,0-1.542,0.667-1.542,1.833c0,0.664,0.156,1.154,0.459,1.459c0.229,0.229,0.531,0.344,0.902,0.344
				c0.448,0,0.873-0.321,1.1-0.494l0.058-0.045l0.033-0.023c0-0.002,0-0.042,0-0.042v-2.861v-0.06L140.983,110.206z
				 M141.504,108.068v5.982h-0.464v-0.325v-0.175l-0.135,0.113c-0.358,0.3-0.727,0.454-1.096,0.454c-0.55,0-0.952-0.14-1.241-0.427
				c-0.356-0.356-0.537-0.95-0.537-1.765c0-0.687,0.208-1.256,0.6-1.648c0.356-0.358,0.862-0.554,1.421-0.554
				c0.461,0,0.562,0.027,0.865,0.113l0.02,0.008l0.102,0.027v-0.108v-1.694h0.464V108.068z"/>
		</g>
		<g>
			<defs>
				<rect id="SVGID_85_" x="37.992" y="4.299" width="161.02" height="111.626"/>
			</defs>
			<clipPath id="SVGID_86_">
				<use xlink:href="#SVGID_85_"  overflow="visible"/>
			</clipPath>
			<path clip-path="url(#SVGID_86_)" fill="#131C4E" d="M145.65,110.253c-0.185-0.185-0.427-0.279-0.715-0.279
				c-0.752,0-1.248,0.581-1.329,1.557l-0.008,0.09h0.088h2.284h0.081v-0.083C146.051,110.963,145.914,110.516,145.65,110.253
				 M146.558,111.793v0.146h-2.878h-0.083l0.002,0.085c0.04,1.425,0.727,1.717,1.745,1.717c0.286,0,0.79-0.058,1.031-0.11
				l0.077,0.363c-0.215,0.05-0.825,0.127-1.306,0.127c-0.69,0-1.183-0.156-1.502-0.473c-0.344-0.344-0.511-0.888-0.511-1.66
				c0-0.848,0.196-1.471,0.581-1.858c0.313-0.313,0.757-0.473,1.319-0.473c0.436,0,0.769,0.121,1.015,0.366
				C146.387,110.361,146.558,110.955,146.558,111.793"/>
		</g>
		<g>
			<defs>
				<rect id="SVGID_87_" x="37.992" y="4.299" width="161.02" height="111.626"/>
			</defs>
			<clipPath id="SVGID_88_">
				<use xlink:href="#SVGID_87_"  overflow="visible"/>
			</clipPath>
			<path clip-path="url(#SVGID_88_)" fill="#131C4E" d="M153.869,109.966c-0.213-0.213-0.527-0.316-0.963-0.316
				c-0.632,0-1.04,0.279-1.369,0.502c-0.065,0.042-0.125,0.085-0.185,0.123l-0.077,0.048l-0.04-0.083
				c-0.183-0.396-0.562-0.589-1.156-0.589c-0.607,0-0.905,0.229-1.169,0.429c-0.073,0.056-0.14,0.108-0.213,0.153l-0.125,0.083
				v-0.15v-0.402h-0.464v4.287h0.464v-3.342v-0.045l0.038-0.023c0.033-0.02,0.077-0.052,0.131-0.09
				c0.254-0.181,0.727-0.519,1.186-0.519c0.316,0,0.552,0.081,0.715,0.246c0.258,0.258,0.296,0.685,0.296,1.108v2.665h0.456v-2.796
				c0-0.208-0.013-0.396-0.033-0.559c0,0-0.008-0.05-0.002-0.052l0.04-0.027c0.254-0.175,0.845-0.584,1.356-0.584
				c0.316,0,0.546,0.081,0.71,0.243c0.243,0.241,0.291,0.619,0.291,1.111v2.665h0.466v-2.796
				C154.219,110.768,154.177,110.274,153.869,109.966"/>
		</g>
		<g>
			<defs>
				<rect id="SVGID_89_" x="37.992" y="4.299" width="161.02" height="111.626"/>
			</defs>
			<clipPath id="SVGID_90_">
				<use xlink:href="#SVGID_89_"  overflow="visible"/>
			</clipPath>
			<path clip-path="url(#SVGID_90_)" fill="#131C4E" d="M158.645,109.763c-0.14,0.409-1.081,3.156-1.081,3.156l-0.268,0.782
				l-0.083,0.238l-0.075-0.241c0,0-0.243-0.8-0.243-0.798l-0.96-3.139h-0.512l1.396,4.287h0.233h0.115l-0.038,0.108l-0.575,1.677
				h0.439l2.129-6.073h-0.479V109.763z"/>
		</g>
		<g>
			<defs>
				<rect id="SVGID_91_" x="37.992" y="4.299" width="161.02" height="111.626"/>
			</defs>
			<clipPath id="SVGID_92_">
				<use xlink:href="#SVGID_91_"  overflow="visible"/>
			</clipPath>
			<path clip-path="url(#SVGID_92_)" fill="#131C4E" d="M164.34,110.36c-0.238-0.241-0.559-0.361-0.95-0.361
				c-1.311,0-1.452,1.341-1.452,1.915c0,0.669,0.165,1.191,0.481,1.507c0.246,0.246,0.577,0.369,0.985,0.369
				c0.398,0,0.719-0.121,0.956-0.354c0.313-0.313,0.471-0.827,0.471-1.529C164.832,111.425,164.747,110.766,164.34,110.36
				 M165.321,111.906c0,1.381-0.76,2.242-1.981,2.242c-0.542,0-0.981-0.163-1.302-0.484c-0.373-0.373-0.571-0.965-0.571-1.71
				c0-0.762,0.215-1.381,0.621-1.79c0.338-0.336,0.794-0.514,1.323-0.514c0.577,0,1.028,0.158,1.344,0.473
				C165.13,110.498,165.321,111.097,165.321,111.906"/>
		</g>
		<g>
			<defs>
				<rect id="SVGID_93_" x="37.992" y="4.299" width="161.02" height="111.626"/>
			</defs>
			<clipPath id="SVGID_94_">
				<use xlink:href="#SVGID_93_"  overflow="visible"/>
			</clipPath>
			<path clip-path="url(#SVGID_94_)" fill="#FFFFFF" d="M168.605,107.897c-0.604,0-1.006,0.121-1.263,0.381
				c-0.225,0.225-0.341,0.567-0.341,1.013v0.391v0.081h-0.083h-0.569v0.358h0.569h0.083v0.083v5.638h0.439v-5.638v-0.083h0.083
				h0.888v-0.358h-0.888h-0.083v-0.081v-0.383c0-0.679,0.377-1.01,1.15-1.01c0.271,0,0.604,0.06,0.752,0.09l0.081-0.344
				C169.257,107.982,168.846,107.897,168.605,107.897"/>
		</g>
	</g>
	<path fill="#131C4E" d="M172.039,111.412l0.692-1.775l0.358-0.923l0.083-0.208l0.073,0.211l0.319,0.92l0.612,1.78l0.035,0.108
		h-0.115h-1.978h-0.123L172.039,111.412z M172.741,108.451l-2.202,5.598h0.473l0.819-2.116l0.023-0.052h0.055h2.364h0.058
		l0.02,0.058l0.729,2.111h0.514l-1.94-5.598h-0.913V108.451z"/>
	<g>
		<g>
			<defs>
				<rect id="SVGID_95_" x="37.992" y="4.299" width="161.02" height="111.626"/>
			</defs>
			<clipPath id="SVGID_96_">
				<use xlink:href="#SVGID_95_"  overflow="visible"/>
			</clipPath>
			<path clip-path="url(#SVGID_96_)" fill="#131C4E" d="M178.669,109.682c-0.552,0-1.021,0.319-1.2,0.634l-0.153,0.271v-0.311
				v-0.514h-0.464v4.287h0.464v-3.169v-0.025l0.013-0.02c0.108-0.168,0.509-0.715,1.226-0.715c0.198,0,0.341,0.02,0.456,0.048
				l0.077-0.452C179.004,109.699,178.861,109.682,178.669,109.682"/>
		</g>
		<g>
			<defs>
				<rect id="SVGID_97_" x="37.992" y="4.299" width="161.02" height="111.626"/>
			</defs>
			<clipPath id="SVGID_98_">
				<use xlink:href="#SVGID_97_"  overflow="visible"/>
			</clipPath>
			<path clip-path="url(#SVGID_98_)" fill="#131C4E" d="M182.146,113.757c-0.371,0-0.614-0.03-0.762-0.178
				c-0.125-0.123-0.175-0.319-0.175-0.669v-2.698v-0.083h0.083h1.296v-0.366h-1.296h-0.083v-0.083v-0.83h-0.456v0.83v0.083h-0.081
				h-0.571v0.366h0.571h0.081v0.083v2.705c0,0.471,0.09,0.79,0.273,0.973c0.25,0.25,0.662,0.25,1.138,0.25
				c0.231,0,0.534-0.07,0.685-0.115l-0.077-0.348C182.647,113.707,182.404,113.757,182.146,113.757"/>
		</g>
		<g>
			<defs>
				<rect id="SVGID_99_" x="37.992" y="4.299" width="161.02" height="111.626"/>
			</defs>
			<clipPath id="SVGID_100_">
				<use xlink:href="#SVGID_99_"  overflow="visible"/>
			</clipPath>
			<path clip-path="url(#SVGID_100_)" fill="#FFFFFF" d="M114.014,53.466c-0.196-0.275-0.421-0.434-0.669-0.473
				c-0.817-0.127-1.83,1.06-2.705,3.179l-0.01,0.023l-0.023,0.015c0,0-0.01,0.005-0.015,0.008l-0.096,0.065l-0.02-0.127
				c-0.338-2.156-0.917-3.498-1.512-3.498c-0.363,0-0.735,0.517-1.046,1.456l-0.158-0.013c-0.341-2.058-0.91-3.337-1.484-3.337
				c-0.464,0-0.927,0.825-1.269,2.259l-0.163-0.008c-0.331-2.246-0.92-3.642-1.532-3.642c-0.556,0-1.113,1.213-1.456,3.169
				l-0.16-0.008c-0.158-1.838-0.473-3.35-0.895-4.257l-0.038-0.077l0.077-0.033c0.744-0.323,1.223-1.033,1.223-1.805
				c0-1.093-0.938-1.983-2.088-1.988c-0.575,0-1.111,0.215-1.509,0.614c-0.373,0.371-0.579,0.86-0.579,1.373
				c0,0.773,0.481,1.481,1.223,1.805l0.077,0.033l-0.035,0.077c-0.421,0.908-0.74,2.419-0.895,4.257l-0.163,0.008
				c-0.341-1.956-0.9-3.169-1.456-3.169c-0.612,0-1.198,1.396-1.532,3.642l-0.16,0.008c-0.344-1.434-0.808-2.259-1.271-2.259
				c-0.575,0-1.143,1.279-1.484,3.337l-0.158,0.013c-0.308-0.94-0.679-1.456-1.046-1.456c-0.594,0-1.171,1.341-1.512,3.498
				l-0.02,0.133l-0.098-0.073c-0.002,0-0.002,0-0.002,0l-0.01-0.005l-0.023-0.015l-0.008-0.023c-0.877-2.119-1.89-3.307-2.708-3.179
				c-0.248,0.04-0.471,0.198-0.669,0.473c-0.888,1.244-1.058,4.648-0.411,8.279c0.754,4.252,2.427,7.744,3.808,7.95l0.056,0.008
				l0.013,0.056l0.873,3.836l0.008,0.03l-0.015,0.027c-0.296,0.546-0.446,1.115-0.446,1.698c0,1,0.461,1.993,1.336,2.868
				c1.825,1.825,5.205,2.958,8.817,2.958c5.6,0,10.156-2.615,10.156-5.827c0-0.581-0.15-1.15-0.446-1.698l-0.015-0.027l0.005-0.03
				l0.873-3.836l0.013-0.056l0.056-0.008c1.381-0.206,3.054-3.698,3.808-7.95C115.072,58.114,114.902,54.708,114.014,53.466"/>
		</g>
		<g>
			<defs>
				<rect id="SVGID_101_" x="37.992" y="4.299" width="161.02" height="111.626"/>
			</defs>
			<clipPath id="SVGID_102_">
				<use xlink:href="#SVGID_101_"  overflow="visible"/>
			</clipPath>
			<path clip-path="url(#SVGID_102_)" fill="#FFFFFF" d="M111.325,31.092c0-0.421-0.09-0.833-0.263-1.229
				c-0.065-0.178-0.143-0.356-0.241-0.529c1.113-1.367,2.286-3.114,3.379-5.096c2.944-5.348,4.2-10.387,2.808-11.265
				c-0.993-0.621-3.066,1.043-5.242,3.986c0.236-1.6,0.211-2.688,0.211-2.688s-0.83,0.391-1.973,1.296
				c0.115-3.016-0.344-5.104-1.359-5.383c-1.06-0.291-2.487,1.479-3.798,4.423c-0.175-1.411-0.427-2.419-0.427-2.419
				s-0.712,0.737-1.597,1.946c-0.266-1.682-0.632-3.089-1.068-4.125c0.419-0.325,0.858-0.732,1.283-1.206
				c1.348-1.494,2.048-3.061,1.565-3.5c-0.486-0.436-1.973,0.421-3.321,1.915c-0.198,0.223-0.377,0.441-0.546,0.664
				c-0.143-0.271-0.429-0.454-0.757-0.454c-0.329,0-0.614,0.183-0.757,0.454c-0.171-0.223-0.348-0.441-0.546-0.664
				c-1.348-1.494-2.835-2.352-3.321-1.915c-0.484,0.439,0.215,2.006,1.565,3.5c0.427,0.473,0.865,0.88,1.283,1.206
				c-0.436,1.035-0.802,2.442-1.068,4.125c-0.885-1.208-1.597-1.946-1.597-1.946s-0.25,1.008-0.427,2.419
				c-1.311-2.944-2.738-4.713-3.798-4.423c-1.015,0.279-1.475,2.367-1.359,5.383c-1.143-0.905-1.973-1.296-1.973-1.296
				s-0.025,1.088,0.211,2.688c-2.177-2.944-4.25-4.608-5.242-3.986c-1.392,0.877-0.135,5.917,2.808,11.265
				c1.093,1.983,2.267,3.731,3.379,5.096c-0.098,0.173-0.175,0.352-0.241,0.529c-0.173,0.396-0.263,0.808-0.263,1.229
				c0,3.181,5.079,5.761,11.347,5.761S111.325,34.273,111.325,31.092 M99.977,37.745c-6.854,0-12.225-2.908-12.225-6.623
				c0-0.523,0.11-1.053,0.331-1.567c0,0,0.017-0.038,0.04-0.083c-1.078-1.379-2.158-3.023-3.148-4.819l-0.002-0.002
				c-1.446-2.63-3.48-7.198-3.48-10.088c0-1.063,0.273-1.898,0.956-2.327c1.352-0.848,3.154,0.504,4.653,2.111
				c0-0.065,0-0.108,0-0.115l0.03-1.296l1.173,0.554c0.02,0.008,0.321,0.16,0.775,0.441c0.098-2.705,0.757-4.257,1.981-4.593
				c1.364-0.371,2.63,0.975,3.658,2.685c0.015-0.048,0.354-1.258,0.354-1.258l1.006,0.877c0.017,0.015,0.233,0.208,0.562,0.559
				c0.168-0.742,0.361-1.406,0.575-1.998c-0.313-0.275-0.632-0.539-0.93-0.87C95.27,8.21,94.345,6.761,94.345,5.67
				c0-0.409,0.127-0.767,0.431-1.04c1.111-1,3.129,0.444,4.521,1.983c0,0,0.033,0.04,0.052,0.067
				c0.198-0.081,0.409-0.135,0.629-0.135c0.221,0,0.431,0.056,0.629,0.135c0.02-0.027,0.052-0.067,0.052-0.067
				c1.392-1.539,3.41-2.983,4.521-1.983c0.304,0.273,0.431,0.632,0.431,1.04c0,1.09-0.925,2.54-1.938,3.663
				c-0.298,0.331-0.617,0.594-0.93,0.87c0.213,0.592,0.406,1.256,0.575,1.998c0.329-0.352,0.544-0.544,0.562-0.559l1.006-0.877
				c0,0,0.338,1.211,0.354,1.258c1.028-1.71,2.294-3.056,3.658-2.685c1.223,0.336,1.883,1.888,1.981,4.593
				c0.454-0.281,0.754-0.434,0.775-0.441l1.173-0.554l0.03,1.296c0,0.008,0,0.05,0,0.115c1.496-1.607,3.302-2.958,4.653-2.111
				c0.682,0.429,0.956,1.263,0.956,2.327c0,2.89-2.033,7.459-3.48,10.088l-0.002,0.002c-0.99,1.795-2.071,3.44-3.148,4.819
				c0.023,0.045,0.04,0.083,0.04,0.083c0.221,0.514,0.331,1.043,0.331,1.567C112.202,34.837,106.831,37.745,99.977,37.745"/>
		</g>
	</g>
	<polygon fill="#FFFFFF" points="46.945,88.986 41.686,95.569 41.686,88.986 37.993,88.986 37.993,104.351 41.686,104.351 
		41.686,96.963 47.295,104.351 52.01,104.351 45.447,96.178 51.664,88.986 	"/>
	<g>
		<g>
			<defs>
				<rect id="SVGID_103_" x="37.992" y="4.299" width="161.02" height="111.626"/>
			</defs>
			<clipPath id="SVGID_104_">
				<use xlink:href="#SVGID_103_"  overflow="visible"/>
			</clipPath>
			<path clip-path="url(#SVGID_104_)" fill="#FFFFFF" d="M59.618,99.612l-1.785,0.045c-1.867,0.042-1.825,0.629-1.825,1.15
				c0,0.609,0.306,0.892,0.977,0.892c0.696,0,1.848-0.153,2.633-0.371C59.618,101.328,59.618,99.612,59.618,99.612z M64.093,104.438
				c-1.607,0.088-3.738,0-4.129-1.238c-0.87,0.671-2.108,1.327-3.412,1.327c-2.608,0-4.086-1.154-4.086-3.523
				c0-2.998,2.738-3.498,5.087-3.498h2.066v-1.023c0-1.043-0.675-1.219-2.154-1.219c-1.173,0-2.434,0.263-3.542,0.523l-0.717-2.63
				c1.392-0.521,2.913-0.958,4.804-0.958c2.5,0,5.15,0.153,5.15,3.588v5.41c0,0.391,0.391,0.479,1.065,0.502L64.093,104.438z"/>
		</g>
		<g>
			<defs>
				<rect id="SVGID_105_" x="37.992" y="4.299" width="161.02" height="111.626"/>
			</defs>
			<clipPath id="SVGID_106_">
				<use xlink:href="#SVGID_105_"  overflow="visible"/>
			</clipPath>
			<path clip-path="url(#SVGID_106_)" fill="#FFFFFF" d="M72.656,94.832c-0.456,0-1.369,0.215-1.76,0.304v6.348
				c0.348,0.042,0.935,0.127,1.521,0.127c1.848,0,2.89-1.585,2.89-3.804C75.309,95.571,74.592,94.832,72.656,94.832 M72.353,104.482
				c-2.738,0-3.869-0.304-5.065-0.675V87.942h3.608v4.606c0.848-0.238,1.893-0.411,2.412-0.411c3.565,0,5.696,1.477,5.696,5.651
				C79.004,102.917,75.788,104.482,72.353,104.482"/>
		</g>
		<g>
			<defs>
				<rect id="SVGID_107_" x="37.992" y="4.299" width="161.02" height="111.626"/>
			</defs>
			<clipPath id="SVGID_108_">
				<use xlink:href="#SVGID_107_"  overflow="visible"/>
			</clipPath>
			<path clip-path="url(#SVGID_108_)" fill="#FFFFFF" d="M92.718,104.613c-1.89-0.088-3.523-0.304-5.042-2.327l-2.108-2.803v4.869
				h-3.631V87.963h3.631v8.933l3.282-4.39h3.888l-4.323,5.456l1.694,1.933c0.825,0.935,1.521,1.59,3.021,1.981L92.718,104.613z"/>
		</g>
	</g>
	<polygon fill="#FFFFFF" points="103.392,94.571 101.079,91.613 101.079,94.571 99.977,94.571 99.977,88.81 101.079,88.81 
		101.079,91.442 103.262,88.81 104.663,88.81 102.309,91.49 104.811,94.571 	"/>
	<g>
		<g>
			<defs>
				<rect id="SVGID_109_" x="37.992" y="4.299" width="161.02" height="111.626"/>
			</defs>
			<clipPath id="SVGID_110_">
				<use xlink:href="#SVGID_109_"  overflow="visible"/>
			</clipPath>
			<path clip-path="url(#SVGID_110_)" fill="#FFFFFF" d="M107.279,90.863c-0.87,0-1.108,0.717-1.108,1.492
				c0,0.83,0.271,1.45,1.125,1.45c0.873,0,1.086-0.652,1.086-1.456C108.381,91.587,108.168,90.863,107.279,90.863 M107.231,94.669
				c-1.369,0-2.136-0.855-2.136-2.281c0-1.5,0.89-2.382,2.209-2.382c1.484,0,2.177,0.858,2.177,2.342
				C109.479,93.879,108.519,94.669,107.231,94.669"/>
		</g>
		<g>
			<defs>
				<rect id="SVGID_111_" x="37.992" y="4.299" width="161.02" height="111.626"/>
			</defs>
			<clipPath id="SVGID_112_">
				<use xlink:href="#SVGID_111_"  overflow="visible"/>
			</clipPath>
			<path clip-path="url(#SVGID_112_)" fill="#FFFFFF" d="M113.759,94.571v-2.705c0-0.644-0.123-0.938-0.725-0.938
				c-0.448,0-0.938,0.268-1.15,0.383v3.259h-1.075v-4.45h1.075v0.464c0.304-0.211,0.817-0.587,1.492-0.587
				c1.361,0,1.452,0.833,1.452,1.745v2.828h-1.069V94.571z"/>
		</g>
	</g>
	<path fill="#FFFFFF" d="M116.504,94.569h1.068v-4.45h-1.068V94.569z M116.244,88.735l0.782,0.782l0.785-0.782l-0.785-0.775
		L116.244,88.735z"/>
	<g>
		<g>
			<defs>
				<rect id="SVGID_113_" x="37.992" y="4.299" width="161.02" height="111.626"/>
			</defs>
			<clipPath id="SVGID_114_">
				<use xlink:href="#SVGID_113_"  overflow="visible"/>
			</clipPath>
			<path clip-path="url(#SVGID_114_)" fill="#FFFFFF" d="M122.22,94.571v-2.705c0-0.644-0.123-0.938-0.725-0.938
				c-0.448,0-0.938,0.268-1.15,0.383v3.259h-1.075v-4.45h1.075v0.464c0.304-0.211,0.815-0.587,1.492-0.587
				c1.361,0,1.452,0.833,1.452,1.745v2.828h-1.069V94.571z"/>
		</g>
		<g>
			<defs>
				<rect id="SVGID_115_" x="37.992" y="4.299" width="161.02" height="111.626"/>
			</defs>
			<clipPath id="SVGID_116_">
				<use xlink:href="#SVGID_115_"  overflow="visible"/>
			</clipPath>
			<path clip-path="url(#SVGID_116_)" fill="#FFFFFF" d="M128.69,94.66c-0.546-0.025-1.093-0.113-1.669-0.848l-1.046-1.361v2.119
				H124.9v-6.144h1.075v3.617l1.557-1.923h1.183l-1.737,2.063l0.752,0.888c0.341,0.409,0.675,0.66,1.098,0.775L128.69,94.66z"/>
		</g>
	</g>
	<rect x="129.93" y="88.424" fill="#FFFFFF" width="1.075" height="6.144"/>
	<path fill="#FFFFFF" d="M132.716,94.569h1.071v-4.45h-1.071V94.569z M132.456,88.735l0.779,0.782l0.785-0.782l-0.785-0.775
		L132.456,88.735z"/>
	<g>
		<g>
			<defs>
				<rect id="SVGID_117_" x="37.992" y="4.299" width="161.02" height="111.626"/>
			</defs>
			<clipPath id="SVGID_118_">
				<use xlink:href="#SVGID_117_"  overflow="visible"/>
			</clipPath>
			<path clip-path="url(#SVGID_118_)" fill="#FFFFFF" d="M136.083,89.517l-0.782-0.782l0.782-0.775l0.782,0.775L136.083,89.517z
				 M135.341,96.363c-0.3,0-0.779-0.073-0.993-0.146l-0.067-0.85c0,0,0.391,0.075,0.637,0.075c0.481,0,0.627-0.238,0.627-0.84V90.12
				h1.068v4.49C136.612,96.063,136.245,96.363,135.341,96.363"/>
		</g>
		<g>
			<defs>
				<rect id="SVGID_119_" x="37.992" y="4.299" width="161.02" height="111.626"/>
			</defs>
			<clipPath id="SVGID_120_">
				<use xlink:href="#SVGID_119_"  overflow="visible"/>
			</clipPath>
			<path clip-path="url(#SVGID_120_)" fill="#FFFFFF" d="M142.105,94.66c-0.546-0.025-1.093-0.113-1.669-0.848l-1.043-1.361v2.119
				h-1.078v-6.144h1.078v3.617l1.557-1.923h1.181l-1.737,2.063l0.752,0.888c0.341,0.409,0.675,0.66,1.098,0.775L142.105,94.66z"/>
		</g>
		<g>
			<defs>
				<rect id="SVGID_121_" x="37.992" y="4.299" width="161.02" height="111.626"/>
			</defs>
			<clipPath id="SVGID_122_">
				<use xlink:href="#SVGID_121_"  overflow="visible"/>
			</clipPath>
			<path clip-path="url(#SVGID_122_)" fill="#FFFFFF" d="M145.113,90.829c-0.456,0-0.93,0.311-0.977,1.06h1.777
				C145.92,91.206,145.569,90.829,145.113,90.829 M144.109,92.647c0.008,0.971,0.612,1.108,1.411,1.108
				c0.308,0,0.855-0.04,1.206-0.113l0.163,0.83c-0.352,0.115-1.028,0.173-1.565,0.173c-1.396,0-2.284-0.481-2.284-2.227
				c0-1.81,0.913-2.404,2.169-2.404c1.289,0,1.81,0.848,1.81,2.242v0.391H144.109z"/>
		</g>
	</g>
	<path fill="#FFFFFF" d="M153.131,90.498l-0.283-1.021l-0.336,1.021l-0.489,1.377h1.542L153.131,90.498z M154.452,94.571
		l-0.619-1.883h-2.111l-0.71,1.883h-1.1l2.234-5.761h1.492l1.956,5.761H154.452z"/>
	<g>
		<g>
			<defs>
				<rect id="SVGID_123_" x="37.992" y="4.299" width="161.02" height="111.626"/>
			</defs>
			<clipPath id="SVGID_124_">
				<use xlink:href="#SVGID_123_"  overflow="visible"/>
			</clipPath>
			<path clip-path="url(#SVGID_124_)" fill="#FFFFFF" d="M159.661,91.083c-0.294-0.115-0.571-0.196-1.018-0.196
				c-0.687,0-1.208,0.391-1.208,1.434c0,1.002,0.268,1.452,1.444,1.452c0.366,0,0.609-0.065,0.905-0.108l0.146,0.833
				c-0.352,0.073-0.644,0.148-1.125,0.148c-1.792,0-2.469-0.677-2.469-2.339c0-1.411,0.898-2.3,2.309-2.3
				c0.634,0,1.033,0.123,1.327,0.286L159.661,91.083z"/>
		</g>
		<g>
			<defs>
				<rect id="SVGID_125_" x="37.992" y="4.299" width="161.02" height="111.626"/>
			</defs>
			<clipPath id="SVGID_126_">
				<use xlink:href="#SVGID_125_"  overflow="visible"/>
			</clipPath>
			<path clip-path="url(#SVGID_126_)" fill="#FFFFFF" d="M163.548,92.678l-0.825,0.042c-0.732,0.033-0.848,0.268-0.848,0.554
				c0,0.366,0.204,0.514,0.539,0.514c0.352,0,0.952-0.271,1.133-0.319v-0.791H163.548z M164.95,94.611
				c-0.514,0.025-1.223-0.025-1.321-0.506c-0.275,0.206-0.725,0.531-1.377,0.531c-0.898,0-1.419-0.434-1.419-1.296
				c0-1.108,1.01-1.311,1.827-1.321c0,0,0.74-0.008,0.888-0.008v-0.473c0-0.529-0.294-0.609-0.938-0.609
				c-0.431,0-0.913,0.121-1.238,0.204l-0.213-0.8c0.391-0.146,0.956-0.316,1.64-0.316c0.927,0,1.792,0.138,1.792,1.286v2.202
				c0,0.236,0.171,0.275,0.406,0.286L164.95,94.611z"/>
		</g>
		<g>
			<defs>
				<rect id="SVGID_127_" x="37.992" y="4.299" width="161.02" height="111.626"/>
			</defs>
			<clipPath id="SVGID_128_">
				<use xlink:href="#SVGID_127_"  overflow="visible"/>
			</clipPath>
			<path clip-path="url(#SVGID_128_)" fill="#FFFFFF" d="M169.098,90.928c-0.171-0.042-0.391-0.073-0.71-0.073
				c-0.888,0-1.238,0.634-1.238,1.475c0,1.068,0.473,1.409,1.06,1.409c0.333,0,0.685-0.185,0.888-0.283V90.928z M169.098,94.571
				v-0.352c-0.236,0.188-0.546,0.409-1.068,0.409c-0.855,0-1.94-0.358-1.94-2.325c0-1.514,1.021-2.321,2.292-2.321
				c0.344,0,0.504,0.033,0.717,0.081v-1.637h1.068v6.144C170.167,94.571,169.098,94.571,169.098,94.571z"/>
		</g>
		<g>
			<defs>
				<rect id="SVGID_129_" x="37.992" y="4.299" width="161.02" height="111.626"/>
			</defs>
			<clipPath id="SVGID_130_">
				<use xlink:href="#SVGID_129_"  overflow="visible"/>
			</clipPath>
			<path clip-path="url(#SVGID_130_)" fill="#FFFFFF" d="M173.548,90.829c-0.456,0-0.927,0.311-0.977,1.06h1.777
				C174.356,91.206,174.004,90.829,173.548,90.829 M172.545,92.647c0.008,0.971,0.612,1.108,1.411,1.108
				c0.308,0,0.855-0.04,1.206-0.113l0.163,0.83c-0.352,0.115-1.028,0.173-1.565,0.173c-1.396,0-2.284-0.481-2.284-2.227
				c0-1.81,0.915-2.404,2.169-2.404c1.289,0,1.81,0.848,1.81,2.242v0.391H172.545z"/>
		</g>
		<g>
			<defs>
				<rect id="SVGID_131_" x="37.992" y="4.299" width="161.02" height="111.626"/>
			</defs>
			<clipPath id="SVGID_132_">
				<use xlink:href="#SVGID_131_"  overflow="visible"/>
			</clipPath>
			<path clip-path="url(#SVGID_132_)" fill="#FFFFFF" d="M182.407,94.571v-2.705c0-0.612-0.123-0.938-0.7-0.938
				c-0.369,0-0.825,0.236-1.078,0.383c0.025,0.138,0.025,0.286,0.025,0.423v2.835h-1.068v-2.705c0-0.644-0.131-0.923-0.702-0.923
				c-0.381,0-0.823,0.246-1.05,0.369v3.259h-1.075v-4.45h1.075v0.464c0.271-0.185,0.808-0.587,1.434-0.587
				c0.669,0,1.068,0.261,1.248,0.66c0.341-0.268,0.895-0.66,1.557-0.66c1.394,0,1.409,0.996,1.409,1.745v2.828h-1.076V94.571z"/>
		</g>
	</g>
	<path fill="#FFFFFF" d="M185.161,94.569h1.068v-4.45h-1.068V94.569z M184.901,88.735l0.782,0.782l0.785-0.782l-0.785-0.775
		L184.901,88.735z"/>
	<g>
		<g>
			<defs>
				<rect id="SVGID_133_" x="37.992" y="4.299" width="161.02" height="111.626"/>
			</defs>
			<clipPath id="SVGID_134_">
				<use xlink:href="#SVGID_133_"  overflow="visible"/>
			</clipPath>
			<path clip-path="url(#SVGID_134_)" fill="#FFFFFF" d="M189.694,90.829c-0.456,0-0.93,0.311-0.977,1.06h1.777
				C190.501,91.206,190.15,90.829,189.694,90.829 M188.691,92.647c0.008,0.971,0.612,1.108,1.411,1.108
				c0.308,0,0.855-0.04,1.206-0.113l0.163,0.83c-0.352,0.115-1.028,0.173-1.565,0.173c-1.396,0-2.284-0.481-2.284-2.227
				c0-1.81,0.913-2.404,2.169-2.404c1.289,0,1.81,0.848,1.81,2.242v0.391H188.691z"/>
		</g>
	</g>
	<polygon fill="#FFFFFF" points="102.202,104.351 100.858,104.351 99.317,99.901 100.475,99.901 101.297,102.574 101.542,103.479 
		101.819,102.567 102.741,99.901 103.865,99.901 	"/>
	<g>
		<g>
			<defs>
				<rect id="SVGID_135_" x="37.992" y="4.299" width="161.02" height="111.626"/>
			</defs>
			<clipPath id="SVGID_136_">
				<use xlink:href="#SVGID_135_"  overflow="visible"/>
			</clipPath>
			<path clip-path="url(#SVGID_136_)" fill="#FFFFFF" d="M107.102,102.459l-0.823,0.042c-0.735,0.033-0.85,0.268-0.85,0.554
				c0,0.366,0.206,0.514,0.539,0.514c0.352,0,0.952-0.271,1.133-0.319v-0.791H107.102z M108.504,104.392
				c-0.514,0.025-1.223-0.025-1.321-0.506c-0.275,0.206-0.725,0.531-1.377,0.531c-0.898,0-1.419-0.434-1.419-1.296
				c0-1.108,1.01-1.311,1.827-1.321c0,0,0.742-0.008,0.888-0.008v-0.473c0-0.529-0.294-0.609-0.938-0.609
				c-0.431,0-0.913,0.121-1.238,0.204l-0.211-0.8c0.389-0.146,0.952-0.316,1.637-0.316c0.927,0,1.792,0.138,1.792,1.286v2.202
				c0,0.236,0.171,0.275,0.406,0.286L108.504,104.392z"/>
		</g>
		<g>
			<defs>
				<rect id="SVGID_137_" x="37.992" y="4.299" width="161.02" height="111.626"/>
			</defs>
			<clipPath id="SVGID_138_">
				<use xlink:href="#SVGID_137_"  overflow="visible"/>
			</clipPath>
			<path clip-path="url(#SVGID_138_)" fill="#FFFFFF" d="M112.897,104.351v-2.705c0-0.644-0.123-0.938-0.725-0.938
				c-0.448,0-0.938,0.268-1.15,0.383v3.259h-1.075V99.9h1.075v0.464c0.304-0.211,0.815-0.587,1.492-0.587
				c1.361,0,1.452,0.833,1.452,1.745v2.828h-1.069V104.351z"/>
		</g>
		<g>
			<defs>
				<rect id="SVGID_139_" x="37.992" y="4.299" width="161.02" height="111.626"/>
			</defs>
			<clipPath id="SVGID_140_">
				<use xlink:href="#SVGID_139_"  overflow="visible"/>
			</clipPath>
			<path clip-path="url(#SVGID_140_)" fill="#FFFFFF" d="M119.595,101.776h-0.642v1.702h0.823c0.825,0,1.238-0.188,1.238-0.823
				C121.014,101.995,120.575,101.776,119.595,101.776 M119.497,99.428h-0.544v1.575h0.619c0.84,0,1.028-0.325,1.028-0.8
				C120.6,99.655,120.322,99.428,119.497,99.428 M119.938,104.351h-2.094V98.59h1.85c1.361,0,2.029,0.496,2.029,1.525
				c0,0.692-0.481,1-0.66,1.115v0.025c0.243,0.081,1.075,0.381,1.075,1.377C122.14,103.642,121.568,104.351,119.938,104.351"/>
		</g>
		<g>
			<defs>
				<rect id="SVGID_141_" x="37.992" y="4.299" width="161.02" height="111.626"/>
			</defs>
			<clipPath id="SVGID_142_">
				<use xlink:href="#SVGID_141_"  overflow="visible"/>
			</clipPath>
			<path clip-path="url(#SVGID_142_)" fill="#FFFFFF" d="M125.278,100.61c-0.456,0-0.93,0.311-0.977,1.06h1.775
				C126.085,100.986,125.734,100.61,125.278,100.61 M124.274,102.427c0.008,0.971,0.612,1.108,1.409,1.108
				c0.311,0,0.858-0.04,1.206-0.113l0.163,0.83c-0.348,0.115-1.025,0.173-1.562,0.173c-1.396,0-2.284-0.481-2.284-2.227
				c0-1.81,0.913-2.404,2.169-2.404c1.286,0,1.81,0.848,1.81,2.242v0.391H124.274z"/>
		</g>
		<g>
			<defs>
				<rect id="SVGID_143_" x="37.992" y="4.299" width="161.02" height="111.626"/>
			</defs>
			<clipPath id="SVGID_144_">
				<use xlink:href="#SVGID_143_"  overflow="visible"/>
			</clipPath>
			<path clip-path="url(#SVGID_144_)" fill="#FFFFFF" d="M130.258,100.61c-0.456,0-0.93,0.311-0.977,1.06h1.775
				C131.064,100.986,130.714,100.61,130.258,100.61 M129.254,102.427c0.008,0.971,0.612,1.108,1.409,1.108
				c0.311,0,0.858-0.04,1.206-0.113l0.163,0.83c-0.348,0.115-1.025,0.173-1.565,0.173c-1.394,0-2.281-0.481-2.281-2.227
				c0-1.81,0.913-2.404,2.169-2.404c1.286,0,1.808,0.848,1.808,2.242v0.391H129.254z"/>
		</g>
	</g>
	<rect x="133.467" y="98.205" fill="#FFFFFF" width="1.075" height="6.148"/>
	<g>
		<g>
			<defs>
				<rect id="SVGID_145_" x="37.992" y="4.299" width="161.02" height="111.626"/>
			</defs>
			<clipPath id="SVGID_146_">
				<use xlink:href="#SVGID_145_"  overflow="visible"/>
			</clipPath>
			<path clip-path="url(#SVGID_146_)" fill="#FFFFFF" d="M138.896,100.709c-0.171-0.042-0.391-0.073-0.71-0.073
				c-0.888,0-1.238,0.634-1.238,1.475c0,1.068,0.473,1.409,1.06,1.409c0.333,0,0.685-0.185,0.888-0.283V100.709z M138.896,104.351
				V104c-0.236,0.188-0.546,0.409-1.068,0.409c-0.855,0-1.94-0.358-1.94-2.325c0-1.514,1.021-2.321,2.292-2.321
				c0.344,0,0.504,0.033,0.717,0.081v-1.637h1.068v6.144C139.965,104.351,138.896,104.351,138.896,104.351z"/>
		</g>
		<g>
			<defs>
				<rect id="SVGID_147_" x="37.992" y="4.299" width="161.02" height="111.626"/>
			</defs>
			<clipPath id="SVGID_148_">
				<use xlink:href="#SVGID_147_"  overflow="visible"/>
			</clipPath>
			<path clip-path="url(#SVGID_148_)" fill="#FFFFFF" d="M143.345,100.61c-0.456,0-0.927,0.311-0.977,1.06h1.777
				C144.153,100.986,143.802,100.61,143.345,100.61 M142.343,102.427c0.008,0.971,0.612,1.108,1.411,1.108
				c0.308,0,0.855-0.04,1.206-0.113l0.163,0.83c-0.352,0.115-1.028,0.173-1.565,0.173c-1.394,0-2.284-0.481-2.284-2.227
				c0-1.81,0.915-2.404,2.169-2.404c1.289,0,1.81,0.848,1.81,2.242v0.391H142.343z"/>
		</g>
		<g>
			<defs>
				<rect id="SVGID_149_" x="37.992" y="4.299" width="161.02" height="111.626"/>
			</defs>
			<clipPath id="SVGID_150_">
				<use xlink:href="#SVGID_149_"  overflow="visible"/>
			</clipPath>
			<path clip-path="url(#SVGID_150_)" fill="#FFFFFF" d="M149.507,104.351v-2.705c0-0.644-0.123-0.938-0.725-0.938
				c-0.448,0-0.938,0.268-1.15,0.383v3.259h-1.075V99.9h1.075v0.464c0.304-0.211,0.817-0.587,1.492-0.587
				c1.361,0,1.452,0.833,1.452,1.745v2.828h-1.069V104.351z"/>
		</g>
		<g>
			<defs>
				<rect id="SVGID_151_" x="37.992" y="4.299" width="161.02" height="111.626"/>
			</defs>
			<clipPath id="SVGID_152_">
				<use xlink:href="#SVGID_151_"  overflow="visible"/>
			</clipPath>
			<path clip-path="url(#SVGID_152_)" fill="#FFFFFF" d="M154.895,100.709c-0.173-0.042-0.391-0.073-0.71-0.073
				c-0.888,0-1.238,0.634-1.238,1.475c0,1.068,0.471,1.409,1.058,1.409c0.336,0,0.687-0.185,0.89-0.283V100.709z M154.895,104.351
				V104c-0.236,0.188-0.546,0.409-1.068,0.409c-0.855,0-1.94-0.358-1.94-2.325c0-1.514,1.021-2.321,2.292-2.321
				c0.341,0,0.504,0.033,0.717,0.081v-1.637h1.068v6.144C155.964,104.351,154.895,104.351,154.895,104.351z"/>
		</g>
		<g>
			<defs>
				<rect id="SVGID_153_" x="37.992" y="4.299" width="161.02" height="111.626"/>
			</defs>
			<clipPath id="SVGID_154_">
				<use xlink:href="#SVGID_153_"  overflow="visible"/>
			</clipPath>
			<path clip-path="url(#SVGID_154_)" fill="#FFFFFF" d="M159.345,100.61c-0.456,0-0.93,0.311-0.977,1.06h1.775
				C160.152,100.986,159.801,100.61,159.345,100.61 M158.342,102.427c0.008,0.971,0.612,1.108,1.411,1.108
				c0.308,0,0.855-0.04,1.204-0.113l0.165,0.83c-0.352,0.115-1.028,0.173-1.567,0.173c-1.394,0-2.281-0.481-2.281-2.227
				c0-1.81,0.913-2.404,2.169-2.404c1.286,0,1.81,0.848,1.81,2.242v0.391H158.342z"/>
		</g>
	</g>
	<polygon fill="#FFFFFF" points="168.235,104.351 165.922,101.393 165.922,104.351 164.821,104.351 164.821,98.59 165.922,98.59 
		165.922,101.223 168.105,98.59 169.506,98.59 167.152,101.27 169.654,104.351 	"/>
	<g>
		<g>
			<defs>
				<rect id="SVGID_155_" x="37.992" y="4.299" width="161.02" height="111.626"/>
			</defs>
			<clipPath id="SVGID_156_">
				<use xlink:href="#SVGID_155_"  overflow="visible"/>
			</clipPath>
			<path clip-path="url(#SVGID_156_)" fill="#FFFFFF" d="M173.438,104.351v-0.481c-0.3,0.213-0.865,0.594-1.517,0.594
				c-1.336,0-1.442-0.837-1.442-1.75v-2.813h1.068v2.69c0,0.644,0.113,0.938,0.717,0.938c0.423,0,0.96-0.279,1.173-0.394v-3.234
				h1.058v4.45C174.495,104.351,173.438,104.351,173.438,104.351z"/>
		</g>
		<g>
			<defs>
				<rect id="SVGID_157_" x="37.992" y="4.299" width="161.02" height="111.626"/>
			</defs>
			<clipPath id="SVGID_158_">
				<use xlink:href="#SVGID_157_"  overflow="visible"/>
			</clipPath>
			<path clip-path="url(#SVGID_158_)" fill="#FFFFFF" d="M179.095,104.351v-2.705c0-0.644-0.123-0.938-0.727-0.938
				c-0.446,0-0.935,0.268-1.148,0.383v3.259h-1.075V99.9h1.075v0.464c0.3-0.211,0.815-0.587,1.492-0.587
				c1.361,0,1.452,0.833,1.452,1.745v2.828h-1.069V104.351z"/>
		</g>
		<g>
			<defs>
				<rect id="SVGID_159_" x="37.992" y="4.299" width="161.02" height="111.626"/>
			</defs>
			<clipPath id="SVGID_160_">
				<use xlink:href="#SVGID_159_"  overflow="visible"/>
			</clipPath>
			<path clip-path="url(#SVGID_160_)" fill="#FFFFFF" d="M182.965,104.433c-0.627,0-1.198-0.073-1.525-0.181l0.123-0.837
				c0.448,0.081,0.952,0.138,1.271,0.138c0.692,0,0.913-0.196,0.913-0.441c0-0.717-2.242-0.383-2.242-1.971
				c0-0.905,0.8-1.339,1.73-1.339c0.529,0,1.002,0.09,1.334,0.213l-0.185,0.8c-0.333-0.075-0.677-0.156-1.148-0.156
				c-0.506,0-0.662,0.196-0.662,0.398c0,0.735,2.234,0.514,2.234,1.988C184.809,104.154,183.707,104.433,182.965,104.433"/>
		</g>
		<g>
			<defs>
				<rect id="SVGID_161_" x="37.992" y="4.299" width="161.02" height="111.626"/>
			</defs>
			<clipPath id="SVGID_162_">
				<use xlink:href="#SVGID_161_"  overflow="visible"/>
			</clipPath>
			<path clip-path="url(#SVGID_162_)" fill="#FFFFFF" d="M187.946,104.441c-0.848,0-1.719,0.025-1.719-1.409v-2.317h-0.652v-0.815
				h0.652v-0.913h1.068v0.913h1.377v0.815h-1.377v2.306c0,0.466,0.148,0.514,0.634,0.514c0.319,0,0.858-0.09,0.858-0.09l0.121,0.848
				C188.671,104.358,188.257,104.441,187.946,104.441"/>
		</g>
		<g>
			<defs>
				<rect id="SVGID_163_" x="37.992" y="4.299" width="161.02" height="111.626"/>
			</defs>
			<clipPath id="SVGID_164_">
				<use xlink:href="#SVGID_163_"  overflow="visible"/>
			</clipPath>
			<path clip-path="url(#SVGID_164_)" fill="#FFFFFF" d="M191.785,100.61c-0.456,0-0.927,0.311-0.977,1.06h1.777
				C192.592,100.986,192.241,100.61,191.785,100.61 M190.781,102.427c0.008,0.971,0.612,1.108,1.411,1.108
				c0.308,0,0.855-0.04,1.206-0.113l0.163,0.83c-0.352,0.115-1.028,0.173-1.565,0.173c-1.394,0-2.284-0.481-2.284-2.227
				c0-1.81,0.915-2.404,2.169-2.404c1.289,0,1.81,0.848,1.81,2.242v0.391H190.781z"/>
		</g>
		<g>
			<defs>
				<rect id="SVGID_165_" x="37.992" y="4.299" width="161.02" height="111.626"/>
			</defs>
			<clipPath id="SVGID_166_">
				<use xlink:href="#SVGID_165_"  overflow="visible"/>
			</clipPath>
			<path clip-path="url(#SVGID_166_)" fill="#FFFFFF" d="M197.945,104.351v-2.705c0-0.644-0.123-0.938-0.725-0.938
				c-0.448,0-0.938,0.268-1.15,0.383v3.259h-1.075V99.9h1.075v0.464c0.304-0.211,0.817-0.587,1.492-0.587
				c1.361,0,1.452,0.833,1.452,1.745v2.828h-1.069V104.351z"/>
		</g>
		<g>
			<defs>
				<rect id="SVGID_167_" x="37.992" y="4.299" width="161.02" height="111.626"/>
			</defs>
			<clipPath id="SVGID_168_">
				<use xlink:href="#SVGID_167_"  overflow="visible"/>
			</clipPath>
			<path clip-path="url(#SVGID_168_)" fill="#FFFFFF" d="M101.672,108.898h-1.035v2.487h0.84c0.898,0,1.542-0.304,1.542-1.223
				C103.018,109.275,102.585,108.898,101.672,108.898 M104.452,114.221c-0.3-0.015-0.808-0.163-1.377-0.873l-1.175-1.452
				c-0.146,0.025-0.3,0.035-0.471,0.035h-0.792v2.198h-0.66v-5.761h1.875c1.141,0,1.858,0.546,1.858,1.752
				c0,0.732-0.366,1.336-1.141,1.629l0.895,1.083c0.409,0.498,0.915,0.775,1.125,0.833L104.452,114.221z"/>
		</g>
		<g>
			<defs>
				<rect id="SVGID_169_" x="37.992" y="4.299" width="161.02" height="111.626"/>
			</defs>
			<clipPath id="SVGID_170_">
				<use xlink:href="#SVGID_169_"  overflow="visible"/>
			</clipPath>
			<path clip-path="url(#SVGID_170_)" fill="#FFFFFF" d="M107.257,110.08c-1.083,0-1.369,0.988-1.369,1.835
				c0,0.927,0.325,1.792,1.386,1.792c1.083,0,1.344-0.913,1.344-1.8C108.618,111.083,108.368,110.08,107.257,110.08 M107.21,114.23
				c-1.223,0-1.956-0.815-1.956-2.273c0-1.539,0.855-2.389,2.029-2.389c1.321,0,1.988,0.808,1.988,2.342
				C109.27,113.472,108.368,114.23,107.21,114.23"/>
		</g>
	</g>
	<polygon fill="#FFFFFF" points="113.281,109.681 112.18,112.892 111.912,113.675 111.666,112.875 110.689,109.681 110.005,109.681 
		111.455,114.131 111.749,114.131 111.138,115.919 111.749,115.919 113.933,109.681 	"/>
	<g>
		<g>
			<defs>
				<rect id="SVGID_171_" x="37.992" y="4.299" width="161.02" height="111.626"/>
			</defs>
			<clipPath id="SVGID_172_">
				<use xlink:href="#SVGID_171_"  overflow="visible"/>
			</clipPath>
			<path clip-path="url(#SVGID_172_)" fill="#FFFFFF" d="M117.396,112.069l-1.06,0.058c-0.798,0.04-1.115,0.325-1.115,0.757
				c0,0.594,0.344,0.8,0.807,0.8c0.489,0,1.369-0.604,1.369-0.604v-1.011H117.396z M118.367,114.181
				c-0.377,0.025-0.938-0.065-0.971-0.571c-0.203,0.14-0.612,0.587-1.517,0.587c-0.782,0-1.254-0.439-1.254-1.254
				c0-1.083,0.985-1.314,1.702-1.329l1.068-0.025v-0.619c0-0.75-0.352-0.855-1.148-0.855c-0.409,0-0.915,0.171-1.093,0.211
				l-0.131-0.489c0.188-0.081,0.75-0.261,1.402-0.261c0.898,0,1.565,0.271,1.565,1.191v2.485c0,0.358,0.221,0.427,0.416,0.427
				L118.367,114.181z"/>
		</g>
	</g>
	<rect x="119.909" y="107.987" fill="#FFFFFF" width="0.627" height="6.144"/>
	<path fill="#FFFFFF" d="M125.205,109.667l0.358-0.923l0.319,0.923l0.609,1.775h-1.981L125.205,109.667z M125.082,108.37
		l-2.267,5.761h0.652l0.84-2.166h2.364l0.748,2.166h0.687l-1.996-5.761H125.082z"/>
	<g>
		<g>
			<defs>
				<rect id="SVGID_173_" x="37.992" y="4.299" width="161.02" height="111.626"/>
			</defs>
			<clipPath id="SVGID_174_">
				<use xlink:href="#SVGID_173_"  overflow="visible"/>
			</clipPath>
			<path clip-path="url(#SVGID_174_)" fill="#FFFFFF" d="M131.895,110.309c-0.196-0.09-0.604-0.213-1.043-0.213
				c-0.873,0-1.354,0.604-1.354,1.785c0,1.223,0.352,1.777,1.687,1.777c0.352,0,0.677-0.081,0.848-0.106l0.09,0.496
				c-0.156,0.04-0.554,0.156-1.01,0.156c-1.654,0-2.273-0.669-2.273-2.346c0-1.444,0.848-2.292,2.111-2.292
				c0.602,0,0.985,0.131,1.188,0.254L131.895,110.309z"/>
		</g>
		<g>
			<defs>
				<rect id="SVGID_175_" x="37.992" y="4.299" width="161.02" height="111.626"/>
			</defs>
			<clipPath id="SVGID_176_">
				<use xlink:href="#SVGID_175_"  overflow="visible"/>
			</clipPath>
			<path clip-path="url(#SVGID_176_)" fill="#FFFFFF" d="M135.766,112.069l-1.06,0.058c-0.798,0.04-1.115,0.325-1.115,0.757
				c0,0.594,0.344,0.8,0.807,0.8c0.489,0,1.369-0.604,1.369-0.604v-1.011H135.766z M136.737,114.181
				c-0.377,0.025-0.938-0.065-0.971-0.571c-0.204,0.14-0.612,0.587-1.517,0.587c-0.782,0-1.256-0.439-1.256-1.254
				c0-1.083,0.988-1.314,1.705-1.329l1.068-0.025v-0.619c0-0.75-0.352-0.855-1.148-0.855c-0.409,0-0.913,0.171-1.093,0.211
				l-0.131-0.489c0.188-0.081,0.75-0.261,1.402-0.261c0.898,0,1.565,0.271,1.565,1.191v2.485c0,0.358,0.221,0.427,0.416,0.427
				L136.737,114.181z"/>
		</g>
		<g>
			<defs>
				<rect id="SVGID_177_" x="37.992" y="4.299" width="161.02" height="111.626"/>
			</defs>
			<clipPath id="SVGID_178_">
				<use xlink:href="#SVGID_177_"  overflow="visible"/>
			</clipPath>
			<path clip-path="url(#SVGID_178_)" fill="#FFFFFF" d="M140.959,110.286c-0.213-0.067-0.489-0.09-0.93-0.09
				c-1.075,0-1.456,0.815-1.456,1.752c0,1.213,0.529,1.719,1.279,1.719c0.464,0,0.92-0.383,1.108-0.523V110.286z M140.959,114.132
				v-0.409c-0.3,0.254-0.692,0.473-1.148,0.473c-0.8,0-1.86-0.268-1.86-2.273c0-1.5,0.956-2.281,2.104-2.281
				c0.481,0,0.587,0.033,0.905,0.121v-1.775h0.627v6.144C141.587,114.132,140.959,114.132,140.959,114.132z"/>
		</g>
		<g>
			<defs>
				<rect id="SVGID_179_" x="37.992" y="4.299" width="161.02" height="111.626"/>
			</defs>
			<clipPath id="SVGID_180_">
				<use xlink:href="#SVGID_179_"  overflow="visible"/>
			</clipPath>
			<path clip-path="url(#SVGID_180_)" fill="#FFFFFF" d="M144.936,110.055c-0.654,0-1.166,0.481-1.248,1.484h2.281
				C145.969,110.626,145.621,110.055,144.936,110.055 M143.68,112.02c0.04,1.402,0.725,1.637,1.662,1.637
				c0.319,0,0.93-0.073,1.093-0.131l0.113,0.521c-0.138,0.058-0.862,0.156-1.402,0.156c-1.286,0-2.096-0.514-2.096-2.216
				c0-1.8,0.865-2.412,1.983-2.412c1.09,0,1.604,0.74,1.604,2.216v0.229L143.68,112.02L143.68,112.02z"/>
		</g>
		<g>
			<defs>
				<rect id="SVGID_181_" x="37.992" y="4.299" width="161.02" height="111.626"/>
			</defs>
			<clipPath id="SVGID_182_">
				<use xlink:href="#SVGID_181_"  overflow="visible"/>
			</clipPath>
			<path clip-path="url(#SVGID_182_)" fill="#FFFFFF" d="M153.672,114.132v-2.746c0-0.702-0.098-1.273-0.92-1.273
				c-0.489,0-1.075,0.409-1.314,0.571c0.025,0.188,0.035,0.383,0.035,0.569v2.878h-0.621v-2.746c0-0.702-0.106-1.273-0.927-1.273
				c-0.521,0-1.075,0.473-1.271,0.596v3.423h-0.629v-4.45h0.629v0.481c0.341-0.221,0.627-0.596,1.427-0.596
				c0.71,0,1.058,0.271,1.229,0.637c0.344-0.213,0.807-0.637,1.597-0.637c1.306,0,1.396,0.93,1.396,1.687v2.878H153.672z"/>
		</g>
	</g>
	<polygon fill="#FFFFFF" points="158.587,109.681 157.486,112.892 157.218,113.675 156.975,112.875 155.994,109.681 155.31,109.681 
		156.762,114.131 157.055,114.131 156.444,115.919 157.055,115.919 159.238,109.681 	"/>
	<g>
		<g>
			<defs>
				<rect id="SVGID_183_" x="37.992" y="4.299" width="161.02" height="111.626"/>
			</defs>
			<clipPath id="SVGID_184_">
				<use xlink:href="#SVGID_183_"  overflow="visible"/>
			</clipPath>
			<path clip-path="url(#SVGID_184_)" fill="#FFFFFF" d="M163.389,110.08c-1.083,0-1.369,0.988-1.369,1.835
				c0,0.927,0.325,1.792,1.386,1.792c1.083,0,1.346-0.913,1.346-1.8C164.753,111.083,164.499,110.08,163.389,110.08 M163.341,114.23
				c-1.223,0-1.956-0.815-1.956-2.273c0-1.539,0.855-2.389,2.029-2.389c1.321,0,1.988,0.808,1.988,2.342
				C165.401,113.472,164.499,114.23,163.341,114.23"/>
		</g>
		<g>
			<defs>
				<rect id="SVGID_185_" x="37.992" y="4.299" width="161.02" height="111.626"/>
			</defs>
			<clipPath id="SVGID_186_">
				<use xlink:href="#SVGID_185_"  overflow="visible"/>
			</clipPath>
			<path clip-path="url(#SVGID_186_)" fill="#FFFFFF" d="M169.405,108.475c0,0-0.464-0.106-0.815-0.106
				c-0.677,0-1.068,0.254-1.068,0.927v0.383h0.971v0.521h-0.971v5.721h-0.602v-5.721h-0.654v-0.521h0.654v-0.391
				c0-1.256,0.855-1.475,1.685-1.475c0.279,0,0.8,0.113,0.915,0.163L169.405,108.475z"/>
		</g>
	</g>
	<path fill="#FFFFFF" d="M172.809,109.667l0.358-0.923l0.316,0.923l0.612,1.775h-1.981L172.809,109.667z M172.687,108.37
		l-2.267,5.761h0.652l0.837-2.166h2.367l0.748,2.166h0.687l-1.998-5.761H172.687z"/>
	<g>
		<g>
			<defs>
				<rect id="SVGID_187_" x="37.992" y="4.299" width="161.02" height="111.626"/>
			</defs>
			<clipPath id="SVGID_188_">
				<use xlink:href="#SVGID_187_"  overflow="visible"/>
			</clipPath>
			<path clip-path="url(#SVGID_188_)" fill="#FFFFFF" d="M179.076,110.268c-0.106-0.04-0.261-0.065-0.521-0.065
				c-0.546,0-0.945,0.344-1.158,0.677v3.252h-0.627v-4.45h0.627v0.594c0.206-0.358,0.719-0.675,1.271-0.675
				c0.263,0,0.441,0.03,0.514,0.056L179.076,110.268z"/>
		</g>
		<g>
			<defs>
				<rect id="SVGID_189_" x="37.992" y="4.299" width="161.02" height="111.626"/>
			</defs>
			<clipPath id="SVGID_190_">
				<use xlink:href="#SVGID_189_"  overflow="visible"/>
			</clipPath>
			<path clip-path="url(#SVGID_190_)" fill="#FFFFFF" d="M182.163,114.221c-0.833,0-1.492-0.008-1.492-1.304v-2.705h-0.652v-0.531
				h0.652v-0.913h0.619v0.913h1.377v0.531h-1.377v2.698c0,0.667,0.181,0.765,0.855,0.765c0.352,0,0.687-0.098,0.687-0.098
				l0.113,0.506C182.832,114.123,182.438,114.221,182.163,114.221"/>
		</g>
		<g>
			<defs>
				<rect id="SVGID_191_" x="37.992" y="4.299" width="161.02" height="111.626"/>
			</defs>
			<clipPath id="SVGID_192_">
				<use xlink:href="#SVGID_191_"  overflow="visible"/>
			</clipPath>
			<path clip-path="url(#SVGID_192_)" fill="#FFFFFF" d="M99.977,81.256c5.608,0,10.236-2.67,10.236-5.909
				c0-0.604-0.158-1.188-0.456-1.737l0.873-3.836c1.414-0.211,3.098-3.64,3.876-8.015c0.827-4.658,0.313-8.619-1.148-8.848
				c-0.892-0.14-1.933,1.146-2.796,3.227c-0.002,0.002-0.005,0.002-0.005,0.002c-0.336-2.144-0.923-3.565-1.592-3.565
				c-0.421,0-0.81,0.562-1.123,1.512c-0.338-2.054-0.913-3.404-1.565-3.404c-0.531,0-1.008,0.89-1.348,2.321
				c-0.331-2.227-0.93-3.713-1.615-3.713c-0.634,0-1.194,1.277-1.537,3.234c-0.158-1.852-0.484-3.379-0.902-4.285
				c0.75-0.325,1.273-1.046,1.273-1.881c0-1.141-0.973-2.063-2.171-2.069c-1.198-0.005-2.171,0.927-2.171,2.069
				c0,0.835,0.523,1.554,1.273,1.881c-0.419,0.905-0.744,2.432-0.902,4.285c-0.344-1.958-0.902-3.234-1.537-3.234
				c-0.685,0-1.284,1.487-1.615,3.713c-0.341-1.431-0.817-2.321-1.348-2.321c-0.652,0-1.226,1.352-1.565,3.404
				c-0.313-0.95-0.702-1.512-1.123-1.512c-0.669,0-1.256,1.421-1.592,3.565c0,0-0.002,0-0.005-0.002
				c-0.862-2.081-1.903-3.367-2.796-3.227c-1.462,0.229-1.975,4.19-1.148,8.848c0.777,4.375,2.462,7.804,3.876,8.015l0.873,3.836
				c-0.298,0.55-0.456,1.133-0.456,1.737C89.741,78.586,94.369,81.256,99.977,81.256"/>
		</g>
	</g>
</g>
</svg>
