%!Adobe-FontList 1.19
%Locale:0x409

%BeginFont
Handler:DirectoryHandler
FontType:Type1
FontName:AtlasGrotesk-Light
FamilyName:Atlas Grotesk
StyleName:Light
MenuName:Atlas Grotesk Light
StyleBits:0
WeightClass:300
WidthClass:5
AngleClass:0
FullName:Atlas Grotesk Light
WritingScript:Roman
OutlineFileName:\AtlasGrotesk-Light.otf
DataFormat:sfntData
UsesStandardEncoding:yes
isCFF:yes
hasSVG:no
VariableFontType:NonVariableFont
FileLength:159164
FileModTime:1557154018
NameArray:0,Mac,4,Atlas Grotesk Light
NameArray:0,Win,1,Atlas Grotesk Light
NameArray:0,Win,16,Atlas Grotesk
%EndFont

%BeginFont
Handler:DirectoryHandler
FontType:Type1
FontName:AtlasGrotesk-MediumItalic
FamilyName:Atlas Grotesk
StyleName:Medium Italic
MenuName:Atlas Grotesk Medium
StyleBits:1
WeightClass:500
WidthClass:5
AngleClass:1
FullName:Atlas Grotesk Medium Italic
WritingScript:Roman
OutlineFileName:\AtlasGrotesk-MediumItalic.otf
DataFormat:sfntData
UsesStandardEncoding:yes
isCFF:yes
hasSVG:no
VariableFontType:NonVariableFont
FileLength:167676
FileModTime:1557154018
NameArray:0,Mac,4,Atlas Grotesk Medium Italic
NameArray:0,Win,1,Atlas Grotesk Medium
NameArray:0,Win,16,Atlas Grotesk
%EndFont

%BeginFont
Handler:DirectoryHandler
FontType:Type1
FontName:AtlasGrotesk-RegularItalic
FamilyName:Atlas Grotesk
StyleName:Regular Italic
MenuName:Atlas Grotesk Regular
StyleBits:1
WeightClass:400
WidthClass:5
AngleClass:1
FullName:Atlas Grotesk Regular Italic
WritingScript:Roman
OutlineFileName:\AtlasGrotesk-RegularItalic.otf
DataFormat:sfntData
UsesStandardEncoding:yes
isCFF:yes
hasSVG:no
VariableFontType:NonVariableFont
FileLength:156012
FileModTime:1557154018
NameArray:0,Mac,4,Atlas Grotesk Regular Italic
NameArray:0,Win,1,Atlas Grotesk Regular
NameArray:0,Win,16,Atlas Grotesk
%EndFont

%BeginFont
Handler:DirectoryHandler
FontType:TrueType
FontName:Courier
FamilyName:Courier
StyleName:Regular
MenuName:Courier
StyleBits:0
WeightClass:400
WidthClass:5
AngleClass:0
FullName:Courier
WritingScript:Roman
OutlineFileName:\Courier.dfont
DataFormat:sfntResource
ResourceID:24011
hasSVG:no
VariableFontType:NonVariableFont
FileLength:1646421
FileModTime:1485922367
NameArray:0,Mac,4,Courier
%EndFont

%BeginFont
Handler:DirectoryHandler
FontType:TrueType
FontName:Courier-Bold
FamilyName:Courier
StyleName:Bold
MenuName:Courier
StyleBits:2
WeightClass:700
WidthClass:5
AngleClass:0
FullName:Courier Bold
WritingScript:Roman
OutlineFileName:\Courier.dfont
DataFormat:sfntResource
ResourceID:27224
hasSVG:no
VariableFontType:NonVariableFont
FileLength:1646421
FileModTime:1485922367
NameArray:0,Mac,4,Courier Bold
NameArray:0,Mac,4,Courier Gras
NameArray:0,Mac,4,Courier Fett
NameArray:0,Mac,4,Courier grassetto
NameArray:0,Mac,4,Courier vet
NameArray:0,Mac,4,Courier Fet
NameArray:0,Mac,4,Courier Negrita
NameArray:0,Mac,4,Courier Carregado
NameArray:0,Mac,4,Courier Halvfet
NameArray:0,Mac,4,Courier lihava
NameArray:4,Mac,4,Courier‭ ‬أسود
NameArray:4,Mac,4,Courier‭ ‬برجسته
NameArray:5,Mac,4,Courier‭ ‬עבה
%EndFont

%BeginFont
Handler:DirectoryHandler
FontType:TrueType
FontName:Courier-Oblique
FamilyName:Courier
StyleName:Oblique
MenuName:Courier
StyleBits:1
WeightClass:400
WidthClass:5
AngleClass:1
FullName:Courier Oblique
WritingScript:Roman
OutlineFileName:\Courier.dfont
DataFormat:sfntResource
ResourceID:12456
hasSVG:no
VariableFontType:NonVariableFont
FileLength:1646421
FileModTime:1485922367
NameArray:0,Mac,18,Courier Oblique
NameArray:0,Mac,4,Courier Oblique
%EndFont

%BeginFont
Handler:DirectoryHandler
FontType:TrueType
FontName:Courier-BoldOblique
FamilyName:Courier
StyleName:Bold Oblique
MenuName:Courier
StyleBits:3
WeightClass:700
WidthClass:5
AngleClass:1
FullName:Courier Bold Oblique
WritingScript:Roman
OutlineFileName:\Courier.dfont
DataFormat:sfntResource
ResourceID:28062
hasSVG:no
VariableFontType:NonVariableFont
FileLength:1646421
FileModTime:1485922367
NameArray:0,Mac,18,Courier Bold Oblique
NameArray:0,Mac,4,Courier Bold Oblique
%EndFont

%BeginFont
Handler:DirectoryHandler
FontType:Suitcase
FontName:Courier
OutlineFileName:\Courier.dfont
ResourceID:22
MacStyle:0
FileLength:1646421
FileModTime:1485922367
%EndFont

%BeginFont
Handler:DirectoryHandler
FontType:Suitcase
FontName:Courier-Bold
OutlineFileName:\Courier.dfont
ResourceID:22
MacStyle:1
FileLength:1646421
FileModTime:1485922367
%EndFont

%BeginFont
Handler:DirectoryHandler
FontType:Suitcase
FontName:Courier-Oblique
OutlineFileName:\Courier.dfont
ResourceID:22
MacStyle:2
FileLength:1646421
FileModTime:1485922367
%EndFont

%BeginFont
Handler:DirectoryHandler
FontType:Suitcase
FontName:Courier-BoldOblique
OutlineFileName:\Courier.dfont
ResourceID:22
MacStyle:3
FileLength:1646421
FileModTime:1485922367
%EndFont

%BeginFont
Handler:DirectoryHandler
FontType:TrueType
FontName:Times-Roman
FamilyName:Dutch 801 SWA
StyleName:Roman
MenuName:Dutch 801 SWA
StyleBits:0
WeightClass:400
WidthClass:5
AngleClass:0
FullName:Dutch 801 Roman SWA
WritingScript:Roman
OutlineFileName:\Dutch 801 Roman BT.ttf
DataFormat:sfntData
hasSVG:no
VariableFontType:NonVariableFont
FileLength:50628
FileModTime:1533570978
NameArray:0,Mac,4,Dutch 801 Roman SWA
NameArray:0,Win,1,Dutch 801 SWA
%EndFont

%BeginFont
Handler:DirectoryHandler
FontType:Type1
FontName:Favorit-Bold
FamilyName:Favorit
StyleName:Bold
MenuName:Favorit Bold
StyleBits:0
WeightClass:700
WidthClass:5
AngleClass:0
FullName:Favorit Bold
WritingScript:Roman
OutlineFileName:\Favorit-Bold.otf
DataFormat:sfntData
UsesStandardEncoding:yes
isCFF:yes
hasSVG:no
VariableFontType:NonVariableFont
FileLength:94596
FileModTime:1557154018
NameArray:0,Mac,4,Favorit Bold
NameArray:0,Win,1,Favorit Bold
NameArray:0,Win,16,Favorit
%EndFont

%BeginFont
Handler:DirectoryHandler
FontType:Type1
FontName:Favorit-Inter
FamilyName:Favorit
StyleName:Inter
MenuName:Favorit Inter
StyleBits:0
WeightClass:350
WidthClass:5
AngleClass:0
FullName:Favorit Inter
WritingScript:Roman
OutlineFileName:\Favorit-Inter.otf
DataFormat:sfntData
UsesStandardEncoding:yes
isCFF:yes
hasSVG:no
VariableFontType:NonVariableFont
FileLength:91716
FileModTime:1557154018
NameArray:0,Mac,4,Favorit Inter
NameArray:0,Win,1,Favorit Inter
NameArray:0,Win,16,Favorit
%EndFont

%BeginFont
Handler:DirectoryHandler
FontType:Type1
FontName:Favorit-Light
FamilyName:Favorit
StyleName:Light
MenuName:Favorit Light
StyleBits:0
WeightClass:300
WidthClass:5
AngleClass:0
FullName:Favorit Light
WritingScript:Roman
OutlineFileName:\Favorit-Light.otf
DataFormat:sfntData
UsesStandardEncoding:yes
isCFF:yes
hasSVG:no
VariableFontType:NonVariableFont
FileLength:89144
FileModTime:1557154018
NameArray:0,Mac,4,Favorit Light
NameArray:0,Win,1,Favorit Light
NameArray:0,Win,16,Favorit
%EndFont

%BeginFont
Handler:DirectoryHandler
FontType:Type1
FontName:Favorit-LightIta
FamilyName:Favorit
StyleName:Light Italic
MenuName:Favorit Light
StyleBits:1
WeightClass:300
WidthClass:5
AngleClass:1
FullName:Favorit Light Italic
WritingScript:Roman
OutlineFileName:\Favorit-LightIta.otf
DataFormat:sfntData
UsesStandardEncoding:yes
isCFF:yes
hasSVG:no
VariableFontType:NonVariableFont
FileLength:93332
FileModTime:1557154018
NameArray:0,Mac,4,Favorit Light Italic
NameArray:0,Win,1,Favorit Light
NameArray:0,Win,16,Favorit
%EndFont

%BeginFont
Handler:DirectoryHandler
FontType:Type1
FontName:FavoritLining-Light
FamilyName:Favorit Lining
StyleName:Light
MenuName:Favorit Lining Light
StyleBits:0
WeightClass:300
WidthClass:5
AngleClass:0
FullName:Favorit Lining Light
WritingScript:Roman
OutlineFileName:\FavoritLining-Light.otf
DataFormat:sfntData
UsesStandardEncoding:yes
isCFF:yes
hasSVG:no
VariableFontType:NonVariableFont
FileLength:235516
FileModTime:1557154018
NameArray:0,Mac,4,Favorit Lining Light
NameArray:0,Win,1,Favorit Lining Light
NameArray:0,Win,16,Favorit Lining
%EndFont

%BeginFont
Handler:DirectoryHandler
FontType:TrueType
FontName:Helvetica
FamilyName:Helvetica
StyleName:Regular
MenuName:Helvetica
StyleBits:0
WeightClass:400
WidthClass:5
AngleClass:0
FullName:Helvetica
WritingScript:Roman
OutlineFileName:\Helvetica.dfont
DataFormat:sfntResource
ResourceID:25595
hasSVG:no
VariableFontType:NonVariableFont
FileLength:2563430
FileModTime:1485922367
NameArray:0,Mac,18,Helvetica
NameArray:0,Mac,4,Helvetica
%EndFont

%BeginFont
Handler:DirectoryHandler
FontType:TrueType
FontName:Helvetica-Bold
FamilyName:Helvetica
StyleName:Bold
MenuName:Helvetica
StyleBits:2
WeightClass:700
WidthClass:5
AngleClass:0
FullName:Helvetica Bold
WritingScript:Roman
OutlineFileName:\Helvetica.dfont
DataFormat:sfntResource
ResourceID:28517
hasSVG:no
VariableFontType:NonVariableFont
FileLength:2563430
FileModTime:1485922367
NameArray:0,Mac,4,Helvetica Bold
NameArray:0,Mac,4,Helvetica lihava
NameArray:0,Mac,4,Helvetica Gras
NameArray:0,Mac,4,Helvetica Fett
NameArray:0,Mac,4,Helvetica grassetto
NameArray:0,Mac,4,Helvetica vet
NameArray:0,Mac,4,Helvetica Fet
NameArray:0,Mac,4,Helvetica Negrita
NameArray:0,Mac,4,Helvetica Carregado
NameArray:0,Mac,4,Helvetica Halvfet
NameArray:0,Mac,18,Helvetica Bold
NameArray:4,Mac,4,Helvetica‭ ‬أسود
NameArray:4,Mac,4,Helvetica‭ ‬برجسته
NameArray:5,Mac,4,Helvetica‭ ‬עבה
%EndFont

%BeginFont
Handler:DirectoryHandler
FontType:TrueType
FontName:Helvetica-Oblique
FamilyName:Helvetica
StyleName:Oblique
MenuName:Helvetica
StyleBits:1
WeightClass:400
WidthClass:5
AngleClass:1
FullName:Helvetica Oblique
WritingScript:Roman
OutlineFileName:\Helvetica.dfont
DataFormat:sfntResource
ResourceID:22365
hasSVG:no
VariableFontType:NonVariableFont
FileLength:2563430
FileModTime:1485922367
NameArray:0,Mac,18,Helvetica Oblique
NameArray:0,Mac,4,Helvetica Oblique
%EndFont

%BeginFont
Handler:DirectoryHandler
FontType:TrueType
FontName:Helvetica-BoldOblique
FamilyName:Helvetica
StyleName:Bold Oblique
MenuName:Helvetica
StyleBits:3
WeightClass:700
WidthClass:5
AngleClass:1
FullName:Helvetica Bold Oblique
WritingScript:Roman
OutlineFileName:\Helvetica.dfont
DataFormat:sfntResource
ResourceID:6413
hasSVG:no
VariableFontType:NonVariableFont
FileLength:2563430
FileModTime:1485922367
NameArray:0,Mac,18,Helvetica Bold Oblique
NameArray:0,Mac,4,Helvetica Bold Oblique
%EndFont

%BeginFont
Handler:DirectoryHandler
FontType:TrueType
FontName:Helvetica-Light
FamilyName:Helvetica
StyleName:Light
MenuName:Helvetica
StyleBits:0
WeightClass:300
WidthClass:5
AngleClass:0
FullName:Helvetica Light
WritingScript:Roman
OutlineFileName:\Helvetica.dfont
DataFormat:sfntResource
ResourceID:22375
hasSVG:no
VariableFontType:NonVariableFont
FileLength:2563430
FileModTime:1485922367
NameArray:0,Mac,18,Helvetica Light
NameArray:0,Mac,4,Helvetica Light
%EndFont

%BeginFont
Handler:DirectoryHandler
FontType:TrueType
FontName:Helvetica-LightOblique
FamilyName:Helvetica
StyleName:Light Oblique
MenuName:Helvetica
StyleBits:1
WeightClass:300
WidthClass:5
AngleClass:1
FullName:Helvetica Light Oblique
WritingScript:Roman
OutlineFileName:\Helvetica.dfont
DataFormat:sfntResource
ResourceID:6513
hasSVG:no
VariableFontType:NonVariableFont
FileLength:2563430
FileModTime:1485922367
NameArray:0,Mac,18,Helvetica Light Oblique
NameArray:0,Mac,4,Helvetica Light Oblique
%EndFont

%BeginFont
Handler:DirectoryHandler
FontType:Suitcase
FontName:Helvetica
OutlineFileName:\Helvetica.dfont
ResourceID:21
MacStyle:0
FileLength:2563430
FileModTime:1485922367
%EndFont

%BeginFont
Handler:DirectoryHandler
FontType:Suitcase
FontName:Helvetica-Bold
OutlineFileName:\Helvetica.dfont
ResourceID:21
MacStyle:1
FileLength:2563430
FileModTime:1485922367
%EndFont

%BeginFont
Handler:DirectoryHandler
FontType:Suitcase
FontName:Helvetica-Oblique
OutlineFileName:\Helvetica.dfont
ResourceID:21
MacStyle:2
FileLength:2563430
FileModTime:1485922367
%EndFont

%BeginFont
Handler:DirectoryHandler
FontType:Suitcase
FontName:Helvetica-BoldOblique
OutlineFileName:\Helvetica.dfont
ResourceID:21
MacStyle:3
FileLength:2563430
FileModTime:1485922367
%EndFont

%BeginFont
Handler:DirectoryHandler
FontType:Suitcase
FontName:Helvetica-Light
OutlineFileName:\Helvetica.dfont
ResourceID:211
MacStyle:0
FileLength:2563430
FileModTime:1485922367
%EndFont

%BeginFont
Handler:DirectoryHandler
FontType:Suitcase
FontName:Helvetica-LightOblique
OutlineFileName:\Helvetica.dfont
ResourceID:211
MacStyle:2
FileLength:2563430
FileModTime:1485922367
%EndFont

%BeginFont
Handler:DirectoryHandler
FontType:TrueType
FontName:Times-Roman
FamilyName:Times
StyleName:Regular
MenuName:Times
StyleBits:0
WeightClass:400
WidthClass:5
AngleClass:0
FullName:Times Roman
WritingScript:Roman
OutlineFileName:\Times.dfont
DataFormat:sfntResource
ResourceID:13494
hasSVG:no
VariableFontType:NonVariableFont
FileLength:1599593
FileModTime:1485922367
NameArray:0,Mac,4,Times Roman
%EndFont

%BeginFont
Handler:DirectoryHandler
FontType:TrueType
FontName:Times-Bold
FamilyName:Times
StyleName:Bold
MenuName:Times
StyleBits:2
WeightClass:700
WidthClass:5
AngleClass:0
FullName:Times Bold
WritingScript:Roman
OutlineFileName:\Times.dfont
DataFormat:sfntResource
ResourceID:16697
hasSVG:no
VariableFontType:NonVariableFont
FileLength:1599593
FileModTime:1485922367
NameArray:0,Mac,4,Times Bold
NameArray:0,Mac,4,Times Gras
NameArray:0,Mac,4,Times Fett
NameArray:0,Mac,4,Times grassetto
NameArray:0,Mac,4,Times vet
NameArray:0,Mac,4,Times Fet
NameArray:0,Mac,4,Times Negrita
NameArray:0,Mac,4,Times Fed
NameArray:0,Mac,4,Times Carregado
NameArray:0,Mac,4,Times Halvfet
NameArray:0,Mac,4,Times lihava
%EndFont

%BeginFont
Handler:DirectoryHandler
FontType:TrueType
FontName:Times-Italic
FamilyName:Times
StyleName:Italic
MenuName:Times
StyleBits:1
WeightClass:400
WidthClass:5
AngleClass:1
FullName:Times Italic
WritingScript:Roman
OutlineFileName:\Times.dfont
DataFormat:sfntResource
ResourceID:21585
hasSVG:no
VariableFontType:NonVariableFont
FileLength:1599593
FileModTime:1485922367
NameArray:0,Mac,4,Times Italic
NameArray:0,Mac,4,Times Italique
NameArray:0,Mac,4,Times Kursiv
NameArray:0,Mac,4,Times corsivo
NameArray:0,Mac,4,Times cursief
NameArray:0,Mac,4,Times Kursiv
NameArray:0,Mac,4,Times Cursiva
NameArray:0,Mac,4,Times kursiv
NameArray:0,Mac,4,Times Itálico
NameArray:0,Mac,4,Times kursiv
NameArray:0,Mac,4,Times kursiivi
%EndFont

%BeginFont
Handler:DirectoryHandler
FontType:TrueType
FontName:Times-BoldItalic
FamilyName:Times
StyleName:Bold Italic
MenuName:Times
StyleBits:3
WeightClass:700
WidthClass:5
AngleClass:1
FullName:Times Bold Italic
WritingScript:Roman
OutlineFileName:\Times.dfont
DataFormat:sfntResource
ResourceID:22219
hasSVG:no
VariableFontType:NonVariableFont
FileLength:1599593
FileModTime:1485922367
NameArray:0,Mac,4,Times Bold Italic
NameArray:0,Mac,4,Times Gras italique
NameArray:0,Mac,4,Times Fett Kursiv
NameArray:0,Mac,4,Times grassetto corsivo
NameArray:0,Mac,4,Times vet-cursief
NameArray:0,Mac,4,Times Fet Kursiv
NameArray:0,Mac,4,Times Negrita Cursiva
NameArray:0,Mac,4,Times Fed kursiv
NameArray:0,Mac,4,Times Carregado Itálico
NameArray:0,Mac,4,Times Halvfet kursiv
NameArray:0,Mac,4,Times lihava kursiivi
%EndFont

%BeginFont
Handler:DirectoryHandler
FontType:Suitcase
FontName:Times-Roman
OutlineFileName:\Times.dfont
ResourceID:20
MacStyle:0
FileLength:1599593
FileModTime:1485922367
%EndFont

%BeginFont
Handler:DirectoryHandler
FontType:Suitcase
FontName:Times-Bold
OutlineFileName:\Times.dfont
ResourceID:20
MacStyle:1
FileLength:1599593
FileModTime:1485922367
%EndFont

%BeginFont
Handler:DirectoryHandler
FontType:Suitcase
FontName:Times-Italic
OutlineFileName:\Times.dfont
ResourceID:20
MacStyle:2
FileLength:1599593
FileModTime:1485922367
%EndFont

%BeginFont
Handler:DirectoryHandler
FontType:Suitcase
FontName:Times-BoldItalic
OutlineFileName:\Times.dfont
ResourceID:20
MacStyle:3
FileLength:1599593
FileModTime:1485922367
%EndFont

