<?xml version="1.0" encoding="utf-8"?>
<!-- Generator: Adobe Illustrator 17.0.0, SVG Export Plug-In . SVG Version: 6.00 Build 0)  -->
<!DOCTYPE svg PUBLIC "-//W3C//DTD SVG 1.1//EN" "http://www.w3.org/Graphics/SVG/1.1/DTD/svg11.dtd">
<svg version="1.1" id="Layer_1" xmlns="http://www.w3.org/2000/svg" xmlns:xlink="http://www.w3.org/1999/xlink" x="0px" y="0px"
	 width="232px" height="130px" viewBox="0 0 232 130" enable-background="new 0 0 232 130" xml:space="preserve">
<g>
	<g>
		<defs>
			<rect id="SVGID_59_" x="34.36" y="41.363" width="173.126" height="50.759"/>
		</defs>
		<clipPath id="SVGID_2_">
			<use xlink:href="#SVGID_59_"  overflow="visible"/>
		</clipPath>
		<path clip-path="url(#SVGID_2_)" fill="#FFFFFF" d="M97.01,63.516h2.643l-0.532-2.513l-0.705-3.579
			c-0.069,0.316-0.13,0.598-0.181,0.843c-0.051,0.245-0.106,0.5-0.17,0.768c-0.064,0.269-0.136,0.566-0.213,0.891
			c-0.08,0.322-0.175,0.721-0.287,1.196L97.01,63.516z M105.88,70.812L105.731,71h-2.196c-0.37,0-0.736,0.008-1.098,0.024
			c-0.362,0.016-0.729,0.032-1.098,0.048l-0.149-0.117l-0.811-4.028h-4.158l-0.83,3.98L95.24,71h-3.922l-0.106-0.165l4.648-16.442
			l0.128-0.12l5.416-0.069l0.149,0.117L105.88,70.812z M90.167,62.615c-0.016,0.396-0.029,0.755-0.043,1.077
			c-0.016,0.324-0.027,0.633-0.032,0.925c-0.008,0.292-0.011,0.585-0.011,0.877v0.957c0,0.633,0.003,1.258,0.011,1.872
			c0.005,0.617,0.016,1.242,0.032,1.872l-0.085,0.191c-0.386,0.125-0.76,0.247-1.13,0.367c-0.372,0.117-0.763,0.221-1.175,0.308
			c-0.412,0.085-0.851,0.157-1.321,0.213c-0.468,0.056-0.981,0.082-1.534,0.082c-1.266,0-2.345-0.146-3.241-0.439
			s-1.643-0.707-2.239-1.244c-0.284-0.253-0.58-0.58-0.885-0.981c-0.306-0.404-0.588-0.885-0.843-1.446s-0.465-1.204-0.627-1.93
			c-0.165-0.726-0.247-1.555-0.247-2.489c0-0.994,0.125-2.021,0.375-3.079c0.247-1.058,0.681-2.018,1.3-2.879
			c0.617-0.861,1.449-1.566,2.494-2.119c1.045-0.553,2.356-0.83,3.935-0.83c0.54,0,1.029,0.032,1.47,0.093
			c0.441,0.064,0.843,0.146,1.204,0.25c0.364,0.104,0.694,0.218,0.992,0.343c0.3,0.128,0.569,0.245,0.811,0.356l0.064,0.165
			l-0.255,3.932l-0.191,0.072c-0.229-0.157-0.463-0.324-0.705-0.497s-0.503-0.324-0.779-0.449c-0.277-0.128-0.582-0.234-0.917-0.322
			c-0.332-0.085-0.699-0.13-1.098-0.13c-0.524,0-1.008,0.082-1.449,0.25c-0.441,0.165-0.803,0.383-1.087,0.651
			c-0.553,0.505-0.931,1.133-1.13,1.882c-0.199,0.752-0.298,1.521-0.298,2.31c0,0.221,0.005,0.479,0.021,0.771
			c0.013,0.292,0.053,0.596,0.117,0.912c0.064,0.316,0.16,0.635,0.287,0.96c0.128,0.324,0.298,0.619,0.513,0.888
			c0.043,0.064,0.117,0.154,0.223,0.271c0.106,0.12,0.253,0.237,0.436,0.356c0.186,0.12,0.409,0.221,0.673,0.308
			c0.263,0.088,0.58,0.13,0.949,0.13c0.197,0,0.372-0.013,0.521-0.037c0.149-0.021,0.316-0.058,0.503-0.106v-1.372
			c0-0.364-0.005-0.705-0.011-1.021c-0.008-0.314-0.021-0.638-0.043-0.97c-0.021-0.332-0.053-0.734-0.098-1.207l0.109-0.144
			c0.497,0,0.912,0.005,1.247,0.013c0.332,0.008,0.649,0.008,0.949,0c0.298-0.008,0.609-0.016,0.939-0.024
			c0.324-0.008,0.723-0.029,1.194-0.061L90.167,62.615z M75.432,67.352l-0.213,3.507L75.028,71h-1.771
			c-0.455,0-0.824-0.003-1.109-0.011c-0.284-0.008-0.51-0.013-0.683-0.013h-0.489c-0.582,0-1.109,0.005-1.579,0.013
			c-0.468,0.008-0.915,0.016-1.343,0.024c-0.425,0.008-0.848,0.016-1.268,0.024s-0.885,0.019-1.396,0.035l-0.106-0.165
			c0.013-0.681,0.027-1.295,0.043-1.848c0.013-0.553,0.024-1.111,0.032-1.672c0.005-0.558,0.011-1.149,0.011-1.763v-2.132
			c0-1.422-0.005-2.579-0.011-3.472c-0.008-0.891-0.016-1.654-0.021-2.287c-0.008-0.63-0.021-1.191-0.043-1.68
			c-0.021-0.489-0.048-1.034-0.074-1.635l0.128-0.144h9.596l0.106,0.096L74.9,57.64l-0.13,0.117h-4.924v3.01l4.669-0.096
			l0.128,0.168l-0.17,3.103l-0.149,0.141h-4.435v3.27c0.824,0,1.659-0.011,2.505-0.035c0.845-0.024,1.816-0.061,2.911-0.106
			L75.432,67.352z M62.383,70.859L62.255,71h-1.141h-0.928c-0.298,0-0.612,0.008-0.939,0.024c-0.327,0.016-0.718,0.032-1.173,0.048
			l-0.106-0.141l-0.17-9.266v-3.552l-0.79,3.222l-0.34,1.444l-1.941,8.08L54.558,71c-0.356,0-0.654-0.003-0.896-0.011
			c-0.242-0.008-0.479-0.008-0.715,0c-0.234,0.008-0.484,0.019-0.744,0.035c-0.263,0.016-0.588,0.032-0.97,0.048l-0.149-0.141
			c-0.215-0.917-0.394-1.691-0.534-2.324c-0.141-0.63-0.277-1.207-0.404-1.728c-0.128-0.521-0.253-1.042-0.375-1.563
			c-0.12-0.521-0.266-1.138-0.436-1.848l-0.34-1.399l-1.002-4.1l-0.085,3.366c-0.029,1.01-0.051,2.018-0.064,3.02
			c-0.016,1.002-0.021,2.01-0.021,3.02c0,0.617,0.003,1.194,0.011,1.731c0.005,0.537,0.016,1.119,0.032,1.752L47.711,71l-3.56,0.072
			l-0.106-0.141c0.072-1.106,0.136-2.1,0.191-2.986c0.056-0.885,0.104-1.718,0.138-2.499c0.037-0.782,0.072-1.553,0.106-2.31
			c0.037-0.758,0.069-1.563,0.098-2.417c0.027-0.853,0.056-1.792,0.085-2.818c0.027-1.026,0.056-2.196,0.085-3.507l0.128-0.12h2.877
			c0.513-0.016,1.021-0.027,1.526-0.035c0.505-0.008,1.005-0.019,1.502-0.035l0.128,0.069l2.369,10.141
			c0.069-0.316,0.141-0.635,0.213-0.96c0.069-0.322,0.141-0.651,0.213-0.984c0.199-0.851,0.404-1.694,0.619-2.523
			c0.213-0.827,0.417-1.67,0.617-2.523c0.114-0.505,0.229-1.013,0.34-1.526c0.114-0.513,0.229-1.024,0.343-1.529l0.149-0.096
			l5.778-0.069l0.128,0.141c0.016,0.71,0.029,1.348,0.043,1.906c0.016,0.561,0.032,1.135,0.053,1.718
			c0.024,0.585,0.051,1.226,0.088,1.92c0.035,0.697,0.074,1.531,0.117,2.513c0.069,1.42,0.138,2.832,0.202,4.227
			C62.244,68.028,62.311,69.437,62.383,70.859 M110.554,49.222H34.359v26.383h84.589V63.492l-2.366,10.675l-8.059-1.726
			L110.554,49.222z"/>
		<path clip-path="url(#SVGID_2_)" fill="#FFFFFF" d="M153.752,64.165c0.035-0.59,0.053-1.125,0.053-1.598
			c0-0.681-0.035-1.327-0.106-1.944c-0.072-0.617-0.194-1.157-0.372-1.622s-0.417-0.838-0.715-1.114
			c-0.298-0.277-0.675-0.415-1.13-0.415c-0.497,0-0.907,0.133-1.226,0.401c-0.319,0.271-0.572,0.641-0.758,1.114
			c-0.183,0.473-0.311,1.034-0.383,1.683c-0.072,0.649-0.106,1.343-0.106,2.084c0,0.38,0.016,0.851,0.053,1.409
			c0.035,0.561,0.13,1.106,0.287,1.635c0.157,0.529,0.394,0.981,0.715,1.351c0.319,0.372,0.763,0.556,1.332,0.556
			c0.553,0,0.994-0.175,1.321-0.532c0.327-0.356,0.572-0.798,0.736-1.327C153.616,65.319,153.717,64.758,153.752,64.165
			 M167.758,60.706c0.223-0.292,0.332-0.705,0.332-1.244c0-0.521-0.128-0.957-0.386-1.313c-0.258-0.356-0.71-0.534-1.353-0.534
			c-0.13,0-0.308,0.005-0.537,0.013s-0.409,0.011-0.537,0.011l-0.043,3.935c0.199,0,0.46-0.008,0.784-0.024
			c0.322-0.016,0.635-0.088,0.944-0.215C167.272,61.209,167.538,60.999,167.758,60.706 M197.561,65.742
			c0,0.394-0.037,0.763-0.106,1.101c-0.072,0.34-0.154,0.643-0.247,0.912c-0.09,0.269-0.189,0.497-0.287,0.689
			c-0.098,0.189-0.17,0.324-0.213,0.401c-0.314,0.521-0.678,0.944-1.098,1.268c-0.42,0.324-0.872,0.577-1.353,0.758
			c-0.484,0.181-0.992,0.308-1.526,0.38c-0.532,0.069-1.069,0.106-1.609,0.106c-1.066,0-1.917-0.098-2.55-0.298
			c-0.633-0.197-1.103-0.359-1.417-0.484l-0.17-0.237c0.029-0.444,0.051-0.811,0.064-1.103c0.013-0.292,0.029-0.569,0.043-0.83
			c0.013-0.261,0.024-0.532,0.032-0.816c0.008-0.284,0.011-0.641,0.011-1.066l0.191-0.072c0.072,0.08,0.146,0.152,0.223,0.213
			c0.08,0.064,0.162,0.128,0.247,0.191c0.425,0.346,0.933,0.601,1.523,0.758c0.59,0.157,1.127,0.237,1.611,0.237
			c0.481,0,0.861-0.064,1.141-0.189c0.277-0.128,0.487-0.274,0.627-0.439c0.144-0.168,0.234-0.34,0.277-0.521
			c0.043-0.181,0.066-0.322,0.066-0.415c0-0.237-0.051-0.439-0.152-0.604c-0.098-0.168-0.223-0.314-0.372-0.439
			c-0.149-0.128-0.314-0.237-0.489-0.332c-0.178-0.096-0.346-0.181-0.503-0.261l-1.066-0.473c-0.37-0.191-0.758-0.404-1.162-0.641
			c-0.404-0.237-0.779-0.545-1.119-0.923c-0.34-0.38-0.625-0.845-0.853-1.399c-0.226-0.553-0.34-1.231-0.34-2.037
			c0-0.665,0.093-1.324,0.277-1.981c0.186-0.654,0.548-1.266,1.087-1.835c0.513-0.521,1.109-0.896,1.792-1.125
			c0.681-0.229,1.505-0.346,2.473-0.346c1.079,0,1.949,0.117,2.603,0.346c0.651,0.229,1.143,0.423,1.47,0.58l0.085,0.141
			l-0.191,3.698l-0.191,0.093c-0.157-0.125-0.311-0.253-0.46-0.378c-0.149-0.128-0.308-0.245-0.479-0.356
			c-0.37-0.237-0.758-0.415-1.162-0.534c-0.407-0.117-0.779-0.175-1.119-0.175c-0.399,0-0.686,0.043-0.864,0.13
			c-0.178,0.085-0.303,0.162-0.375,0.223c-0.128,0.128-0.237,0.284-0.33,0.473c-0.093,0.191-0.138,0.396-0.138,0.617
			c0,0.221,0.053,0.42,0.16,0.593c0.106,0.173,0.234,0.319,0.386,0.439c0.149,0.117,0.303,0.221,0.468,0.308
			c0.162,0.085,0.303,0.154,0.415,0.199l1.173,0.545c0.186,0.08,0.495,0.234,0.928,0.463c0.433,0.229,0.877,0.572,1.335,1.032
			c0.269,0.284,0.487,0.58,0.649,0.888c0.165,0.308,0.287,0.612,0.375,0.912c0.085,0.3,0.141,0.588,0.17,0.864
			C197.545,65.271,197.561,65.521,197.561,65.742 M185.15,67.353l-0.213,3.507l-0.191,0.141h-1.771
			c-0.455,0-0.824-0.003-1.109-0.011c-0.284-0.008-0.51-0.013-0.683-0.013h-0.489c-0.582,0-1.109,0.005-1.577,0.013
			c-0.471,0.008-0.917,0.013-1.345,0.024c-0.425,0.005-0.848,0.013-1.268,0.021c-0.42,0.008-0.885,0.021-1.396,0.037l-0.106-0.168
			c0.013-0.678,0.027-1.295,0.043-1.848c0.013-0.55,0.024-1.109,0.032-1.67c0.005-0.561,0.011-1.149,0.011-1.765V63.49
			c0-1.42-0.005-2.576-0.011-3.47c-0.008-0.893-0.016-1.654-0.021-2.287c-0.008-0.633-0.021-1.191-0.043-1.683
			c-0.021-0.489-0.048-1.034-0.074-1.635l0.128-0.141h9.596l0.106,0.096l-0.149,3.268l-0.128,0.12h-4.927v3.01l4.669-0.096
			l0.128,0.165l-0.17,3.105l-0.149,0.141h-4.435v3.27c0.824,0,1.659-0.013,2.505-0.037c0.845-0.021,1.816-0.058,2.911-0.106
			L185.15,67.353z M169.862,63.705l1.941,4.193l1.449,2.77l-0.085,0.215l-4.499,0.213l-0.234-0.191l-1.151-2.983l-1.345-3.129
			l-0.702,0.024v1.779c0,0.473,0.005,0.92,0.021,1.337c0.013,0.42,0.032,0.851,0.053,1.292c0.021,0.441,0.045,0.986,0.074,1.635
			l-0.128,0.141l-4.392,0.072l-0.106-0.144c0.027-1.531,0.053-3.06,0.074-4.584s0.032-3.052,0.032-4.584
			c0-0.949-0.005-1.76-0.011-2.441c-0.008-0.678-0.021-1.292-0.043-1.837s-0.048-1.058-0.074-1.539
			c-0.029-0.481-0.066-0.997-0.109-1.55l0.109-0.12h3.837l1.109-0.024c0.526-0.016,1.042-0.019,1.547-0.011
			c0.503,0.008,0.981,0.04,1.428,0.093c0.447,0.056,0.867,0.154,1.258,0.298c0.391,0.141,0.742,0.346,1.056,0.614
			c0.141,0.128,0.298,0.298,0.471,0.51c0.17,0.213,0.33,0.479,0.479,0.792c0.149,0.316,0.277,0.683,0.383,1.103
			c0.106,0.417,0.16,0.888,0.16,1.409c0,0.569-0.053,1.064-0.16,1.481c-0.106,0.417-0.215,0.763-0.33,1.032
			c-0.141,0.33-0.298,0.614-0.468,0.851c-0.173,0.237-0.351,0.436-0.534,0.593c-0.183,0.16-0.372,0.29-0.564,0.391
			C170.213,63.511,170.032,63.61,169.862,63.705 M158.498,62.424c0,0.332-0.008,0.723-0.021,1.173
			c-0.016,0.452-0.059,0.925-0.13,1.422c-0.069,0.497-0.175,1.002-0.319,1.516c-0.141,0.516-0.327,0.992-0.553,1.436
			c-0.386,0.726-0.838,1.311-1.356,1.752c-0.518,0.441-1.056,0.782-1.609,1.018c-0.556,0.237-1.109,0.396-1.664,0.473
			c-0.553,0.08-1.058,0.12-1.513,0.12c-2.289,0-4.031-0.726-5.224-2.18c-1.194-1.452-1.792-3.547-1.792-6.277
			c0-0.981,0.072-1.946,0.215-2.903c0.141-0.955,0.439-1.851,0.893-2.688c0.229-0.428,0.51-0.843,0.843-1.244
			c0.335-0.404,0.744-0.766,1.226-1.09c0.484-0.324,1.045-0.58,1.686-0.771c0.641-0.189,1.377-0.284,2.217-0.284
			c0.34,0,0.721,0.024,1.141,0.072c0.42,0.048,0.848,0.138,1.29,0.274c0.441,0.133,0.875,0.319,1.3,0.556
			c0.428,0.237,0.824,0.545,1.196,0.925c0.282,0.314,0.553,0.67,0.808,1.066c0.258,0.394,0.481,0.859,0.673,1.396
			c0.191,0.537,0.348,1.154,0.468,1.848C158.394,60.728,158.469,61.525,158.498,62.424 M144.553,54.299
			c-0.029,0.378-0.051,0.707-0.064,0.984c-0.016,0.277-0.029,0.537-0.045,0.782c-0.013,0.245-0.024,0.5-0.032,0.768
			c-0.005,0.269-0.016,0.585-0.032,0.949l-0.128,0.141l-3.241-0.117c0,0.742-0.003,1.476-0.011,2.201
			c-0.005,0.729-0.011,1.462-0.011,2.204c0,1.438,0.011,2.858,0.032,4.265s0.048,2.858,0.074,4.36l-0.149,0.165h-1.183h-0.97
			c-0.311,0-0.646,0.008-1.002,0.024c-0.354,0.016-0.782,0.032-1.279,0.048l-0.128-0.144c0.013-0.806,0.029-1.531,0.043-2.178
			c0.013-0.649,0.024-1.268,0.032-1.861c0.008-0.593,0.013-1.183,0.021-1.776c0.008-0.593,0.011-1.242,0.011-1.944
			c0-0.702,0.003-1.481,0.011-2.334c0.008-0.851,0.011-1.848,0.011-2.983l-3.39,0.093l-0.106-0.117l0.128-3.414l0.149-0.141h11.151
			L144.553,54.299z M132.676,65.742c0,0.394-0.037,0.763-0.109,1.101c-0.069,0.34-0.152,0.643-0.245,0.912
			c-0.093,0.269-0.189,0.497-0.287,0.689c-0.101,0.189-0.17,0.324-0.213,0.401c-0.314,0.521-0.681,0.944-1.098,1.268
			c-0.42,0.324-0.872,0.577-1.356,0.758c-0.481,0.181-0.989,0.308-1.523,0.38c-0.532,0.069-1.069,0.106-1.609,0.106
			c-1.066,0-1.917-0.098-2.55-0.298c-0.633-0.197-1.106-0.359-1.417-0.484l-0.17-0.237c0.027-0.444,0.048-0.811,0.064-1.103
			c0.013-0.292,0.027-0.569,0.043-0.83c0.013-0.261,0.024-0.532,0.032-0.816c0.005-0.284,0.011-0.641,0.011-1.066l0.191-0.072
			c0.072,0.08,0.146,0.152,0.223,0.213c0.08,0.064,0.16,0.128,0.245,0.191c0.428,0.346,0.936,0.601,1.526,0.758
			s1.127,0.237,1.609,0.237c0.484,0,0.864-0.064,1.141-0.189c0.279-0.128,0.487-0.274,0.63-0.439
			c0.141-0.168,0.234-0.34,0.277-0.521c0.043-0.181,0.064-0.322,0.064-0.415c0-0.237-0.048-0.439-0.149-0.604
			c-0.098-0.168-0.223-0.314-0.372-0.439c-0.149-0.128-0.314-0.237-0.492-0.332c-0.178-0.096-0.343-0.181-0.5-0.261l-1.066-0.473
			c-0.37-0.191-0.758-0.404-1.162-0.641c-0.407-0.237-0.779-0.545-1.119-0.923c-0.343-0.38-0.627-0.845-0.853-1.399
			c-0.229-0.553-0.34-1.231-0.34-2.037c0-0.665,0.09-1.324,0.277-1.981c0.183-0.654,0.548-1.266,1.087-1.835
			c0.51-0.521,1.109-0.896,1.792-1.125c0.681-0.229,1.505-0.346,2.473-0.346c1.079,0,1.946,0.117,2.6,0.346
			c0.654,0.229,1.146,0.423,1.473,0.58l0.085,0.141l-0.191,3.698l-0.194,0.093c-0.154-0.125-0.308-0.253-0.457-0.378
			c-0.149-0.128-0.308-0.245-0.479-0.356c-0.372-0.237-0.758-0.415-1.165-0.534c-0.404-0.117-0.776-0.175-1.119-0.175
			c-0.396,0-0.686,0.043-0.861,0.13c-0.178,0.085-0.303,0.162-0.375,0.223c-0.128,0.128-0.237,0.284-0.33,0.473
			c-0.093,0.191-0.138,0.396-0.138,0.617c0,0.221,0.053,0.42,0.16,0.593c0.106,0.173,0.234,0.319,0.383,0.439
			c0.149,0.117,0.306,0.221,0.471,0.308c0.162,0.085,0.3,0.154,0.415,0.199l1.173,0.545c0.186,0.08,0.495,0.234,0.928,0.463
			c0.433,0.229,0.877,0.572,1.332,1.032c0.271,0.284,0.487,0.58,0.651,0.888c0.162,0.308,0.287,0.612,0.372,0.912
			c0.085,0.3,0.144,0.588,0.17,0.864C132.66,65.271,132.676,65.521,132.676,65.742 M207.486,75.606V49.223h-85.373l-5.53,24.945
			l-2.494-0.534v1.973H207.486z"/>
	</g>
	<polygon fill="none" stroke="#FFFFFF" stroke-width="0.248" points="108.526,72.437 116.582,74.162 123.341,43.661 111.211,41.741 
			"/>
	<g>
		<defs>
			<rect id="SVGID_61_" x="34.36" y="41.363" width="173.126" height="50.759"/>
		</defs>
		<clipPath id="SVGID_4_">
			<use xlink:href="#SVGID_61_"  overflow="visible"/>
		</clipPath>
		<circle clip-path="url(#SVGID_4_)" fill="none" stroke="#FFFFFF" stroke-width="0.248" cx="110.633" cy="84.721" r="5.968"/>
		<path clip-path="url(#SVGID_4_)" fill="#FFFFFF" d="M100.419,88.688c-0.019-0.263-0.032-0.492-0.04-0.686
			c-0.008-0.194-0.019-0.391-0.027-0.593c-0.008-0.202-0.016-0.431-0.019-0.681c-0.005-0.25-0.013-0.574-0.021-0.97v-0.713
			c0-0.351-0.003-0.665-0.005-0.936c-0.005-0.274-0.019-0.516-0.04-0.726c-0.024-0.213-0.061-0.401-0.114-0.569
			c-0.051-0.168-0.128-0.324-0.223-0.476c-0.202-0.324-0.455-0.54-0.758-0.646c-0.306-0.106-0.598-0.157-0.88-0.157
			c-0.183,0-0.423,0.024-0.718,0.077s-0.58,0.154-0.851,0.303c-0.098,0.064-0.191,0.125-0.284,0.186
			c-0.093,0.061-0.186,0.128-0.284,0.197l0.027-0.726l-0.133-0.117c-0.306,0.069-0.566,0.125-0.776,0.165
			c-0.213,0.04-0.409,0.074-0.596,0.104c-0.183,0.032-0.375,0.064-0.574,0.093c-0.197,0.032-0.441,0.064-0.731,0.098l-0.08,0.08
			c0.027,0.282,0.053,0.558,0.08,0.827s0.048,0.561,0.064,0.877c0.019,0.316,0.032,0.678,0.04,1.082
			c0.011,0.404,0.013,0.888,0.013,1.452c0,0.423,0,0.838-0.005,1.247s-0.011,0.824-0.021,1.247l0.08,0.093
			c0.3-0.008,0.556-0.019,0.774-0.027c0.215-0.008,0.417-0.016,0.606-0.019c0.189-0.005,0.383-0.005,0.58,0
			c0.199,0.003,0.431,0.005,0.694,0.005l0.066-0.093c-0.008-0.165-0.016-0.314-0.021-0.441c-0.003-0.128-0.008-0.266-0.011-0.415
			c-0.005-0.152-0.011-0.33-0.013-0.542c-0.005-0.21-0.013-0.492-0.021-0.845c0-0.165-0.005-0.372-0.013-0.619
			c-0.008-0.247-0.016-0.497-0.019-0.752c-0.005-0.255-0.008-0.495-0.008-0.721c0-0.223,0.005-0.401,0.013-0.534
			c0.122-0.061,0.245-0.114,0.364-0.165c0.117-0.048,0.239-0.072,0.362-0.072c0.149,0,0.266,0.029,0.351,0.085
			c0.082,0.058,0.149,0.125,0.197,0.199c0.048,0.074,0.08,0.154,0.093,0.237c0.013,0.085,0.024,0.152,0.032,0.205
			c0.011,0.088,0.021,0.218,0.035,0.391c0.013,0.17,0.024,0.37,0.032,0.593c0.011,0.223,0.016,0.463,0.021,0.713
			c0.003,0.25,0.005,0.5,0.005,0.747v0.619c0,0.229-0.003,0.457-0.005,0.686c-0.005,0.229-0.008,0.457-0.008,0.686l0.066,0.08
			c0.3-0.008,0.556-0.019,0.766-0.027c0.21-0.008,0.409-0.016,0.593-0.019c0.186-0.005,0.372-0.005,0.561,0
			c0.191,0.003,0.417,0.005,0.681,0.005L100.419,88.688z M88.295,84.426c0-0.08,0.008-0.175,0.021-0.284
			c0.013-0.109,0.04-0.218,0.08-0.324c0.04-0.104,0.096-0.205,0.17-0.303c0.074-0.096,0.183-0.175,0.324-0.237
			c0.069-0.035,0.133-0.056,0.191-0.058c0.056-0.005,0.104-0.008,0.138-0.008c0.194,0,0.348,0.045,0.463,0.138
			c0.114,0.093,0.197,0.202,0.25,0.33c0.053,0.128,0.088,0.261,0.106,0.396c0.016,0.138,0.027,0.245,0.027,0.324L88.295,84.426z
			 M92.454,85.825l0.093-0.106c0-0.245-0.005-0.524-0.019-0.83c-0.013-0.308-0.059-0.625-0.133-0.952
			c-0.074-0.324-0.194-0.641-0.356-0.944s-0.394-0.574-0.694-0.811c-0.282-0.229-0.609-0.391-0.984-0.481
			c-0.372-0.093-0.726-0.141-1.061-0.141c-0.415,0-0.832,0.066-1.255,0.199c-0.423,0.133-0.806,0.343-1.149,0.633
			c-0.343,0.29-0.622,0.673-0.838,1.143c-0.215,0.471-0.324,1.045-0.324,1.723c0,0.614,0.112,1.191,0.33,1.728
			c0.221,0.537,0.582,0.976,1.085,1.319c0.191,0.133,0.399,0.242,0.619,0.324c0.221,0.085,0.441,0.146,0.667,0.191
			c0.223,0.045,0.441,0.074,0.651,0.093c0.213,0.016,0.407,0.027,0.582,0.027c0.51,0,0.947-0.037,1.305-0.114
			c0.362-0.074,0.604-0.133,0.726-0.178c0.141-0.051,0.292-0.114,0.449-0.183l0.08-0.12l0.066-1.688l-0.093-0.066
			c-0.3,0.202-0.619,0.34-0.962,0.415c-0.343,0.077-0.697,0.114-1.058,0.114c-0.306,0-0.561-0.032-0.766-0.093
			c-0.202-0.061-0.351-0.122-0.447-0.186c-0.229-0.141-0.378-0.284-0.444-0.436c-0.064-0.149-0.12-0.324-0.165-0.526L92.454,85.825z
			 M84.847,88.688c-0.019-0.263-0.032-0.492-0.04-0.686s-0.019-0.391-0.027-0.593c-0.008-0.202-0.016-0.431-0.019-0.681
			c-0.005-0.25-0.013-0.574-0.021-0.97v-0.713c0-0.351-0.003-0.665-0.005-0.936c-0.005-0.274-0.019-0.516-0.04-0.726
			c-0.021-0.213-0.058-0.401-0.112-0.569s-0.128-0.324-0.226-0.476c-0.202-0.324-0.455-0.54-0.758-0.646s-0.596-0.157-0.877-0.157
			c-0.186,0-0.425,0.024-0.721,0.077c-0.295,0.053-0.58,0.154-0.851,0.303c-0.098,0.064-0.191,0.125-0.284,0.186
			c-0.093,0.061-0.186,0.128-0.284,0.197l0.027-0.726l-0.13-0.117c-0.308,0.069-0.569,0.125-0.779,0.165
			c-0.213,0.04-0.409,0.074-0.596,0.104c-0.183,0.032-0.375,0.064-0.574,0.093c-0.197,0.032-0.441,0.064-0.731,0.098l-0.08,0.08
			c0.027,0.282,0.053,0.558,0.08,0.827s0.048,0.561,0.066,0.877c0.016,0.316,0.029,0.678,0.04,1.082
			c0.008,0.404,0.011,0.888,0.011,1.452c0,0.423,0,0.838-0.005,1.247s-0.011,0.824-0.019,1.247l0.077,0.093
			c0.3-0.008,0.558-0.019,0.774-0.027c0.215-0.008,0.417-0.016,0.606-0.019c0.189-0.005,0.383-0.005,0.582,0
			c0.197,0.003,0.428,0.005,0.691,0.005l0.066-0.093c-0.008-0.165-0.016-0.314-0.019-0.441c-0.005-0.128-0.011-0.266-0.013-0.415
			c-0.005-0.152-0.011-0.33-0.013-0.542c-0.005-0.21-0.011-0.492-0.021-0.845c0-0.165-0.003-0.372-0.013-0.619
			c-0.008-0.247-0.016-0.497-0.019-0.752c-0.005-0.255-0.008-0.495-0.008-0.721c0-0.223,0.005-0.401,0.013-0.534
			c0.125-0.061,0.245-0.114,0.364-0.165c0.12-0.048,0.239-0.072,0.362-0.072c0.152,0,0.266,0.029,0.351,0.085
			c0.082,0.058,0.149,0.125,0.197,0.199c0.051,0.074,0.08,0.154,0.093,0.237c0.013,0.085,0.024,0.152,0.035,0.205
			c0.008,0.088,0.019,0.218,0.032,0.391c0.013,0.17,0.024,0.37,0.032,0.593c0.011,0.223,0.016,0.463,0.021,0.713
			c0.003,0.25,0.005,0.5,0.005,0.747v0.619c0,0.229-0.003,0.457-0.005,0.686c-0.005,0.229-0.008,0.457-0.008,0.686l0.066,0.08
			c0.3-0.008,0.556-0.019,0.766-0.027c0.213-0.008,0.409-0.016,0.596-0.019c0.183-0.005,0.37-0.005,0.561,0
			c0.189,0.003,0.415,0.005,0.678,0.005L84.847,88.688z M74.156,85.45c-0.003,0.141-0.013,0.298-0.027,0.471
			c-0.013,0.17-0.035,0.338-0.064,0.503c-0.032,0.162-0.074,0.298-0.128,0.404c-0.069,0.149-0.16,0.269-0.269,0.356
			c-0.112,0.088-0.242,0.133-0.391,0.133c-0.016,0-0.058-0.005-0.125-0.013s-0.141-0.035-0.223-0.08
			c-0.085-0.043-0.165-0.12-0.245-0.223c-0.08-0.106-0.141-0.253-0.186-0.439c-0.043-0.186-0.072-0.375-0.085-0.569
			c-0.013-0.194-0.019-0.396-0.019-0.609c0-0.3,0.008-0.582,0.024-0.848c0.019-0.263,0.058-0.497,0.12-0.694
			c0.061-0.199,0.154-0.359,0.277-0.479c0.125-0.117,0.287-0.178,0.489-0.178c0.327,0,0.55,0.173,0.673,0.516
			c0.125,0.346,0.186,0.822,0.186,1.43C74.164,85.203,74.161,85.309,74.156,85.45 M76.817,84.208
			c-0.053-0.295-0.122-0.553-0.205-0.774c-0.085-0.218-0.181-0.407-0.29-0.561c-0.112-0.152-0.223-0.287-0.338-0.401
			c-0.351-0.343-0.763-0.58-1.234-0.713c-0.471-0.133-0.957-0.199-1.46-0.199c-0.149,0-0.34,0.011-0.574,0.027
			c-0.234,0.019-0.484,0.064-0.752,0.133c-0.269,0.072-0.537,0.178-0.806,0.324c-0.269,0.144-0.51,0.346-0.731,0.601
			c-0.308,0.37-0.513,0.787-0.614,1.252c-0.101,0.468-0.152,0.939-0.152,1.412c0,0.239,0.016,0.518,0.053,0.84
			c0.035,0.322,0.117,0.641,0.245,0.962c0.128,0.322,0.316,0.619,0.566,0.899c0.25,0.277,0.596,0.495,1.037,0.651
			c0.282,0.106,0.585,0.178,0.909,0.218c0.327,0.04,0.604,0.061,0.832,0.061c0.598,0,1.165-0.096,1.696-0.284
			c0.532-0.189,0.97-0.526,1.313-1.01c0.133-0.194,0.237-0.404,0.311-0.633c0.074-0.229,0.13-0.455,0.17-0.681
			c0.04-0.223,0.066-0.431,0.08-0.619s0.021-0.346,0.021-0.468C76.897,84.849,76.871,84.503,76.817,84.208 M64.853,88.821
			c0.29-0.008,0.537-0.019,0.739-0.027c0.202-0.008,0.391-0.016,0.569-0.019c0.175-0.005,0.356-0.005,0.548,0
			c0.189,0.003,0.423,0.005,0.705,0.005l0.08-0.093c0.114-0.431,0.221-0.824,0.316-1.18s0.191-0.694,0.284-1.016
			c0.093-0.322,0.181-0.641,0.271-0.957c0.088-0.316,0.181-0.659,0.282-1.029c0.101-0.37,0.215-0.776,0.343-1.223
			c0.128-0.444,0.277-0.952,0.444-1.523l-0.066-0.093c-0.247,0.019-0.452,0.029-0.614,0.035c-0.162,0.003-0.314,0.008-0.455,0.013
			c-0.141,0.003-0.287,0.005-0.436,0.005s-0.33-0.005-0.542-0.013l-0.077,0.08c-0.072,0.439-0.133,0.814-0.186,1.122
			s-0.106,0.609-0.165,0.904c-0.058,0.295-0.12,0.606-0.191,0.936c-0.069,0.332-0.162,0.739-0.277,1.223
			c-0.098-0.529-0.181-0.976-0.253-1.34c-0.069-0.367-0.13-0.699-0.183-1.005c-0.053-0.303-0.104-0.598-0.152-0.891
			c-0.048-0.29-0.104-0.619-0.165-0.989l-0.106-0.08c-0.308,0.019-0.566,0.029-0.779,0.035c-0.21,0.003-0.409,0.008-0.593,0.013
			c-0.186,0.003-0.38,0.005-0.588,0.005s-0.455-0.005-0.747-0.013l-0.077,0.08c-0.08,0.423-0.146,0.784-0.199,1.087
			c-0.053,0.306-0.106,0.601-0.165,0.893c-0.058,0.29-0.122,0.601-0.197,0.936c-0.077,0.335-0.168,0.747-0.271,1.242
			c-0.114-0.484-0.21-0.896-0.284-1.234c-0.074-0.34-0.144-0.657-0.205-0.952c-0.061-0.295-0.12-0.598-0.178-0.912
			c-0.058-0.311-0.125-0.691-0.205-1.141l-0.093-0.08c-0.282,0.027-0.516,0.048-0.705,0.061s-0.372,0.024-0.548,0.032
			c-0.178,0.008-0.362,0.016-0.556,0.019c-0.194,0.005-0.436,0.008-0.726,0.008l-0.066,0.106c0.141,0.5,0.279,1.005,0.417,1.51
			c0.136,0.505,0.279,1.01,0.428,1.513c0.186,0.606,0.356,1.212,0.516,1.821c0.096,0.378,0.173,0.678,0.231,0.904
			c0.056,0.223,0.104,0.407,0.144,0.548c0.04,0.141,0.072,0.253,0.093,0.335c0.021,0.085,0.045,0.17,0.072,0.258l0.12,0.08
			c0.263-0.008,0.489-0.019,0.681-0.027c0.189-0.008,0.372-0.013,0.553-0.013h0.574h0.739l0.093-0.08l0.923-4.158
			c0.072,0.327,0.136,0.651,0.191,0.97c0.058,0.322,0.122,0.646,0.191,0.97c0.072,0.38,0.138,0.755,0.199,1.13
			c0.061,0.372,0.128,0.744,0.197,1.114L64.853,88.821z"/>
		<path clip-path="url(#SVGID_4_)" fill="#FFFFFF" d="M175.077,88.691c-0.016-0.266-0.029-0.495-0.04-0.689
			c-0.008-0.191-0.016-0.391-0.027-0.593c-0.008-0.202-0.013-0.428-0.019-0.681c-0.005-0.25-0.011-0.574-0.019-0.97v-0.713
			c0-0.351-0.003-0.665-0.008-0.936c-0.005-0.274-0.019-0.516-0.04-0.726c-0.021-0.213-0.058-0.401-0.112-0.569
			s-0.128-0.324-0.223-0.473c-0.205-0.327-0.457-0.542-0.76-0.649c-0.303-0.104-0.596-0.157-0.877-0.157
			c-0.186,0-0.425,0.027-0.721,0.077c-0.295,0.053-0.577,0.154-0.851,0.306c-0.096,0.061-0.191,0.122-0.285,0.183
			c-0.09,0.061-0.186,0.128-0.282,0.199l0.027-0.726l-0.133-0.12c-0.308,0.069-0.569,0.125-0.779,0.165
			c-0.21,0.04-0.409,0.074-0.593,0.106c-0.186,0.029-0.378,0.061-0.574,0.09c-0.199,0.032-0.444,0.064-0.734,0.101l-0.08,0.077
			c0.027,0.282,0.053,0.558,0.08,0.827c0.027,0.269,0.048,0.561,0.066,0.877c0.019,0.316,0.029,0.678,0.04,1.082
			c0.008,0.404,0.013,0.888,0.013,1.452c0,0.423-0.003,0.838-0.008,1.247c-0.003,0.409-0.011,0.827-0.019,1.247l0.08,0.093
			c0.298-0.008,0.556-0.016,0.771-0.027c0.215-0.008,0.417-0.016,0.606-0.019c0.191-0.005,0.383-0.005,0.582,0
			c0.197,0.003,0.428,0.005,0.694,0.005l0.064-0.09c-0.008-0.168-0.013-0.316-0.019-0.444c-0.005-0.128-0.008-0.266-0.013-0.415
			c-0.005-0.149-0.008-0.33-0.013-0.542c-0.005-0.21-0.011-0.492-0.019-0.843c0-0.168-0.005-0.375-0.013-0.622
			c-0.011-0.245-0.016-0.497-0.021-0.752s-0.005-0.495-0.005-0.718c0-0.226,0.003-0.404,0.013-0.534
			c0.122-0.064,0.242-0.117,0.362-0.165c0.12-0.051,0.239-0.074,0.364-0.074c0.149,0,0.266,0.029,0.348,0.085
			c0.085,0.058,0.149,0.125,0.199,0.199c0.048,0.074,0.08,0.154,0.09,0.237c0.013,0.085,0.027,0.152,0.035,0.205
			c0.008,0.088,0.019,0.218,0.032,0.391c0.013,0.17,0.024,0.37,0.035,0.593c0.008,0.226,0.013,0.463,0.019,0.713
			c0.005,0.253,0.008,0.5,0.008,0.747v0.619c0,0.229-0.003,0.457-0.008,0.686c-0.005,0.229-0.005,0.457-0.005,0.686l0.064,0.08
			c0.3-0.008,0.556-0.016,0.766-0.027c0.213-0.008,0.409-0.016,0.596-0.019c0.183-0.005,0.372-0.005,0.561,0
			c0.189,0.003,0.415,0.005,0.681,0.005L175.077,88.691z M162.908,84.426c0-0.08,0.005-0.173,0.019-0.284
			c0.013-0.109,0.04-0.218,0.08-0.322c0.04-0.106,0.096-0.207,0.173-0.306c0.074-0.096,0.181-0.175,0.322-0.237
			c0.072-0.035,0.136-0.056,0.191-0.058c0.058-0.005,0.104-0.008,0.138-0.008c0.194,0,0.348,0.048,0.463,0.138
			c0.114,0.093,0.199,0.202,0.25,0.33c0.053,0.128,0.09,0.261,0.106,0.396c0.019,0.138,0.027,0.245,0.027,0.324L162.908,84.426z
			 M167.066,85.825l0.09-0.106c0-0.245-0.005-0.521-0.019-0.83c-0.013-0.308-0.058-0.625-0.133-0.952
			c-0.074-0.324-0.191-0.641-0.356-0.944c-0.162-0.303-0.393-0.574-0.691-0.811c-0.282-0.229-0.612-0.391-0.984-0.481
			c-0.375-0.093-0.729-0.138-1.064-0.138c-0.412,0-0.832,0.064-1.252,0.197c-0.423,0.133-0.806,0.343-1.149,0.633
			c-0.343,0.292-0.625,0.673-0.84,1.143s-0.322,1.045-0.322,1.723c0,0.614,0.109,1.191,0.33,1.728
			c0.221,0.537,0.58,0.976,1.082,1.321c0.194,0.13,0.399,0.239,0.62,0.322c0.221,0.085,0.444,0.149,0.667,0.191
			c0.223,0.045,0.441,0.074,0.654,0.093c0.21,0.019,0.404,0.027,0.58,0.027c0.51,0,0.947-0.037,1.308-0.112
			c0.359-0.074,0.601-0.136,0.726-0.178c0.141-0.053,0.29-0.114,0.449-0.186l0.077-0.12l0.066-1.688l-0.093-0.066
			c-0.298,0.202-0.62,0.34-0.962,0.417c-0.343,0.074-0.697,0.112-1.056,0.112c-0.308,0-0.564-0.032-0.766-0.093
			s-0.354-0.122-0.449-0.186c-0.229-0.138-0.375-0.284-0.441-0.433c-0.066-0.152-0.122-0.327-0.165-0.529L167.066,85.825z
			 M155.21,83.607c0.114-0.043,0.226-0.085,0.332-0.125c0.104-0.04,0.229-0.058,0.37-0.058c0.149,0,0.277,0.021,0.383,0.064
			c0.104,0.045,0.194,0.098,0.269,0.16c0.074,0.061,0.136,0.125,0.178,0.191c0.045,0.066,0.074,0.117,0.093,0.152
			c0.045,0.072,0.093,0.186,0.146,0.351c0.053,0.162,0.08,0.428,0.08,0.798c0,0.343-0.043,0.633-0.128,0.864
			c-0.082,0.234-0.173,0.412-0.269,0.534c-0.114,0.133-0.234,0.237-0.356,0.311c-0.125,0.074-0.247,0.13-0.37,0.165
			c-0.125,0.035-0.247,0.058-0.37,0.066c-0.125,0.008-0.245,0.013-0.359,0.013V83.607z M155.12,81.602l-0.12-0.12
			c-0.29,0.061-0.534,0.112-0.734,0.152c-0.197,0.04-0.388,0.077-0.572,0.112c-0.186,0.035-0.378,0.069-0.574,0.098
			c-0.199,0.032-0.444,0.064-0.734,0.101l-0.08,0.09c0.027,0.354,0.053,0.691,0.08,1.018c0.027,0.324,0.048,0.689,0.066,1.095
			c0.016,0.404,0.029,0.872,0.04,1.404c0.008,0.534,0.013,1.183,0.013,1.949c0,0.766-0.005,1.521-0.013,2.271
			c-0.011,0.747-0.024,1.505-0.04,2.271l0.093,0.077c0.29-0.016,0.569-0.032,0.838-0.045c0.269-0.013,0.54-0.019,0.811-0.019
			c0.175,0,0.354,0,0.529,0.005c0.175,0.005,0.351,0.011,0.526,0.019l0.08-0.077l-0.106-3.196c0.449-0.016,0.915-0.056,1.393-0.117
			c0.481-0.064,0.957-0.234,1.433-0.516c0.378-0.229,0.673-0.481,0.883-0.76c0.213-0.277,0.38-0.569,0.503-0.877
			c0.106-0.263,0.183-0.532,0.231-0.806c0.048-0.271,0.072-0.548,0.072-0.83c0-0.407-0.056-0.808-0.17-1.21
			c-0.114-0.399-0.29-0.758-0.521-1.074c-0.234-0.316-0.526-0.572-0.877-0.766c-0.354-0.194-0.766-0.29-1.242-0.29
			c-0.255,0-0.481,0.021-0.673,0.064c-0.194,0.045-0.364,0.101-0.508,0.165c-0.146,0.066-0.271,0.138-0.378,0.213
			c-0.106,0.074-0.194,0.138-0.263,0.191L155.12,81.602z M146.963,83.607c0.114-0.043,0.223-0.085,0.33-0.125
			c0.104-0.04,0.229-0.058,0.37-0.058c0.149,0,0.277,0.021,0.383,0.064c0.104,0.045,0.194,0.098,0.269,0.16
			c0.077,0.061,0.136,0.125,0.178,0.191c0.045,0.066,0.077,0.117,0.093,0.152c0.045,0.072,0.093,0.186,0.146,0.351
			c0.053,0.162,0.08,0.428,0.08,0.798c0,0.343-0.043,0.633-0.128,0.864c-0.082,0.234-0.173,0.412-0.269,0.534
			c-0.114,0.133-0.234,0.237-0.356,0.311c-0.125,0.074-0.247,0.13-0.37,0.165c-0.125,0.035-0.247,0.058-0.37,0.066
			c-0.125,0.008-0.242,0.013-0.356,0.013V83.607z M146.87,81.602l-0.12-0.12c-0.29,0.061-0.534,0.112-0.731,0.152
			c-0.199,0.04-0.391,0.077-0.574,0.112c-0.186,0.035-0.378,0.069-0.574,0.098c-0.199,0.032-0.444,0.064-0.734,0.101l-0.08,0.09
			c0.027,0.354,0.053,0.691,0.08,1.018c0.027,0.324,0.048,0.689,0.066,1.095c0.019,0.404,0.029,0.872,0.04,1.404
			c0.008,0.534,0.013,1.183,0.013,1.949c0,0.766-0.005,1.521-0.013,2.271c-0.011,0.747-0.021,1.505-0.04,2.271l0.093,0.077
			c0.29-0.016,0.569-0.032,0.838-0.045c0.269-0.013,0.54-0.019,0.811-0.019c0.175,0,0.354,0,0.529,0.005
			c0.175,0.005,0.351,0.011,0.526,0.019l0.08-0.077l-0.104-3.196c0.447-0.016,0.912-0.056,1.391-0.117
			c0.481-0.064,0.957-0.234,1.433-0.516c0.378-0.229,0.673-0.481,0.885-0.76c0.21-0.277,0.378-0.569,0.5-0.877
			c0.106-0.263,0.183-0.532,0.231-0.806c0.048-0.271,0.072-0.548,0.072-0.83c0-0.407-0.056-0.808-0.17-1.21
			c-0.114-0.399-0.29-0.758-0.521-1.074c-0.234-0.316-0.526-0.572-0.877-0.766c-0.354-0.194-0.766-0.29-1.242-0.29
			c-0.255,0-0.479,0.021-0.673,0.064c-0.194,0.045-0.364,0.101-0.508,0.165c-0.146,0.066-0.271,0.138-0.378,0.213
			c-0.106,0.074-0.194,0.138-0.263,0.191L146.87,81.602z M140.422,85.45c-0.005,0.141-0.013,0.298-0.027,0.471
			c-0.013,0.17-0.037,0.34-0.066,0.503c-0.032,0.162-0.072,0.298-0.125,0.404c-0.072,0.149-0.162,0.269-0.271,0.356
			c-0.112,0.09-0.239,0.133-0.391,0.133c-0.016,0-0.058-0.003-0.125-0.013c-0.066-0.008-0.141-0.035-0.223-0.08
			c-0.085-0.043-0.165-0.117-0.245-0.223c-0.08-0.106-0.141-0.253-0.183-0.439c-0.045-0.183-0.074-0.375-0.088-0.569
			c-0.013-0.194-0.019-0.396-0.019-0.609c0-0.3,0.008-0.582,0.027-0.848c0.016-0.263,0.056-0.495,0.117-0.694
			c0.064-0.199,0.154-0.359,0.279-0.476c0.122-0.12,0.284-0.181,0.487-0.181c0.327,0,0.55,0.173,0.675,0.518
			c0.122,0.343,0.183,0.819,0.183,1.428C140.428,85.202,140.425,85.309,140.422,85.45 M143.081,84.208
			c-0.053-0.295-0.122-0.553-0.205-0.771c-0.082-0.221-0.181-0.407-0.29-0.561c-0.112-0.154-0.223-0.29-0.338-0.404
			c-0.351-0.343-0.763-0.58-1.234-0.713c-0.471-0.133-0.957-0.197-1.46-0.197c-0.149,0-0.34,0.008-0.574,0.027
			c-0.231,0.016-0.484,0.061-0.752,0.13c-0.269,0.072-0.534,0.178-0.803,0.324c-0.269,0.144-0.513,0.346-0.734,0.601
			c-0.308,0.37-0.513,0.787-0.614,1.252c-0.101,0.468-0.152,0.939-0.152,1.414c0,0.237,0.019,0.516,0.053,0.838
			c0.035,0.322,0.117,0.641,0.245,0.962c0.128,0.322,0.316,0.622,0.566,0.899c0.253,0.277,0.598,0.495,1.037,0.654
			c0.282,0.104,0.585,0.178,0.912,0.218c0.324,0.037,0.601,0.058,0.83,0.058c0.598,0,1.165-0.096,1.696-0.284
			c0.534-0.189,0.97-0.526,1.313-1.01c0.133-0.191,0.237-0.404,0.311-0.633c0.074-0.229,0.133-0.455,0.173-0.681
			c0.037-0.223,0.064-0.431,0.077-0.619c0.013-0.189,0.021-0.346,0.021-0.468C143.161,84.849,143.134,84.503,143.081,84.208
			 M130.619,78.327l-0.077-0.08c-0.335,0.064-0.612,0.114-0.827,0.154c-0.215,0.037-0.415,0.074-0.601,0.104
			c-0.183,0.032-0.372,0.061-0.566,0.093s-0.436,0.069-0.726,0.112l-0.053,0.08c0.027,0.237,0.051,0.457,0.072,0.659
			c0.024,0.202,0.043,0.409,0.061,0.622c0.016,0.21,0.029,0.439,0.04,0.686c0.008,0.245,0.016,0.537,0.024,0.869
			c0.011,0.335,0.016,0.723,0.021,1.162c0.005,0.441,0.005,0.954,0.005,1.545c0,0.739,0,1.473-0.005,2.199
			c-0.005,0.726-0.011,1.457-0.021,2.196l0.066,0.093c0.292-0.008,0.54-0.016,0.747-0.027c0.207-0.008,0.404-0.016,0.593-0.019
			c0.189-0.005,0.386-0.005,0.588,0c0.202,0.003,0.444,0.005,0.726,0.005l0.093-0.09c-0.019-0.495-0.032-0.915-0.045-1.263
			c-0.013-0.346-0.027-0.689-0.035-1.029c-0.008-0.338-0.019-0.705-0.027-1.101c-0.008-0.396-0.013-0.893-0.013-1.492
			c0.125-0.064,0.247-0.117,0.37-0.165c0.125-0.051,0.255-0.074,0.396-0.074c0.343,0,0.556,0.162,0.635,0.481
			c0.077,0.322,0.117,0.814,0.117,1.473v0.476c0,0.282,0.003,0.556,0.008,0.824c0.003,0.269,0.005,0.54,0.005,0.811
			c0,0.186-0.003,0.362-0.005,0.529c-0.005,0.168-0.008,0.348-0.008,0.54l0.08,0.12c0.324-0.016,0.604-0.029,0.838-0.04
			c0.234-0.008,0.479-0.013,0.734-0.013c0.167,0,0.335,0.003,0.5,0.008c0.168,0.003,0.335,0.005,0.503,0.005l0.106-0.104
			c-0.019-0.319-0.035-0.598-0.048-0.84s-0.024-0.487-0.032-0.731c-0.008-0.247-0.016-0.518-0.019-0.819
			c-0.005-0.3-0.008-0.67-0.008-1.109v-1.002c-0.008-0.476-0.037-0.877-0.085-1.202c-0.048-0.327-0.191-0.612-0.431-0.859
			c-0.122-0.122-0.292-0.247-0.513-0.375c-0.221-0.128-0.542-0.191-0.965-0.191c-0.271,0-0.524,0.027-0.752,0.085
			c-0.229,0.056-0.433,0.125-0.62,0.205c-0.183,0.08-0.348,0.165-0.489,0.258c-0.141,0.09-0.258,0.168-0.356,0.231V78.327z
			 M124.451,84.03c-0.175-0.069-0.308-0.146-0.407-0.223c-0.096-0.08-0.144-0.173-0.144-0.279c0.019-0.104,0.048-0.189,0.093-0.25
			c0.043-0.061,0.112-0.117,0.207-0.165c0.096-0.048,0.231-0.072,0.404-0.072c0.417,0,0.752,0.064,1.005,0.197
			c0.253,0.133,0.457,0.255,0.614,0.37l0.133-0.04c0.008-0.157,0.016-0.295,0.027-0.415c0.008-0.12,0.016-0.237,0.027-0.351
			c0.008-0.114,0.019-0.237,0.032-0.37c0.013-0.13,0.032-0.295,0.059-0.487l-0.077-0.08c-0.327-0.098-0.649-0.178-0.968-0.245
			c-0.322-0.066-0.705-0.098-1.154-0.098c-0.114,0-0.258,0.003-0.433,0.013c-0.175,0.008-0.367,0.029-0.574,0.066
			c-0.205,0.035-0.415,0.088-0.625,0.165c-0.21,0.074-0.407,0.178-0.593,0.308c-0.229,0.175-0.431,0.417-0.612,0.726
			c-0.181,0.308-0.269,0.665-0.269,1.069c0,0.308,0.051,0.585,0.152,0.827c0.101,0.242,0.205,0.423,0.308,0.548
			c0.168,0.202,0.364,0.359,0.588,0.473c0.226,0.117,0.433,0.218,0.627,0.306l0.556,0.223c0.175,0.072,0.332,0.146,0.473,0.223
			c0.141,0.08,0.213,0.205,0.213,0.37c0,0.019-0.005,0.053-0.013,0.106c-0.011,0.053-0.04,0.109-0.093,0.165
			c-0.053,0.058-0.133,0.112-0.237,0.16c-0.106,0.048-0.255,0.072-0.449,0.072c-0.229,0-0.479-0.037-0.747-0.112
			c-0.269-0.074-0.51-0.183-0.731-0.324c-0.098-0.053-0.186-0.109-0.263-0.17c-0.08-0.061-0.16-0.128-0.239-0.199l-0.13,0.066
			l-0.093,1.718l0.08,0.144c0.051,0.019,0.106,0.04,0.162,0.066c0.058,0.027,0.117,0.048,0.178,0.066
			c0.16,0.061,0.431,0.133,0.816,0.218c0.388,0.082,0.819,0.125,1.292,0.125c0.526,0,0.992-0.061,1.396-0.186
			c0.404-0.122,0.742-0.292,1.013-0.508c0.274-0.215,0.479-0.476,0.619-0.779c0.141-0.303,0.21-0.635,0.21-0.997
			c0-0.404-0.085-0.742-0.255-1.016c-0.17-0.271-0.34-0.479-0.516-0.619c-0.141-0.114-0.271-0.202-0.394-0.263
			c-0.122-0.064-0.239-0.114-0.354-0.16L124.451,84.03z"/>
	</g>
</g>
</svg>
